{
  "_class": "shapePath",
  "booleanOperation": -1,
  "do_objectID": "9066BF69-7D65-4493-8A42-2D6C9D60BC24",
  "edited": true,
  "exportOptions": {
    "_class": "exportOptions",
    "do_objectID": "3AA51235-12FD-456E-A81E-0A117BC41959",
    "exportFormats": [
    ],
    "includedLayerIds": [
    ],
    "layerOptions": 0,
    "shouldTrim": false
  },
  "frame": {
    "_class": "rect",
    "constrainProportions": false,
    "do_objectID": "B1F27A0B-7671-4EAF-9C94-0F9904AD963E",
    "height": 17.99999892,
    "width": 17.99999892,
    "x": 0,
    "y": 0
  },
  "isClosed": true,
  "isFixedToViewport": false,
  "isFlippedHorizontal": false,
  "isFlippedVertical": false,
  "isLocked": false,
  "isVisible": true,
  "layerListExpandedType": 0,
  "name": "Path",
  "nameIsFixed": false,
  "pointRadiusBehaviour": 1,
  "points": [
    {
      "_class": "curvePoint",
      "cornerRadius": 0,
      "curveFrom": "{0, 0.049777772222222204}",
      "curveMode": 4,
      "curveTo": "{0, 0.11111111111111113}",
      "hasCurveFrom": true,
      "hasCurveTo": false,
      "point": "{0, 0.11111111111111113}"
    },
    {
      "_class": "curvePoint",
      "cornerRadius": 0,
      "curveFrom": "{0.11111111111111108, 0}",
      "curveMode": 4,
      "curveTo": "{0.049666669444444422, 0}",
      "hasCurveFrom": false,
      "hasCurveTo": true,
      "point": "{0.11111111111111108, 0}"
    },
    {
      "_class": "curvePoint",
      "cornerRadius": 0,
      "curveFrom": "{0.95019446111111094, 0}",
      "curveMode": 4,
      "curveTo": "{0.88888888888888884, 0}",
      "hasCurveFrom": true,
      "hasCurveTo": false,
      "point": "{0.88888888888888884, 0}"
    },
    {
      "_class": "curvePoint",
      "cornerRadius": 0,
      "curveFrom": "{1, 0.11111111111111113}",
      "curveMode": 4,
      "curveTo": "{1, 0.049777772222222204}",
      "hasCurveFrom": false,
      "hasCurveTo": true,
      "point": "{1, 0.11111111111111113}"
    },
    {
      "_class": "curvePoint",
      "cornerRadius": 0,
      "curveFrom": "{1, 0.95022222222222208}",
      "curveMode": 4,
      "curveTo": "{1, 0.88888888888888884}",
      "hasCurveFrom": true,
      "hasCurveTo": false,
      "point": "{1, 0.88888888888888884}"
    },
    {
      "_class": "curvePoint",
      "cornerRadius": 0,
      "curveFrom": "{0.88888888888888884, 1}",
      "curveMode": 4,
      "curveTo": "{0.95019446111111094, 1}",
      "hasCurveFrom": false,
      "hasCurveTo": true,
      "point": "{0.88888888888888884, 1}"
    },
    {
      "_class": "curvePoint",
      "cornerRadius": 0,
      "curveFrom": "{0.049666669444444422, 1}",
      "curveMode": 4,
      "curveTo": "{0.11111111111111108, 1}",
      "hasCurveFrom": true,
      "hasCurveTo": false,
      "point": "{0.11111111111111108, 1}"
    },
    {
      "_class": "curvePoint",
      "cornerRadius": 0,
      "curveFrom": "{0, 0.88888888888888884}",
      "curveMode": 4,
      "curveTo": "{0, 0.95022222222222208}",
      "hasCurveFrom": false,
      "hasCurveTo": true,
      "point": "{0, 0.88888888888888884}"
    }
  ],
  "resizingConstraint": 63,
  "resizingType": 0,
  "rotation": 0,
  "shouldBreakMaskChain": false
}