{
  "_class": "group",
  "booleanOperation": 0,
  "do_objectID": "08A9F829-57FB-4270-96B4-BC429F82EC71",
  "exportOptions": {
    "_class": "exportOptions",
    "do_objectID": "EF4B1CFD-6AC7-42D8-940C-091C5DD965C6",
    "exportFormats": [
    ],
    "includedLayerIds": [
    ],
    "layerOptions": 0,
    "shouldTrim": false
  },
  "frame": {
    "_class": "rect",
    "constrainProportions": false,
    "do_objectID": "40134386-5434-444F-A800-8EDEFDC95288",
    "height": 48,
    "width": 160,
    "x": 160,
    "y": 0
  },
  "hasClickThrough": false,
  "isFixedToViewport": false,
  "isFlippedHorizontal": false,
  "isFlippedVertical": false,
  "isLocked": false,
  "isVisible": true,
  "layerListExpandedType": 0,
  "layers": [
    {
      "class": "shapeGroup",
      "id": "B1C4D3D3-5407-4BD6-8663-B5211A5BE292"
    },
    {
      "class": "text",
      "id": "115D1AB8-D8FA-4B13-A876-CA060342A21D"
    }
  ],
  "name": "tab",
  "nameIsFixed": true,
  "resizingConstraint": 15,
  "resizingType": 0,
  "rotation": 0,
  "shouldBreakMaskChain": false,
  "style": {
    "_class": "style",
    "do_objectID": "5BEFD8E3-0414-49AF-B999-BC1FB885886F",
    "endMarkerType": 0,
    "miterLimit": 10,
    "startMarkerType": 0,
    "windingRule": 1
  },
  "userInfo": {
    "com.animaapp.stc-sketch-plugin": {
      "kModelPropertiesKey": {
      }
    }
  }
}