{
  "_class": "shapeGroup",
  "booleanOperation": 0,
  "clippingMaskMode": 0,
  "do_objectID": "333C7F3A-2F58-4151-87D4-E1C31782D63F",
  "exportOptions": {
    "_class": "exportOptions",
    "do_objectID": "C139040D-6919-46F8-BF6B-B10BA96B0BE9",
    "exportFormats": [
    ],
    "includedLayerIds": [
    ],
    "layerOptions": 0,
    "shouldTrim": false
  },
  "frame": {
    "_class": "rect",
    "constrainProportions": false,
    "do_objectID": "64F14FDF-1923-4622-95EC-488BA4DC9AF3",
    "height": 17.94358222222223,
    "width": 16.36382222222226,
    "x": 0.9015066666666482,
    "y": 0.9304918518518492
  },
  "hasClickThrough": false,
  "hasClippingMask": true,
  "isFixedToViewport": false,
  "isFlippedHorizontal": false,
  "isFlippedVertical": false,
  "isLocked": false,
  "isVisible": true,
  "layerListExpandedType": 0,
  "layers": [
    {
      "class": "shapePath",
      "id": "03DEF414-04B3-4248-99D6-161CAA0CDDAB"
    }
  ],
  "name": "Clip 13",
  "nameIsFixed": false,
  "resizingConstraint": 63,
  "resizingType": 0,
  "rotation": 0,
  "shouldBreakMaskChain": false,
  "style": {
    "_class": "style",
    "do_objectID": "DCE7CDC1-DE7A-46AA-BA3E-1C7115AC7A1A",
    "endMarkerType": 0,
    "miterLimit": 10,
    "startMarkerType": 0,
    "windingRule": 1
  },
  "windingRule": 1
}