{
  "_class": "shapePath",
  "booleanOperation": 0,
  "do_objectID": "98816A04-532D-4B66-B67C-F26F8DB1D7FD",
  "edited": true,
  "exportOptions": {
    "_class": "exportOptions",
    "exportFormats": [
    ],
    "includedLayerIds": [
    ],
    "layerOptions": 0,
    "shouldTrim": false
  },
  "frame": {
    "_class": "rect",
    "constrainProportions": false,
    "height": 6,
    "width": 1,
    "x": 0,
    "y": 16
  },
  "isClosed": false,
  "isFixedToViewport": false,
  "isFlippedHorizontal": false,
  "isFlippedVertical": false,
  "isLocked": false,
  "isVisible": true,
  "layerListExpandedType": 0,
  "name": "Fill 10",
  "nameIsFixed": false,
  "pointRadiusBehaviour": 0,
  "points": [
    {
      "_class": "curvePoint",
      "cornerRadius": 0,
      "curveFrom": "{0.90168153903248327, 0.46062835249042205}",
      "curveMode": 4,
      "curveTo": "{0.79634091791632888, 0.55245977011494252}",
      "hasCurveFrom": true,
      "hasCurveTo": false,
      "point": "{0.79634091791632888, 0.55245977011494252}"
    },
    {
      "_class": "curvePoint",
      "cornerRadius": 0,
      "curveFrom": "{0.22606121704185136, 0.57581609195402306}",
      "curveMode": 4,
      "curveTo": "{1.1668030095588879, 0}",
      "hasCurveFrom": true,
      "hasCurveTo": true,
      "point": "{0.84785162719908302, 0}"
    },
    {
      "_class": "curvePoint",
      "cornerRadius": 0,
      "curveFrom": "{0, 1}",
      "curveMode": 4,
      "curveTo": "{0.24888705267188774, 0.56849042145593864}",
      "hasCurveFrom": false,
      "hasCurveTo": true,
      "point": "{0, 1}"
    }
  ],
  "resizingConstraint": 63,
  "resizingType": 0,
  "rotation": 0,
  "shouldBreakMaskChain": false
}