{
  "_class": "symbolInstance",
  "booleanOperation": 0,
  "do_objectID": "96ADBF6C-BBFD-43F9-9FC2-0A23248F3E0E",
  "exportOptions": {
    "_class": "exportOptions",
    "do_objectID": "A24097B8-B77B-40C8-B2B4-C3BA8ABC8E4C",
    "exportFormats": [
    ],
    "includedLayerIds": [
    ],
    "layerOptions": 0,
    "shouldTrim": false
  },
  "frame": {
    "_class": "rect",
    "constrainProportions": true,
    "do_objectID": "3486AA3A-1ECA-49FE-BE72-960FEBE992AE",
    "height": 24,
    "width": 24,
    "x": 68,
    "y": 56
  },
  "horizontalSpacing": 0,
  "isFixedToViewport": false,
  "isFlippedHorizontal": false,
  "isFlippedVertical": false,
  "isLocked": false,
  "isVisible": true,
  "layerListExpandedType": 0,
  "name": "25h8/chat/mat-icon-button/more-vert/more-vert-default",
  "nameIsFixed": false,
  "overrideValues": [
  ],
  "resizingConstraint": 57,
  "resizingType": 0,
  "rotation": 0,
  "scale": 1,
  "shouldBreakMaskChain": false,
  "style": {
    "_class": "style",
    "do_objectID": "8C088E8A-EDD4-4455-A199-7BABC9F7A168",
    "endMarkerType": 0,
    "miterLimit": 10,
    "startMarkerType": 0,
    "windingRule": 1
  },
  "symbolID": "BCED18AA-CE86-48C3-BB67-04340E10CF6B",
  "verticalSpacing": 0
}