{
  "_class": "symbolInstance",
  "booleanOperation": 0,
  "do_objectID": "1A98EFD0-F4BC-4180-AB69-23EAB530ABB1",
  "exportOptions": {
    "_class": "exportOptions",
    "do_objectID": "0B03E299-F29D-4000-8568-3140F9363AC2",
    "exportFormats": [
    ],
    "includedLayerIds": [
    ],
    "layerOptions": 0,
    "shouldTrim": false
  },
  "frame": {
    "_class": "rect",
    "constrainProportions": false,
    "do_objectID": "5587375B-F912-461C-8F88-6260F2689E50",
    "height": 80,
    "width": 768,
    "x": 0,
    "y": 240
  },
  "horizontalSpacing": 0,
  "isFixedToViewport": false,
  "isFlippedHorizontal": false,
  "isFlippedVertical": false,
  "isLocked": false,
  "isVisible": true,
  "layerListExpandedType": 0,
  "name": "chat",
  "nameIsFixed": false,
  "overrideValues": [
  ],
  "resizingConstraint": 63,
  "resizingType": 0,
  "rotation": 0,
  "scale": 1,
  "shouldBreakMaskChain": false,
  "style": {
    "_class": "style",
    "do_objectID": "97EC0BE2-88FD-421C-B552-C52B35EF7F84",
    "endMarkerType": 0,
    "miterLimit": 10,
    "startMarkerType": 0,
    "windingRule": 1
  },
  "symbolID": "3C5A1D0D-4593-49D3-BED5-2DBE2A6566B0",
  "verticalSpacing": 0
}