{
  "_class": "symbolInstance",
  "booleanOperation": 0,
  "do_objectID": "AA4FAE14-69DE-432D-998F-45BFC437845E",
  "exportOptions": {
    "_class": "exportOptions",
    "do_objectID": "398882DC-1A07-42CB-8C47-6AECA1162D5C",
    "exportFormats": [
    ],
    "includedLayerIds": [
    ],
    "layerOptions": 0,
    "shouldTrim": false
  },
  "frame": {
    "_class": "rect",
    "constrainProportions": false,
    "do_objectID": "589BBEEE-1CC8-4009-B870-5326123D2AEF",
    "height": 80,
    "width": 768,
    "x": 0,
    "y": 160
  },
  "horizontalSpacing": 0,
  "isFixedToViewport": false,
  "isFlippedHorizontal": false,
  "isFlippedVertical": false,
  "isLocked": false,
  "isVisible": true,
  "layerListExpandedType": 0,
  "name": "chat",
  "nameIsFixed": false,
  "overrideValues": [
  ],
  "resizingConstraint": 63,
  "resizingType": 0,
  "rotation": 0,
  "scale": 1,
  "shouldBreakMaskChain": false,
  "style": {
    "_class": "style",
    "do_objectID": "C6C040B4-C278-4DB9-9509-91D8A0E4C8EF",
    "endMarkerType": 0,
    "miterLimit": 10,
    "startMarkerType": 0,
    "windingRule": 1
  },
  "symbolID": "67E4337C-8E77-4680-BB08-2C10A20C4FD3",
  "verticalSpacing": 0
}