{
  "_class": "symbolInstance",
  "booleanOperation": 0,
  "do_objectID": "B873F512-4369-4C33-BDC9-9994D97756EF",
  "exportOptions": {
    "_class": "exportOptions",
    "do_objectID": "87388581-73DA-44E4-ACFD-032C0678BC0C",
    "exportFormats": [
    ],
    "includedLayerIds": [
    ],
    "layerOptions": 0,
    "shouldTrim": false
  },
  "frame": {
    "_class": "rect",
    "constrainProportions": false,
    "do_objectID": "10E84A79-F94D-43E0-A7BB-D5BA0F18040C",
    "height": 80,
    "width": 768,
    "x": 0,
    "y": 320
  },
  "horizontalSpacing": 0,
  "isFixedToViewport": false,
  "isFlippedHorizontal": false,
  "isFlippedVertical": false,
  "isLocked": false,
  "isVisible": true,
  "layerListExpandedType": 0,
  "name": "25h8/chat/chat-list-item",
  "nameIsFixed": false,
  "overrideValues": [
  ],
  "resizingConstraint": 63,
  "resizingType": 0,
  "rotation": 0,
  "scale": 1,
  "shouldBreakMaskChain": false,
  "style": {
    "_class": "style",
    "do_objectID": "96CC91F6-397C-4BD9-B764-024A2D7200BA",
    "endMarkerType": 0,
    "miterLimit": 10,
    "startMarkerType": 0,
    "windingRule": 1
  },
  "symbolID": "359A9BD0-A10E-45CA-B6B3-22CDD16204F7",
  "verticalSpacing": 0
}