{
  "_class": "shapePath",
  "booleanOperation": -1,
  "do_objectID": "8399115C-FEAB-41CB-9418-E5B347DD8ABC",
  "edited": true,
  "exportOptions": {
    "_class": "exportOptions",
    "do_objectID": "32ED26DC-07F7-4876-A7F9-4C11EFB3C61A",
    "exportFormats": [
    ],
    "includedLayerIds": [
    ],
    "layerOptions": 0,
    "shouldTrim": false
  },
  "frame": {
    "_class": "rect",
    "constrainProportions": false,
    "do_objectID": "ABBB2A20-7645-468E-8C76-4A59B963C56E",
    "height": 16.126,
    "width": 18.344,
    "x": 0,
    "y": 0
  },
  "isClosed": true,
  "isFixedToViewport": false,
  "isFlippedHorizontal": false,
  "isFlippedVertical": false,
  "isLocked": false,
  "isVisible": true,
  "layerListExpandedType": 0,
  "name": "Path",
  "nameIsFixed": false,
  "pointRadiusBehaviour": 1,
  "points": [
    {
      "_class": "curvePoint",
      "cornerRadius": 0,
      "curveFrom": "{0.8716092455298734, 1}",
      "curveMode": 1,
      "curveTo": "{0.8716092455298734, 1}",
      "hasCurveFrom": false,
      "hasCurveTo": false,
      "point": "{0.8716092455298734, 1}"
    },
    {
      "_class": "curvePoint",
      "cornerRadius": 0,
      "curveFrom": "{1, 1}",
      "curveMode": 1,
      "curveTo": "{1, 1}",
      "hasCurveFrom": false,
      "hasCurveTo": false,
      "point": "{1, 1}"
    },
    {
      "_class": "curvePoint",
      "cornerRadius": 0,
      "curveFrom": "{0.12847797645006545, 0}",
      "curveMode": 1,
      "curveTo": "{0.12847797645006545, 0}",
      "hasCurveFrom": false,
      "hasCurveTo": false,
      "point": "{0.12847797645006545, 0}"
    },
    {
      "_class": "curvePoint",
      "cornerRadius": 0,
      "curveFrom": "{0, 0}",
      "curveMode": 1,
      "curveTo": "{0, 0}",
      "hasCurveFrom": false,
      "hasCurveTo": false,
      "point": "{0, 0}"
    }
  ],
  "resizingConstraint": 63,
  "resizingType": 0,
  "rotation": 0,
  "shouldBreakMaskChain": false
}