{
  "_class": "symbolInstance",
  "booleanOperation": 0,
  "do_objectID": "63916D32-EDCB-4CEC-89FB-6B9F578F2FBE",
  "exportOptions": {
    "_class": "exportOptions",
    "do_objectID": "D237EBC8-2DCB-4B72-83EC-FBF6E064ABAE",
    "exportFormats": [
    ],
    "includedLayerIds": [
    ],
    "layerOptions": 0,
    "shouldTrim": false
  },
  "frame": {
    "_class": "rect",
    "constrainProportions": false,
    "do_objectID": "DBD9D211-DBB4-455E-88CB-43EBE5EBB9F6",
    "height": 48,
    "width": 240,
    "x": 8,
    "y": 211
  },
  "horizontalSpacing": 0,
  "isFixedToViewport": false,
  "isFlippedHorizontal": false,
  "isFlippedVertical": false,
  "isLocked": false,
  "isVisible": true,
  "layerListExpandedType": 0,
  "name": "extendet-FAB",
  "nameIsFixed": false,
  "overrideValues": [
  ],
  "resizingConstraint": 63,
  "resizingType": 0,
  "rotation": 0,
  "scale": 1,
  "shouldBreakMaskChain": false,
  "style": {
    "_class": "style",
    "do_objectID": "3543636B-02CB-4C2F-83F2-3C18EB4D5E36",
    "endMarkerType": 0,
    "miterLimit": 10,
    "startMarkerType": 0,
    "windingRule": 1
  },
  "symbolID": "96A8986A-07B2-4C89-BA78-1EE33C859171",
  "verticalSpacing": 0
}