{
  "_class": "shapePath",
  "booleanOperation": -1,
  "do_objectID": "78217586-6BB5-470D-955F-FAA99E20F45F",
  "edited": true,
  "exportOptions": {
    "_class": "exportOptions",
    "exportFormats": [
    ],
    "includedLayerIds": [
    ],
    "layerOptions": 0,
    "shouldTrim": false
  },
  "frame": {
    "_class": "rect",
    "constrainProportions": false,
    "height": 9.600000000000001,
    "width": 9.600000000000001,
    "x": 7.399999999999864,
    "y": 7.400000000000034
  },
  "isClosed": true,
  "isFixedToViewport": false,
  "isFlippedHorizontal": false,
  "isFlippedVertical": false,
  "isLocked": false,
  "isVisible": true,
  "layerListExpandedType": 0,
  "name": "Shape",
  "nameIsFixed": false,
  "pointRadiusBehaviour": 0,
  "points": [
    {
      "_class": "curvePoint",
      "cornerRadius": 0,
      "curveFrom": "{0.9375, 0}",
      "curveMode": 1,
      "curveTo": "{0.9375, 0}",
      "hasCurveFrom": false,
      "hasCurveTo": false,
      "point": "{0.9375, 0}"
    },
    {
      "_class": "curvePoint",
      "cornerRadius": 0,
      "curveFrom": "{0.8125, 0}",
      "curveMode": 1,
      "curveTo": "{0.8125, 0}",
      "hasCurveFrom": false,
      "hasCurveTo": false,
      "point": "{0.8125, 0}"
    },
    {
      "_class": "curvePoint",
      "cornerRadius": 0,
      "curveFrom": "{0.8125, 0.5625}",
      "curveMode": 1,
      "curveTo": "{0.8125, 0.5625}",
      "hasCurveFrom": false,
      "hasCurveTo": false,
      "point": "{0.8125, 0.5625}"
    },
    {
      "_class": "curvePoint",
      "cornerRadius": 0,
      "curveFrom": "{0, 0.5625}",
      "curveMode": 1,
      "curveTo": "{0, 0.5625}",
      "hasCurveFrom": false,
      "hasCurveTo": false,
      "point": "{0, 0.5625}"
    },
    {
      "_class": "curvePoint",
      "cornerRadius": 0,
      "curveFrom": "{0, 0.72187500000000004}",
      "curveMode": 4,
      "curveTo": "{0, 0.6875}",
      "hasCurveFrom": true,
      "hasCurveTo": false,
      "point": "{0, 0.6875}"
    },
    {
      "_class": "curvePoint",
      "cornerRadius": 0,
      "curveFrom": "{0.0625, 0.75}",
      "curveMode": 4,
      "curveTo": "{0.028125000000000011, 0.75}",
      "hasCurveFrom": false,
      "hasCurveTo": true,
      "point": "{0.0625, 0.75}"
    },
    {
      "_class": "curvePoint",
      "cornerRadius": 0,
      "curveFrom": "{0.75, 0.75}",
      "curveMode": 1,
      "curveTo": "{0.75, 0.75}",
      "hasCurveFrom": false,
      "hasCurveTo": false,
      "point": "{0.75, 0.75}"
    },
    {
      "_class": "curvePoint",
      "cornerRadius": 0,
      "curveFrom": "{1, 1}",
      "curveMode": 1,
      "curveTo": "{1, 1}",
      "hasCurveFrom": false,
      "hasCurveTo": false,
      "point": "{1, 1}"
    },
    {
      "_class": "curvePoint",
      "cornerRadius": 0,
      "curveFrom": "{1, 0.028125000000000011}",
      "curveMode": 4,
      "curveTo": "{1, 0.0625}",
      "hasCurveFrom": true,
      "hasCurveTo": false,
      "point": "{1, 0.0625}"
    },
    {
      "_class": "curvePoint",
      "cornerRadius": 0,
      "curveFrom": "{0.9375, 0}",
      "curveMode": 4,
      "curveTo": "{0.97187500000000004, 0}",
      "hasCurveFrom": false,
      "hasCurveTo": true,
      "point": "{0.9375, 0}"
    }
  ],
  "resizingConstraint": 63,
  "resizingType": 0,
  "rotation": 0,
  "shouldBreakMaskChain": false
}