{
  "_class": "shapeGroup",
  "booleanOperation": 0,
  "clippingMaskMode": 0,
  "do_objectID": "E440F1A8-F419-4ECD-83DD-8CE75782BDAC",
  "exportOptions": {
    "_class": "exportOptions",
    "exportFormats": [
    ],
    "includedLayerIds": [
    ],
    "layerOptions": 0,
    "shouldTrim": false
  },
  "frame": {
    "_class": "rect",
    "constrainProportions": false,
    "height": 22,
    "width": 22,
    "x": 9,
    "y": 9
  },
  "hasClickThrough": false,
  "hasClippingMask": false,
  "isFixedToViewport": false,
  "isFlippedHorizontal": false,
  "isFlippedVertical": false,
  "isLocked": false,
  "isVisible": true,
  "layerListExpandedType": 0,
  "layers": [
    {
      "class": "oval",
      "id": "0D646980-DB99-4C63-9FA3-8560FF8FE9AB"
    },
    {
      "class": "oval",
      "id": "1AE1293E-07AE-49ED-B8B2-2079CC82A65A"
    },
    {
      "class": "shapePath",
      "id": "78217586-6BB5-470D-955F-FAA99E20F45F"
    },
    {
      "class": "shapePath",
      "id": "0A5E6F7C-0862-4DC0-8AB4-E02DE65768C8"
    }
  ],
  "name": "public forum",
  "nameIsFixed": true,
  "originalObjectID": "E440F1A8-F419-4ECD-83DD-8CE75782BDAC",
  "resizingConstraint": 63,
  "resizingType": 0,
  "rotation": 0,
  "shouldBreakMaskChain": false,
  "style": {
    "_class": "style",
    "endMarkerType": 0,
    "fills": [
      {
        "_class": "fill",
        "color": {
          "_class": "color",
          "alpha": 0.54,
          "blue": 0,
          "green": 0,
          "red": 0
        },
        "fillType": 0,
        "isEnabled": true,
        "noiseIndex": 0,
        "noiseIntensity": 0,
        "patternFillType": 0,
        "patternTileScale": 1
      }
    ],
    "miterLimit": 10,
    "startMarkerType": 0,
    "windingRule": 1
  },
  "windingRule": 1
}