{
  "_class": "group",
  "booleanOperation": 0,
  "do_objectID": "2E939B55-EB78-41A4-8C32-DB9AAA5D4A2C",
  "exportOptions": {
    "_class": "exportOptions",
    "do_objectID": "3EE88953-C3A2-4F8C-B339-6E6C0C9A2F97",
    "exportFormats": [
    ],
    "includedLayerIds": [
    ],
    "layerOptions": 0,
    "shouldTrim": false
  },
  "frame": {
    "_class": "rect",
    "constrainProportions": false,
    "do_objectID": "0EEEF996-4BF2-481C-9636-2DF1DFE0E714",
    "height": 24,
    "width": 63,
    "x": 56,
    "y": 14
  },
  "hasClickThrough": false,
  "isFixedToViewport": false,
  "isFlippedHorizontal": false,
  "isFlippedVertical": false,
  "isLocked": false,
  "isVisible": true,
  "layerListExpandedType": 0,
  "layers": [
    {
      "class": "text",
      "id": "666A53AA-1ABD-4170-BED6-F49960406597"
    }
  ],
  "name": "25h8/chat/txt-87opacity-medium",
  "nameIsFixed": false,
  "resizingConstraint": 59,
  "resizingType": 0,
  "rotation": 0,
  "shouldBreakMaskChain": false,
  "style": {
    "_class": "style",
    "do_objectID": "71D30C35-178A-4D16-B8AF-8677D7A22E6C",
    "endMarkerType": 0,
    "miterLimit": 10,
    "startMarkerType": 0,
    "windingRule": 1
  }
}