{
  "_class": "shapePath",
  "booleanOperation": -1,
  "do_objectID": "7F66BEFF-363F-4BE9-BA37-2B3645265361",
  "edited": true,
  "exportOptions": {
    "_class": "exportOptions",
    "do_objectID": "3D2DED08-13EC-4B31-AB85-583C0503796A",
    "exportFormats": [
    ],
    "includedLayerIds": [
    ],
    "layerOptions": 0,
    "shouldTrim": false
  },
  "frame": {
    "_class": "rect",
    "constrainProportions": false,
    "do_objectID": "6A641DF5-2A7B-49B8-B017-8D8C3819C196",
    "height": 16.12757142857143,
    "width": 18.344,
    "x": 8.881784197001256e-16,
    "y": 0
  },
  "isClosed": true,
  "isFixedToViewport": false,
  "isFlippedHorizontal": false,
  "isFlippedVertical": false,
  "isLocked": false,
  "isVisible": true,
  "layerListExpandedType": 0,
  "name": "Path",
  "nameIsFixed": false,
  "pointRadiusBehaviour": 1,
  "points": [
    {
      "_class": "curvePoint",
      "cornerRadius": 0,
      "curveFrom": "{0.8716092455298734, 0}",
      "curveMode": 1,
      "curveTo": "{0.8716092455298734, 0}",
      "hasCurveFrom": false,
      "hasCurveTo": false,
      "point": "{0.8716092455298734, 0}"
    },
    {
      "_class": "curvePoint",
      "cornerRadius": 0,
      "curveFrom": "{0.99999999999999989, 0}",
      "curveMode": 1,
      "curveTo": "{0.99999999999999989, 0}",
      "hasCurveFrom": false,
      "hasCurveTo": false,
      "point": "{0.99999999999999989, 0}"
    },
    {
      "_class": "curvePoint",
      "cornerRadius": 0,
      "curveFrom": "{0.1284779764500654, 1}",
      "curveMode": 1,
      "curveTo": "{0.1284779764500654, 1}",
      "hasCurveFrom": false,
      "hasCurveTo": false,
      "point": "{0.1284779764500654, 1}"
    },
    {
      "_class": "curvePoint",
      "cornerRadius": 0,
      "curveFrom": "{0, 1}",
      "curveMode": 1,
      "curveTo": "{0, 1}",
      "hasCurveFrom": false,
      "hasCurveTo": false,
      "point": "{0, 1}"
    }
  ],
  "resizingConstraint": 63,
  "resizingType": 0,
  "rotation": 0,
  "shouldBreakMaskChain": false
}