{
  "_class": "shapeGroup",
  "booleanOperation": 0,
  "clippingMaskMode": 0,
  "do_objectID": "2022E0E7-9D55-44C1-A381-944408AE97B6",
  "exportOptions": {
    "_class": "exportOptions",
    "do_objectID": "2A60126F-2372-4F73-8E1C-7B6465092CA2",
    "exportFormats": [
    ],
    "includedLayerIds": [
    ],
    "layerOptions": 0,
    "shouldTrim": false
  },
  "frame": {
    "_class": "rect",
    "constrainProportions": false,
    "do_objectID": "68D0F7B6-4EE6-4C06-9A80-F5C1C9DBE457",
    "height": 16.12757142857143,
    "width": 18.344,
    "x": 8.795199999999932,
    "y": 0.2278571428571142
  },
  "hasClickThrough": false,
  "hasClippingMask": false,
  "isFixedToViewport": false,
  "isFlippedHorizontal": false,
  "isFlippedVertical": false,
  "isLocked": false,
  "isVisible": true,
  "layerListExpandedType": 1,
  "layers": [
    {
      "class": "shapePath",
      "id": "7F66BEFF-363F-4BE9-BA37-2B3645265361"
    }
  ],
  "name": "Path",
  "nameIsFixed": false,
  "resizingConstraint": 63,
  "resizingType": 0,
  "rotation": 0,
  "shouldBreakMaskChain": false,
  "style": {
    "_class": "style",
    "blur": {
      "_class": "blur",
      "center": "{0.5, 0.5}",
      "do_objectID": "079D967A-82E7-4D27-870C-FE6A745E30DC",
      "isEnabled": false,
      "motionAngle": 0,
      "radius": 16,
      "type": 0
    },
    "do_objectID": "CF7110DE-6135-4C15-A19B-9D646C516ED3",
    "endMarkerType": 0,
    "fills": [
      {
        "_class": "fill",
        "color": {
          "_class": "color",
          "alpha": 1,
          "blue": 0.9294117647058824,
          "green": 0.8274509803921568,
          "red": 0.5568627450980392
        },
        "fillType": 1,
        "gradient": {
          "_class": "gradient",
          "elipseLength": 0,
          "from": "{1.3628966726177496, 0}",
          "gradientType": 0,
          "stops": [
            {
              "_class": "gradientStop",
              "color": {
                "_class": "color",
                "alpha": 1,
                "blue": 0.5215686274509804,
                "green": 0.411764705882353,
                "red": 0.01568627450980398
              },
              "position": 0
            },
            {
              "_class": "gradientStop",
              "color": {
                "_class": "color",
                "alpha": 1,
                "blue": 0.9734002976190477,
                "green": 0.9734002976190477,
                "red": 0.9734002976190477
              },
              "position": 1
            }
          ],
          "to": "{0.54979553089566069, 0.96100677189906891}"
        },
        "isEnabled": true,
        "noiseIndex": 0,
        "noiseIntensity": 0,
        "patternFillType": 1,
        "patternTileScale": 1
      }
    ],
    "miterLimit": 10,
    "startMarkerType": 0,
    "windingRule": 1
  },
  "windingRule": 1
}