{
  "_class": "symbolInstance",
  "booleanOperation": 0,
  "do_objectID": "730BA18F-279E-461B-8D6A-56B42747BA50",
  "exportOptions": {
    "_class": "exportOptions",
    "do_objectID": "9CB400D6-7E99-47AD-B62E-5EA622FBE251",
    "exportFormats": [
    ],
    "includedLayerIds": [
    ],
    "layerOptions": 0,
    "shouldTrim": false
  },
  "frame": {
    "_class": "rect",
    "constrainProportions": false,
    "do_objectID": "D96F30B9-55F6-40FB-9192-453BDECF12E6",
    "height": 440,
    "width": 856,
    "x": 408,
    "y": 183
  },
  "horizontalSpacing": 0,
  "isFixedToViewport": false,
  "isFlippedHorizontal": false,
  "isFlippedVertical": false,
  "isLocked": false,
  "isVisible": true,
  "layerListExpandedType": 0,
  "name": "25h8/chat/chat-layout/mat-expansion-panel-body copy",
  "nameIsFixed": false,
  "overrideValues": [
  ],
  "resizingConstraint": 63,
  "resizingType": 0,
  "rotation": 0,
  "scale": 1,
  "shouldBreakMaskChain": false,
  "style": {
    "_class": "style",
    "do_objectID": "88662FA6-518B-41FE-A3DA-B4605C9463F8",
    "endMarkerType": 0,
    "miterLimit": 10,
    "startMarkerType": 0,
    "windingRule": 1
  },
  "symbolID": "A92DA872-B57C-418F-BC80-BDF3F7C0783E",
  "verticalSpacing": 0
}