{
  "_class": "symbolInstance",
  "booleanOperation": 0,
  "do_objectID": "0A4E7D52-AA31-4729-B234-92CF929734B4",
  "exportOptions": {
    "_class": "exportOptions",
    "do_objectID": "7BCDFF08-0840-48D2-9C1A-1E195DDE77A2",
    "exportFormats": [
    ],
    "includedLayerIds": [
    ],
    "layerOptions": 0,
    "shouldTrim": false
  },
  "frame": {
    "_class": "rect",
    "constrainProportions": true,
    "do_objectID": "8721A7F7-F5AE-4064-B81C-307E0398ACB3",
    "height": 16,
    "width": 16,
    "x": 117,
    "y": 19
  },
  "horizontalSpacing": 0,
  "isFixedToViewport": false,
  "isFlippedHorizontal": false,
  "isFlippedVertical": false,
  "isLocked": false,
  "isVisible": true,
  "layerListExpandedType": 0,
  "name": "Black/icon-inactive",
  "nameIsFixed": false,
  "overrideValues": [
  ],
  "resizingConstraint": 12,
  "resizingType": 0,
  "rotation": 0,
  "scale": 1,
  "shouldBreakMaskChain": false,
  "style": {
    "_class": "style",
    "do_objectID": "126EBC5F-A2AB-442A-B3CD-4EB74A755A54",
    "endMarkerType": 0,
    "miterLimit": 10,
    "startMarkerType": 0,
    "windingRule": 1
  },
  "symbolID": "23518F14-394B-4E06-85C6-4DA360118D62",
  "verticalSpacing": 0
}