{
  "_class": "symbolInstance",
  "booleanOperation": 0,
  "do_objectID": "B09EDF48-C611-4216-8337-2841B6359B5E",
  "exportOptions": {
    "_class": "exportOptions",
    "do_objectID": "E2F6E333-5A83-4EB1-8E87-72CC129B12F1",
    "exportFormats": [
    ],
    "includedLayerIds": [
    ],
    "layerOptions": 0,
    "shouldTrim": false
  },
  "frame": {
    "_class": "rect",
    "constrainProportions": false,
    "do_objectID": "D5C81455-45C9-46DF-A754-E33D86570DA6",
    "height": 400,
    "width": 320,
    "x": 0,
    "y": 204
  },
  "horizontalSpacing": 0,
  "isFixedToViewport": false,
  "isFlippedHorizontal": false,
  "isFlippedVertical": false,
  "isLocked": false,
  "isVisible": true,
  "layerListExpandedType": 0,
  "name": "25h8/chat/mat-sidenav-content/mat-sidenav-component/mat-expansion-panel-body",
  "nameIsFixed": false,
  "overrideValues": [
  ],
  "resizingConstraint": 63,
  "resizingType": 0,
  "rotation": 0,
  "scale": 1,
  "shouldBreakMaskChain": false,
  "style": {
    "_class": "style",
    "do_objectID": "463A2059-04AD-445B-A5BF-481570496739",
    "endMarkerType": 0,
    "miterLimit": 10,
    "startMarkerType": 0,
    "windingRule": 1
  },
  "symbolID": "D395EFDC-EE4F-4FA4-B36F-3627312D2844",
  "verticalSpacing": 0
}