{
  "_class": "symbolMaster",
  "backgroundColor": {
    "_class": "color",
    "alpha": 1,
    "blue": 1,
    "do_objectID": "2796BD58-7D26-4D42-A97A-620F4632132B",
    "green": 1,
    "red": 1
  },
  "booleanOperation": 0,
  "changeIdentifier": 753,
  "do_objectID": "DD2BC6CF-6FD0-430F-8E77-BA22A903835E",
  "exportOptions": {
    "_class": "exportOptions",
    "do_objectID": "F96312CB-DF5D-48C9-8C0A-C4C5F579B432",
    "exportFormats": [
      {
        "_class": "exportFormat",
        "absoluteSize": 0,
        "fileFormat": "svg",
        "name": "",
        "namingScheme": 0,
        "scale": 1,
        "visibleScaleType": 0
      }
    ],
    "includedLayerIds": [
    ],
    "layerOptions": 0,
    "shouldTrim": false
  },
  "frame": {
    "_class": "rect",
    "constrainProportions": false,
    "do_objectID": "27783CDA-E3E6-4D11-A3FD-3F7C69E2CF1E",
    "height": 40,
    "width": 40,
    "x": 760,
    "y": 75
  },
  "hasBackgroundColor": false,
  "hasClickThrough": true,
  "horizontalRulerData": {
    "_class": "rulerData",
    "base": 0,
    "do_objectID": "439161A3-A292-4B68-BA99-D53064655CF8",
    "guides": [
    ]
  },
  "includeBackgroundColorInExport": true,
  "includeBackgroundColorInInstance": false,
  "includeInCloudUpload": true,
  "isFixedToViewport": false,
  "isFlippedHorizontal": false,
  "isFlippedVertical": false,
  "isFlowHome": false,
  "isLocked": false,
  "isVisible": true,
  "layerListExpandedType": 2,
  "layers": [
    {
      "class": "shapeGroup",
      "id": "0F05895A-2BA6-473A-B6FB-5F91FB4FC9A7"
    }
  ],
  "name": "25h8/chat/mat-icon-button/lock/lock-hover",
  "nameIsFixed": true,
  "resizesContent": false,
  "resizingConstraint": 63,
  "resizingType": 0,
  "rotation": 0,
  "shouldBreakMaskChain": true,
  "style": {
    "_class": "style",
    "do_objectID": "C4134179-3288-43B8-9FAB-BAD627DAECBD",
    "endMarkerType": 0,
    "miterLimit": 10,
    "startMarkerType": 0,
    "windingRule": 1
  },
  "symbolID": "CB402E49-45BF-4A96-B337-9687AB68B016",
  "verticalRulerData": {
    "_class": "rulerData",
    "base": 0,
    "do_objectID": "41A112D1-5FB9-4B3F-9CC5-4C5CD4EEE063",
    "guides": [
    ]
  }
}