{
  "_class": "group",
  "booleanOperation": 0,
  "do_objectID": "71A600E7-0B14-4D91-A25A-37250BDA832C",
  "exportOptions": {
    "_class": "exportOptions",
    "do_objectID": "AA38F8B8-9F7F-4B40-AF6C-F2124A54632A",
    "exportFormats": [
    ],
    "includedLayerIds": [
    ],
    "layerOptions": 0,
    "shouldTrim": false
  },
  "frame": {
    "_class": "rect",
    "constrainProportions": false,
    "do_objectID": "6C669718-AC40-43F5-8ED7-81CF3AAE540E",
    "height": 36,
    "width": 276,
    "x": 0,
    "y": 158
  },
  "hasClickThrough": false,
  "isFixedToViewport": false,
  "isFlippedHorizontal": false,
  "isFlippedVertical": false,
  "isLocked": false,
  "isVisible": true,
  "layerListExpandedType": 2,
  "layers": [
    {
      "class": "shapeGroup",
      "id": "A7DF272E-351E-4370-B22D-30090F2E5BB0"
    },
    {
      "class": "text",
      "id": "0DB5170F-68AF-47B6-BE53-D176C2B5575C"
    }
  ],
  "name": "Dense two-line list with double avatar/normal",
  "nameIsFixed": true,
  "resizingConstraint": 63,
  "resizingType": 0,
  "rotation": 0,
  "shouldBreakMaskChain": false,
  "style": {
    "_class": "style",
    "do_objectID": "74CC969D-69E4-4B0D-9A41-6314C61562DE",
    "endMarkerType": 0,
    "miterLimit": 10,
    "startMarkerType": 0,
    "windingRule": 1
  },
  "userInfo": {
    "com.animaapp.stc-sketch-plugin": {
      "kModelPropertiesKey": {
      }
    }
  }
}