{
  "_class": "group",
  "booleanOperation": 0,
  "do_objectID": "C5DF832D-0B14-4576-BEDF-8CE4E5DEC411",
  "exportOptions": {
    "_class": "exportOptions",
    "do_objectID": "D4AD0B40-7BC9-4A3C-90C8-21F982343826",
    "exportFormats": [
    ],
    "includedLayerIds": [
    ],
    "layerOptions": 0,
    "shouldTrim": false
  },
  "frame": {
    "_class": "rect",
    "constrainProportions": false,
    "do_objectID": "E2F5C841-773B-4AB1-A16C-A4104DB77AFF",
    "height": 288,
    "width": 320,
    "x": 0,
    "y": 216
  },
  "hasClickThrough": false,
  "isFixedToViewport": false,
  "isFlippedHorizontal": false,
  "isFlippedVertical": false,
  "isLocked": false,
  "isVisible": true,
  "layerListExpandedType": 2,
  "layers": [
    {
      "class": "text",
      "id": "D9E251F4-19B7-4B29-9C16-FB575CCADD7E"
    },
    {
      "class": "group",
      "id": "D349F09F-7F52-42CE-A7D6-4E89A393D945"
    },
    {
      "class": "group",
      "id": "68DE0641-D6D1-43E7-89A5-8D9CFC733414"
    },
    {
      "class": "group",
      "id": "49469735-5407-47B2-AF5E-D99BF3A2984C"
    },
    {
      "class": "group",
      "id": "F299CBAA-8D20-4E24-8051-2C4F679A4766"
    }
  ],
  "name": "moders",
  "nameIsFixed": true,
  "resizingConstraint": 63,
  "resizingType": 0,
  "rotation": 0,
  "shouldBreakMaskChain": false,
  "style": {
    "_class": "style",
    "do_objectID": "8F49726E-AA56-44FF-8EF5-595A3C9EBDFD",
    "endMarkerType": 0,
    "miterLimit": 10,
    "startMarkerType": 0,
    "windingRule": 1
  },
  "userInfo": {
    "com.animaapp.stc-sketch-plugin": {
      "kModelPropertiesKey": {
      }
    }
  }
}