{
  "_class": "group",
  "booleanOperation": 0,
  "do_objectID": "8BE30277-F75A-43A1-B430-5F5E5B600B81",
  "exportOptions": {
    "_class": "exportOptions",
    "do_objectID": "CF40EFA7-8926-44E2-B69A-2273AC0807FA",
    "exportFormats": [
    ],
    "includedLayerIds": [
    ],
    "layerOptions": 0,
    "shouldTrim": false
  },
  "frame": {
    "_class": "rect",
    "constrainProportions": false,
    "do_objectID": "0094B191-D30C-452E-8CD3-4F3F2576DD8A",
    "height": 787,
    "width": 320,
    "x": 0,
    "y": 0
  },
  "hasClickThrough": false,
  "isFixedToViewport": false,
  "isFlippedHorizontal": false,
  "isFlippedVertical": false,
  "isLocked": false,
  "isVisible": true,
  "layerListExpandedType": 2,
  "layers": [
    {
      "class": "shapeGroup",
      "id": "7A698A4E-6129-48AC-8239-B7A953428557"
    },
    {
      "class": "symbolInstance",
      "id": "20E85003-0989-45B5-845C-E98E73E69E38"
    },
    {
      "class": "symbolInstance",
      "id": "A51DA9BA-9B25-4B5A-847D-D7D5D04DFA68"
    },
    {
      "class": "shapeGroup",
      "id": "4946AC40-A166-45BC-B443-3D27610D1460"
    },
    {
      "class": "symbolInstance",
      "id": "E219BDA0-1E6D-406B-BD48-E050CCE52DE9"
    },
    {
      "class": "symbolInstance",
      "id": "36D0D6E3-E5FD-47B7-8E08-4108CD57E216"
    },
    {
      "class": "symbolInstance",
      "id": "41B7D3F8-782D-47CA-BE5E-931CF6B45F9A"
    }
  ],
  "name": "mat-drawer-container",
  "nameIsFixed": true,
  "resizingConstraint": 63,
  "resizingType": 0,
  "rotation": 0,
  "shouldBreakMaskChain": false,
  "style": {
    "_class": "style",
    "do_objectID": "C19FF8B1-B23A-4336-903B-B486DF129747",
    "endMarkerType": 0,
    "miterLimit": 10,
    "startMarkerType": 0,
    "windingRule": 1
  }
}