{
  "_class": "group",
  "booleanOperation": 0,
  "do_objectID": "DA1559C3-E967-475A-AF7B-1A394D79A3C6",
  "exportOptions": {
    "_class": "exportOptions",
    "do_objectID": "67E94E60-95D5-4EF6-BDE5-DDCA36AD19F5",
    "exportFormats": [
    ],
    "includedLayerIds": [
    ],
    "layerOptions": 0,
    "shouldTrim": false
  },
  "frame": {
    "_class": "rect",
    "constrainProportions": false,
    "do_objectID": "5CCEF502-6EAC-4406-B430-422CF2E0FCE3",
    "height": 36,
    "width": 276,
    "x": 0,
    "y": 158
  },
  "hasClickThrough": false,
  "isFixedToViewport": false,
  "isFlippedHorizontal": false,
  "isFlippedVertical": false,
  "isLocked": false,
  "isVisible": true,
  "layerListExpandedType": 2,
  "layers": [
    {
      "class": "shapeGroup",
      "id": "B3404922-76B5-48FF-8D5D-B4D649580FBA"
    },
    {
      "class": "text",
      "id": "14FAB653-FBD6-4D30-9C33-ABB63B778967"
    }
  ],
  "name": "Dense two-line list with double avatar/normal",
  "nameIsFixed": true,
  "resizingConstraint": 63,
  "resizingType": 0,
  "rotation": 0,
  "shouldBreakMaskChain": false,
  "style": {
    "_class": "style",
    "do_objectID": "772529C2-F45D-4AF3-838A-8A252D8526D8",
    "endMarkerType": 0,
    "miterLimit": 10,
    "startMarkerType": 0,
    "windingRule": 1
  },
  "userInfo": {
    "com.animaapp.stc-sketch-plugin": {
      "kModelPropertiesKey": {
      }
    }
  }
}