{
  "_class": "shapePath",
  "booleanOperation": -1,
  "do_objectID": "1428327F-6385-40A3-89BA-1B971C4C1CED",
  "edited": true,
  "exportOptions": {
    "_class": "exportOptions",
    "do_objectID": "574BBBAF-146A-41D0-8C4F-822B37701F24",
    "exportFormats": [
    ],
    "includedLayerIds": [
    ],
    "layerOptions": 0,
    "shouldTrim": false
  },
  "frame": {
    "_class": "rect",
    "constrainProportions": false,
    "do_objectID": "515ACF83-8AF7-4AAB-B97D-1229103966BB",
    "height": 16.126,
    "width": 18.344,
    "x": 0,
    "y": -1.77635683940025e-15
  },
  "isClosed": true,
  "isFixedToViewport": false,
  "isFlippedHorizontal": false,
  "isFlippedVertical": false,
  "isLocked": false,
  "isVisible": true,
  "layerListExpandedType": 0,
  "name": "Path",
  "nameIsFixed": false,
  "pointRadiusBehaviour": 1,
  "points": [
    {
      "_class": "curvePoint",
      "cornerRadius": 0,
      "curveFrom": "{0.87160924552987362, 1}",
      "curveMode": 1,
      "curveTo": "{0.87160924552987362, 1}",
      "hasCurveFrom": false,
      "hasCurveTo": false,
      "point": "{0.87160924552987362, 1}"
    },
    {
      "_class": "curvePoint",
      "cornerRadius": 0,
      "curveFrom": "{1, 1}",
      "curveMode": 1,
      "curveTo": "{1, 1}",
      "hasCurveFrom": false,
      "hasCurveTo": false,
      "point": "{1, 1}"
    },
    {
      "_class": "curvePoint",
      "cornerRadius": 0,
      "curveFrom": "{0.12847797645006542, 0}",
      "curveMode": 1,
      "curveTo": "{0.12847797645006542, 0}",
      "hasCurveFrom": false,
      "hasCurveTo": false,
      "point": "{0.12847797645006542, 0}"
    },
    {
      "_class": "curvePoint",
      "cornerRadius": 0,
      "curveFrom": "{0, 0}",
      "curveMode": 1,
      "curveTo": "{0, 0}",
      "hasCurveFrom": false,
      "hasCurveTo": false,
      "point": "{0, 0}"
    }
  ],
  "resizingConstraint": 63,
  "resizingType": 0,
  "rotation": 0,
  "shouldBreakMaskChain": false
}