{
  "_class": "shapePath",
  "booleanOperation": -1,
  "do_objectID": "D61CAB05-F323-4396-BE21-2F865F4F4AEE",
  "edited": true,
  "exportOptions": {
    "_class": "exportOptions",
    "do_objectID": "4B096AF9-22EC-4177-8CCC-DE2049F56A5D",
    "exportFormats": [
    ],
    "includedLayerIds": [
    ],
    "layerOptions": 0,
    "shouldTrim": false
  },
  "frame": {
    "_class": "rect",
    "constrainProportions": false,
    "do_objectID": "722F4FCF-DB96-4FDB-AC27-FF1BC39D8EC8",
    "height": 16,
    "width": 16,
    "x": 4,
    "y": 4
  },
  "isClosed": true,
  "isFixedToViewport": false,
  "isFlippedHorizontal": false,
  "isFlippedVertical": false,
  "isLocked": false,
  "isVisible": true,
  "layerListExpandedType": 0,
  "name": "Path",
  "nameIsFixed": false,
  "pointRadiusBehaviour": 0,
  "points": [
    {
      "_class": "curvePoint",
      "cornerRadius": 0,
      "curveFrom": "{0.9375, 0}",
      "curveMode": 1,
      "curveTo": "{0.9375, 0}",
      "hasCurveFrom": false,
      "hasCurveTo": false,
      "point": "{0.9375, 0}"
    },
    {
      "_class": "curvePoint",
      "cornerRadius": 0,
      "curveFrom": "{0.8125, 0}",
      "curveMode": 1,
      "curveTo": "{0.8125, 0}",
      "hasCurveFrom": false,
      "hasCurveTo": false,
      "point": "{0.8125, 0}"
    },
    {
      "_class": "curvePoint",
      "cornerRadius": 0,
      "curveFrom": "{0.8125, 0.5625}",
      "curveMode": 1,
      "curveTo": "{0.8125, 0.5625}",
      "hasCurveFrom": false,
      "hasCurveTo": false,
      "point": "{0.8125, 0.5625}"
    },
    {
      "_class": "curvePoint",
      "cornerRadius": 0,
      "curveFrom": "{0, 0.5625}",
      "curveMode": 1,
      "curveTo": "{0, 0.5625}",
      "hasCurveFrom": false,
      "hasCurveTo": false,
      "point": "{0, 0.5625}"
    },
    {
      "_class": "curvePoint",
      "cornerRadius": 0,
      "curveFrom": "{0, 0.72500000000000009}",
      "curveMode": 4,
      "curveTo": "{0, 0.6875}",
      "hasCurveFrom": true,
      "hasCurveTo": false,
      "point": "{0, 0.6875}"
    },
    {
      "_class": "curvePoint",
      "cornerRadius": 0,
      "curveFrom": "{0.0625, 0.75}",
      "curveMode": 4,
      "curveTo": "{0.025000000000000022, 0.75}",
      "hasCurveFrom": false,
      "hasCurveTo": true,
      "point": "{0.0625, 0.75}"
    },
    {
      "_class": "curvePoint",
      "cornerRadius": 0,
      "curveFrom": "{0.75, 0.75}",
      "curveMode": 1,
      "curveTo": "{0.75, 0.75}",
      "hasCurveFrom": false,
      "hasCurveTo": false,
      "point": "{0.75, 0.75}"
    },
    {
      "_class": "curvePoint",
      "cornerRadius": 0,
      "curveFrom": "{1, 1}",
      "curveMode": 1,
      "curveTo": "{1, 1}",
      "hasCurveFrom": false,
      "hasCurveTo": false,
      "point": "{1, 1}"
    },
    {
      "_class": "curvePoint",
      "cornerRadius": 0,
      "curveFrom": "{1, 0.025000000000000022}",
      "curveMode": 4,
      "curveTo": "{1, 0.0625}",
      "hasCurveFrom": true,
      "hasCurveTo": false,
      "point": "{1, 0.0625}"
    },
    {
      "_class": "curvePoint",
      "cornerRadius": 0,
      "curveFrom": "{0.9375, 0}",
      "curveMode": 4,
      "curveTo": "{0.97500000000000009, 0}",
      "hasCurveFrom": false,
      "hasCurveTo": true,
      "point": "{0.9375, 0}"
    }
  ],
  "resizingConstraint": 63,
  "resizingType": 0,
  "rotation": 0,
  "shouldBreakMaskChain": false
}