{
  "_class": "symbolInstance",
  "booleanOperation": 0,
  "do_objectID": "2260157B-4053-4CA0-9292-3BF29A66F926",
  "exportOptions": {
    "_class": "exportOptions",
    "do_objectID": "EDC698E5-79F3-48A7-8B84-A00A81EFAD48",
    "exportFormats": [
    ],
    "includedLayerIds": [
    ],
    "layerOptions": 0,
    "shouldTrim": false
  },
  "frame": {
    "_class": "rect",
    "constrainProportions": false,
    "do_objectID": "B535FA5A-7FE5-4BA2-B9BA-8815E703F306",
    "height": 40,
    "width": 40,
    "x": 680,
    "y": 8
  },
  "horizontalSpacing": 0,
  "isFixedToViewport": false,
  "isFlippedHorizontal": false,
  "isFlippedVertical": false,
  "isLocked": false,
  "isVisible": true,
  "layerListExpandedType": 0,
  "name": "25h8/chat/mat-icon-button/file/file-defaul-white copy 3",
  "nameIsFixed": false,
  "overrideValues": [
  ],
  "resizingConstraint": 63,
  "resizingType": 0,
  "rotation": 0,
  "scale": 1,
  "shouldBreakMaskChain": false,
  "style": {
    "_class": "style",
    "contextSettings": {
      "_class": "graphicsContextSettings",
      "blendMode": 0,
      "do_objectID": "538364FD-5FEF-4AFC-BBAD-E1FAB81E6808",
      "opacity": 0.54
    },
    "do_objectID": "2B44D488-537E-450E-85B7-70FC2447E0BC",
    "endMarkerType": 0,
    "miterLimit": 10,
    "startMarkerType": 0,
    "windingRule": 1
  },
  "symbolID": "5D8B7D13-A264-40D0-86FF-5DF29D632A2F",
  "verticalSpacing": 0
}