{
  "_class": "symbolInstance",
  "booleanOperation": 0,
  "do_objectID": "5B11E759-764E-441B-8A91-B10070C0C890",
  "exportOptions": {
    "_class": "exportOptions",
    "do_objectID": "40821E26-D20E-4A86-9796-D0336E00F79A",
    "exportFormats": [
    ],
    "includedLayerIds": [
    ],
    "layerOptions": 0,
    "shouldTrim": false
  },
  "frame": {
    "_class": "rect",
    "constrainProportions": false,
    "do_objectID": "CE19A0DA-449D-4C92-B8AF-8C09E8E4E859",
    "height": 40,
    "width": 40,
    "x": 548,
    "y": 8
  },
  "horizontalSpacing": 0,
  "isFixedToViewport": false,
  "isFlippedHorizontal": false,
  "isFlippedVertical": false,
  "isLocked": false,
  "isVisible": true,
  "layerListExpandedType": 0,
  "name": "25h8/chat/mat-icon-button/file/file-defaul-white",
  "nameIsFixed": false,
  "overrideValues": [
  ],
  "resizingConstraint": 63,
  "resizingType": 0,
  "rotation": 0,
  "scale": 1,
  "shouldBreakMaskChain": false,
  "style": {
    "_class": "style",
    "contextSettings": {
      "_class": "graphicsContextSettings",
      "blendMode": 0,
      "do_objectID": "4C2A25FF-9A05-4EA2-8E43-8F50BE463D17",
      "opacity": 0.54
    },
    "do_objectID": "6F2F916C-4E84-4818-B32B-E14EEDA666AA",
    "endMarkerType": 0,
    "miterLimit": 10,
    "startMarkerType": 0,
    "windingRule": 1
  },
  "symbolID": "2F84868F-1C85-405B-89EB-E352894986AF",
  "verticalSpacing": 0
}