{
  "_class": "symbolInstance",
  "booleanOperation": 0,
  "do_objectID": "5E9BCDA5-2609-43A2-8769-5EB14D1B36FB",
  "exportOptions": {
    "_class": "exportOptions",
    "do_objectID": "0A4634C1-C600-4A40-8A6B-5C65458F6F10",
    "exportFormats": [
    ],
    "includedLayerIds": [
    ],
    "layerOptions": 0,
    "shouldTrim": false
  },
  "frame": {
    "_class": "rect",
    "constrainProportions": false,
    "do_objectID": "EAE9A398-CB57-4855-B755-336A8B571D3F",
    "height": 36,
    "width": 62,
    "x": 1043,
    "y": 14
  },
  "horizontalSpacing": 0,
  "isFixedToViewport": false,
  "isFlippedHorizontal": false,
  "isFlippedVertical": false,
  "isLocked": false,
  "isVisible": true,
  "layerListExpandedType": 0,
  "name": "mat-basic-button",
  "nameIsFixed": false,
  "overrideValues": [
    {
      "_class": "overrideValue",
      "do_objectID": "3CFA3C4D-3486-46DA-8B99-E5F4551EF8C7",
      "overrideName": "E79CEC33-7A6B-45AC-839D-31C34D7030DF_stringValue",
      "value": "Увійти"
    }
  ],
  "resizingConstraint": 63,
  "resizingType": 0,
  "rotation": 0,
  "scale": 1,
  "shouldBreakMaskChain": false,
  "style": {
    "_class": "style",
    "do_objectID": "3FB9E460-C959-49DC-B0D4-4CB0ACA19F2E",
    "endMarkerType": 0,
    "miterLimit": 10,
    "startMarkerType": 0,
    "windingRule": 1
  },
  "symbolID": "206373D6-BBFA-490B-BA84-27C558D3A0F1",
  "verticalSpacing": 0
}