{
  "_class": "artboard",
  "backgroundColor": {
    "_class": "color",
    "alpha": 1,
    "blue": 1,
    "green": 1,
    "red": 1
  },
  "booleanOperation": 0,
  "do_objectID": "25AE795E-A8EF-4153-8815-564B86E19BCF",
  "exportOptions": {
    "_class": "exportOptions",
    "exportFormats": [
    ],
    "includedLayerIds": [
    ],
    "layerOptions": 0,
    "shouldTrim": false
  },
  "frame": {
    "_class": "rect",
    "constrainProportions": false,
    "height": 850,
    "width": 1280,
    "x": -1211,
    "y": -1040
  },
  "hasBackgroundColor": false,
  "hasClickThrough": true,
  "horizontalRulerData": {
    "_class": "rulerData",
    "base": 0,
    "guides": [
    ]
  },
  "includeBackgroundColorInExport": true,
  "includeInCloudUpload": true,
  "isFixedToViewport": false,
  "isFlippedHorizontal": false,
  "isFlippedVertical": false,
  "isFlowHome": false,
  "isLocked": false,
  "isVisible": true,
  "layerListExpandedType": 0,
  "layers": [
    {
      "class": "symbolInstance",
      "id": "5F1E2F0D-4608-4165-9572-2478169D66D2"
    },
    {
      "class": "symbolInstance",
      "id": "1D7E0C91-971B-4ABA-A600-AB1465F634D1"
    },
    {
      "class": "symbolInstance",
      "id": "001C2BB8-1C43-400D-8C82-A02F8C10EAFC"
    },
    {
      "class": "symbolInstance",
      "id": "8B0D6CDD-EC4C-49AE-9242-0B7F499A2828"
    },
    {
      "class": "symbolInstance",
      "id": "3783DEBE-C000-40D8-BC1E-DC7D9F90F4CD"
    },
    {
      "class": "symbolInstance",
      "id": "270A81E7-D616-4772-8182-205455EBECE0"
    },
    {
      "class": "symbolInstance",
      "id": "33F324D8-F865-4597-B720-BFEFF86BBF40"
    }
  ],
  "name": "25h8-chat-main-page-1280",
  "nameIsFixed": true,
  "resizesContent": false,
  "resizingConstraint": 63,
  "resizingType": 0,
  "rotation": 0,
  "shouldBreakMaskChain": true,
  "style": {
    "_class": "style",
    "endMarkerType": 0,
    "miterLimit": 10,
    "startMarkerType": 0,
    "windingRule": 1
  },
  "verticalRulerData": {
    "_class": "rulerData",
    "base": 0,
    "guides": [
    ]
  }
}