{
  "_class": "group",
  "booleanOperation": 0,
  "do_objectID": "4078F301-72CC-4EEF-8EEF-4368E2EB7864",
  "exportOptions": {
    "_class": "exportOptions",
    "exportFormats": [
    ],
    "includedLayerIds": [
    ],
    "layerOptions": 0,
    "shouldTrim": false
  },
  "frame": {
    "_class": "rect",
    "constrainProportions": false,
    "height": 36,
    "width": 44,
    "x": 2,
    "y": 6
  },
  "hasClickThrough": false,
  "isFixedToViewport": false,
  "isFlippedHorizontal": false,
  "isFlippedVertical": false,
  "isLocked": false,
  "isVisible": true,
  "layerListExpandedType": 0,
  "layers": [
    {
      "class": "shapeGroup",
      "id": "2D93C7E1-4549-4FBC-9A04-15C772EFC0B5"
    },
    {
      "class": "shapeGroup",
      "id": "E4304B6E-DD65-44B4-AD8E-1AF867DFF5D0"
    }
  ],
  "name": "Group",
  "nameIsFixed": false,
  "originalObjectID": "B6AA5ECC-CA35-4E11-93B4-BC9045D81FEF",
  "resizingConstraint": 63,
  "resizingType": 0,
  "rotation": 0,
  "shouldBreakMaskChain": false,
  "style": {
    "_class": "style",
    "endMarkerType": 0,
    "miterLimit": 10,
    "startMarkerType": 0,
    "windingRule": 1
  },
  "userInfo": {
    "com.animaapp.stc-sketch-plugin": {
      "kModelPropertiesKey": {
      }
    }
  }
}