{
  "_class": "shapeGroup",
  "booleanOperation": 0,
  "clippingMaskMode": 0,
  "do_objectID": "8B99E92E-BAEC-44BE-A770-CCAFD40BD2E1",
  "exportOptions": {
    "_class": "exportOptions",
    "do_objectID": "C1BA58A9-5C55-41E6-926E-67D9D1C63F6D",
    "exportFormats": [
    ],
    "includedLayerIds": [
    ],
    "layerOptions": 0,
    "shouldTrim": false
  },
  "frame": {
    "_class": "rect",
    "constrainProportions": false,
    "do_objectID": "045B5DCD-8F68-4A49-95B6-8C1DD253910C",
    "height": 72,
    "width": 72,
    "x": 0,
    "y": 0
  },
  "hasClickThrough": false,
  "hasClippingMask": false,
  "isFixedToViewport": false,
  "isFlippedHorizontal": false,
  "isFlippedVertical": false,
  "isLocked": false,
  "isVisible": true,
  "layerListExpandedType": 0,
  "layers": [
    {
      "class": "rectangle",
      "id": "53E9D156-71CD-4421-9F13-EA978FC1308E"
    }
  ],
  "name": "bg",
  "nameIsFixed": true,
  "originalObjectID": "9C9DE224-B687-452C-ACC3-6E914996D8FF",
  "resizingConstraint": 63,
  "resizingType": 0,
  "rotation": 0,
  "shouldBreakMaskChain": false,
  "style": {
    "_class": "style",
    "do_objectID": "660585D1-C1F8-4F0B-A182-E77532F02375",
    "endMarkerType": 0,
    "miterLimit": 10,
    "sharedObjectID": "AE7841E5-E34E-496B-B937-76B742ED84F1",
    "startMarkerType": 0,
    "windingRule": 1
  },
  "windingRule": 1
}