{
  "_class": "symbolInstance",
  "booleanOperation": 0,
  "do_objectID": "494C6168-D456-4ECF-B40D-A713E9F58E88",
  "exportOptions": {
    "_class": "exportOptions",
    "do_objectID": "FF265C5D-78A3-4616-AD08-442E70774663",
    "exportFormats": [
      {
        "_class": "exportFormat",
        "absoluteSize": 0,
        "fileFormat": "png",
        "name": "",
        "namingScheme": 0,
        "scale": 1,
        "visibleScaleType": 0
      }
    ],
    "includedLayerIds": [
    ],
    "layerOptions": 0,
    "shouldTrim": false
  },
  "frame": {
    "_class": "rect",
    "constrainProportions": false,
    "do_objectID": "E5205E1A-7BF5-4E90-9CDB-336F0B9B33F8",
    "height": 40,
    "width": 40,
    "x": 8,
    "y": 16
  },
  "horizontalSpacing": 0,
  "isFixedToViewport": false,
  "isFlippedHorizontal": false,
  "isFlippedVertical": false,
  "isLocked": false,
  "isVisible": true,
  "layerListExpandedType": 0,
  "name": "Material/Icons/Black/Active/arrow left",
  "nameIsFixed": false,
  "overrideValues": [
  ],
  "resizingConstraint": 63,
  "resizingType": 0,
  "rotation": 0,
  "scale": 1,
  "shouldBreakMaskChain": false,
  "style": {
    "_class": "style",
    "do_objectID": "43BA91DC-CBEA-4D3B-81AF-1A41C900EA6F",
    "endMarkerType": 0,
    "miterLimit": 10,
    "startMarkerType": 0,
    "windingRule": 1
  },
  "symbolID": "3B6906C5-FFC4-451E-BB2D-F788A092CF54",
  "userInfo": {
    "com.animaapp.stc-sketch-plugin": {
      "kModelPropertiesKey": {
      }
    }
  },
  "verticalSpacing": 0
}