{
  "_class": "group",
  "booleanOperation": 0,
  "do_objectID": "0691C3B5-0236-4BFD-B49F-F4E7D180807D",
  "exportOptions": {
    "_class": "exportOptions",
    "do_objectID": "70792E5D-71EF-4679-A0A0-DBC6AF1B8B56",
    "exportFormats": [
    ],
    "includedLayerIds": [
    ],
    "layerOptions": 0,
    "shouldTrim": false
  },
  "frame": {
    "_class": "rect",
    "constrainProportions": false,
    "do_objectID": "AA20530F-63EB-4485-8322-FF0179D7E5CD",
    "height": 24,
    "width": 24,
    "x": 16,
    "y": 72
  },
  "hasClickThrough": false,
  "isFixedToViewport": false,
  "isFlippedHorizontal": false,
  "isFlippedVertical": false,
  "isLocked": false,
  "isVisible": true,
  "layerListExpandedType": 1,
  "layers": [
    {
      "class": "shapeGroup",
      "id": "598777B1-74F9-4135-8B50-D83352FB3EE4"
    },
    {
      "class": "shapeGroup",
      "id": "A0FEDB6E-1C92-4F6F-95D0-C6D077C60E5D"
    },
    {
      "class": "shapeGroup",
      "id": "EF88FA2D-6F5B-4577-A402-E23623F74448"
    },
    {
      "class": "shapeGroup",
      "id": "98706E27-25E6-4AB4-867A-45359F709408"
    },
    {
      "class": "shapeGroup",
      "id": "6D013CF6-58D4-434B-A2AA-6342D285AD47"
    }
  ],
  "name": "baseline-sentiment_satisfied_alt-24px copy 5",
  "nameIsFixed": false,
  "resizingConstraint": 63,
  "resizingType": 0,
  "rotation": 0,
  "shouldBreakMaskChain": false,
  "style": {
    "_class": "style",
    "do_objectID": "8E6438E8-D8D7-4BB9-B55F-D11997EFE0AE",
    "endMarkerType": 0,
    "miterLimit": 10,
    "startMarkerType": 0,
    "windingRule": 1
  }
}