{
  "_class": "shapeGroup",
  "booleanOperation": 0,
  "clippingMaskMode": 0,
  "do_objectID": "0EB923D4-484A-4EE9-A017-B842F305E997",
  "exportOptions": {
    "_class": "exportOptions",
    "do_objectID": "F8C7616C-9E6A-4243-A82E-15A66C7FCF33",
    "exportFormats": [
    ],
    "includedLayerIds": [
    ],
    "layerOptions": 0,
    "shouldTrim": false
  },
  "frame": {
    "_class": "rect",
    "constrainProportions": false,
    "do_objectID": "5B8A6614-752A-4601-837B-DE7F56A9BF64",
    "height": 12.85114285714286,
    "width": 14.072,
    "x": 29.40159999999997,
    "y": 16.35385714285666
  },
  "hasClickThrough": false,
  "hasClippingMask": false,
  "isFixedToViewport": false,
  "isFlippedHorizontal": false,
  "isFlippedVertical": false,
  "isLocked": false,
  "isVisible": true,
  "layerListExpandedType": 1,
  "layers": [
    {
      "class": "shapePath",
      "id": "B8DC3FF9-431A-4FB1-9F6C-710893BBD9B2"
    }
  ],
  "name": "Path",
  "nameIsFixed": false,
  "resizingConstraint": 63,
  "resizingType": 0,
  "rotation": 0,
  "shouldBreakMaskChain": false,
  "style": {
    "_class": "style",
    "blur": {
      "_class": "blur",
      "center": "{0.5, 0.5}",
      "do_objectID": "7E8BC6E2-BC6D-4813-95D6-6503822C2218",
      "isEnabled": false,
      "motionAngle": 0,
      "radius": 16,
      "type": 0
    },
    "do_objectID": "92B2F5B8-BF62-41BE-8C05-41D1D5E6BD7A",
    "endMarkerType": 0,
    "fills": [
      {
        "_class": "fill",
        "color": {
          "_class": "color",
          "alpha": 1,
          "blue": 0.9294117647058824,
          "green": 0.8274509803921568,
          "red": 0.5568627450980392
        },
        "fillType": 1,
        "gradient": {
          "_class": "gradient",
          "elipseLength": 0,
          "from": "{0.5, 0}",
          "gradientType": 0,
          "stops": [
            {
              "_class": "gradientStop",
              "color": {
                "_class": "color",
                "alpha": 1,
                "blue": 1,
                "green": 1,
                "red": 1
              },
              "position": 0
            },
            {
              "_class": "gradientStop",
              "color": {
                "_class": "color",
                "alpha": 1,
                "blue": 0.6823529411764706,
                "green": 0.5764705882352941,
                "red": 0.2156862745098039
              },
              "position": 1
            }
          ],
          "to": "{-0.12416823385931432, 1}"
        },
        "isEnabled": true,
        "noiseIndex": 0,
        "noiseIntensity": 0,
        "patternFillType": 1,
        "patternTileScale": 1
      }
    ],
    "miterLimit": 10,
    "startMarkerType": 0,
    "windingRule": 1
  },
  "windingRule": 1
}