{
  "_class": "symbolInstance",
  "booleanOperation": 0,
  "do_objectID": "2E803BFB-F301-4820-8609-C47CCC09747A",
  "exportOptions": {
    "_class": "exportOptions",
    "do_objectID": "3483D2BB-9E06-4193-895A-9D36CF3C61ED",
    "exportFormats": [
    ],
    "includedLayerIds": [
    ],
    "layerOptions": 0,
    "shouldTrim": false
  },
  "frame": {
    "_class": "rect",
    "constrainProportions": false,
    "do_objectID": "F68B01F6-C069-42D3-8094-6099FF77D81B",
    "height": 80,
    "width": 320,
    "x": 0,
    "y": 160
  },
  "horizontalSpacing": 0,
  "isFixedToViewport": false,
  "isFlippedHorizontal": false,
  "isFlippedVertical": false,
  "isLocked": false,
  "isVisible": true,
  "layerListExpandedType": 0,
  "name": "chat",
  "nameIsFixed": false,
  "overrideValues": [
  ],
  "resizingConstraint": 63,
  "resizingType": 0,
  "rotation": 0,
  "scale": 1,
  "shouldBreakMaskChain": false,
  "style": {
    "_class": "style",
    "do_objectID": "00C75321-C975-41F3-A5FC-7C435B001591",
    "endMarkerType": 0,
    "miterLimit": 10,
    "startMarkerType": 0,
    "windingRule": 1
  },
  "symbolID": "67E4337C-8E77-4680-BB08-2C10A20C4FD3",
  "verticalSpacing": 0
}