{
  "_class": "shapeGroup",
  "booleanOperation": 0,
  "clippingMaskMode": 0,
  "do_objectID": "DB1FEA9B-857C-47CE-8650-DFA64FE81F77",
  "exportOptions": {
    "_class": "exportOptions",
    "do_objectID": "24804E7E-22AD-4EFE-B402-D1296D063605",
    "exportFormats": [
    ],
    "includedLayerIds": [
    ],
    "layerOptions": 0,
    "shouldTrim": false
  },
  "frame": {
    "_class": "rect",
    "constrainProportions": false,
    "do_objectID": "1CCD123C-D6E0-4404-BBE9-14EBE841B3FF",
    "height": 72,
    "width": 72,
    "x": 0,
    "y": 0
  },
  "hasClickThrough": false,
  "hasClippingMask": false,
  "isFixedToViewport": false,
  "isFlippedHorizontal": false,
  "isFlippedVertical": false,
  "isLocked": false,
  "isVisible": true,
  "layerListExpandedType": 0,
  "layers": [
    {
      "class": "rectangle",
      "id": "A53E28AA-C6A8-4132-9A31-9B7DE6BB0158"
    }
  ],
  "name": "bg",
  "nameIsFixed": true,
  "originalObjectID": "9C9DE224-B687-452C-ACC3-6E914996D8FF",
  "resizingConstraint": 63,
  "resizingType": 0,
  "rotation": 0,
  "shouldBreakMaskChain": false,
  "style": {
    "_class": "style",
    "do_objectID": "4267B307-C59C-46AF-B625-E2E560B567E0",
    "endMarkerType": 0,
    "miterLimit": 10,
    "sharedObjectID": "AE7841E5-E34E-496B-B937-76B742ED84F1",
    "startMarkerType": 0,
    "windingRule": 1
  },
  "windingRule": 1
}