{
  "_class": "shapePath",
  "booleanOperation": -1,
  "do_objectID": "1B7CEA2A-A5E1-4CDB-92AF-2ED1A45DA2E3",
  "edited": true,
  "exportOptions": {
    "_class": "exportOptions",
    "exportFormats": [
    ],
    "includedLayerIds": [
    ],
    "layerOptions": 0,
    "shouldTrim": false
  },
  "frame": {
    "_class": "rect",
    "constrainProportions": false,
    "height": 23,
    "width": 27.5,
    "x": 0,
    "y": 0
  },
  "isClosed": true,
  "isFixedToViewport": false,
  "isFlippedHorizontal": false,
  "isFlippedVertical": false,
  "isLocked": false,
  "isVisible": true,
  "layerListExpandedType": 0,
  "name": "Shape-path",
  "nameIsFixed": false,
  "pointRadiusBehaviour": 0,
  "points": [
    {
      "_class": "curvePoint",
      "cornerRadius": 0,
      "curveFrom": "{0.99516641707899134, 0.56560928786381437}",
      "curveMode": 1,
      "curveTo": "{0.99516641707899134, 0.56560928786381437}",
      "hasCurveFrom": false,
      "hasCurveTo": false,
      "point": "{0.99516641707899134, 0.56560928786381437}"
    },
    {
      "_class": "curvePoint",
      "cornerRadius": 0,
      "curveFrom": "{0.54172605366408955, 0.0021286444906596894}",
      "curveMode": 4,
      "curveTo": "{0.54477247278299057, 0.005915326829129485}",
      "hasCurveFrom": true,
      "hasCurveTo": false,
      "point": "{0.54477247278299057, 0.005915326829129485}"
    },
    {
      "_class": "curvePoint",
      "cornerRadius": 0,
      "curveFrom": "{0.52895238987892323, 0}",
      "curveMode": 2,
      "curveTo": "{0.53758669910750234, 0}",
      "hasCurveFrom": true,
      "hasCurveTo": true,
      "point": "{0.53326954449321273, 0}"
    },
    {
      "_class": "curvePoint",
      "cornerRadius": 0,
      "curveFrom": "{0.52176661620343501, 0.005915326829129485}",
      "curveMode": 4,
      "curveTo": "{0.52481303532233603, 0.0021286444906596894}",
      "hasCurveFrom": false,
      "hasCurveTo": true,
      "point": "{0.52176661620343501, 0.005915326829129485}"
    },
    {
      "_class": "curvePoint",
      "cornerRadius": 0,
      "curveFrom": "{0.30690057402188714, 0.27286613217169975}",
      "curveMode": 1,
      "curveTo": "{0.30690057402188714, 0.27286613217169975}",
      "hasCurveFrom": false,
      "hasCurveTo": false,
      "point": "{0.30690057402188714, 0.27286613217169975}"
    },
    {
      "_class": "curvePoint",
      "cornerRadius": 0,
      "curveFrom": "{0.0017216982463665726, 0.65214927851314575}",
      "curveMode": 4,
      "curveTo": "{0.0047858998933821327, 0.64835973934305346}",
      "hasCurveFrom": true,
      "hasCurveTo": false,
      "point": "{0.0047858998933821327, 0.64835973934305346}"
    },
    {
      "_class": "curvePoint",
      "cornerRadius": 0,
      "curveFrom": "{0, 0.66801479973481714}",
      "curveMode": 2,
      "curveTo": "{0, 0.65729119215167198}",
      "hasCurveFrom": true,
      "hasCurveTo": true,
      "point": "{0, 0.66265299817162759}"
    },
    {
      "_class": "curvePoint",
      "cornerRadius": 0,
      "curveFrom": "{0.0047858998933821327, 0.67694625700020183}",
      "curveMode": 4,
      "curveTo": "{0.0017216982463665726, 0.67315671337334348}",
      "hasCurveFrom": false,
      "hasCurveTo": true,
      "point": "{0.0047858998933821327, 0.67694625700020183}"
    },
    {
      "_class": "curvePoint",
      "cornerRadius": 0,
      "curveFrom": "{0.061570535232184899, 0.74747064037348254}",
      "curveMode": 4,
      "curveTo": "{0.058524116113284022, 0.74368395799044507}",
      "hasCurveFrom": true,
      "hasCurveTo": false,
      "point": "{0.058524116113284022, 0.74368395799044507}"
    },
    {
      "_class": "curvePoint",
      "cornerRadius": 0,
      "curveFrom": "{0.074344199017351356, 0.74959928544352183}",
      "curveMode": 2,
      "curveTo": "{0.065709889788772138, 0.74959928544352183}",
      "hasCurveFrom": true,
      "hasCurveTo": true,
      "point": "{0.070027044403061692, 0.74959928544352183}"
    },
    {
      "_class": "curvePoint",
      "cornerRadius": 0,
      "curveFrom": "{0.081529972692839472, 0.74368395799044507}",
      "curveMode": 4,
      "curveTo": "{0.078483553573938478, 0.74747064037348254}",
      "hasCurveFrom": false,
      "hasCurveTo": true,
      "point": "{0.081529972692839472, 0.74368395799044507}"
    },
    {
      "_class": "curvePoint",
      "cornerRadius": 0,
      "curveFrom": "{0.25716374011915827, 0.52496104089299833}",
      "curveMode": 4,
      "curveTo": "{0.25411732100025741, 0.52874772327603581}",
      "hasCurveFrom": true,
      "hasCurveTo": false,
      "point": "{0.25411732100025741, 0.52874772327603581}"
    },
    {
      "_class": "curvePoint",
      "cornerRadius": 0,
      "curveFrom": "{0.26993740390432475, 0.52283239582295915}",
      "curveMode": 2,
      "curveTo": "{0.26130309827909476, 0.52283239582295915}",
      "hasCurveFrom": true,
      "hasCurveTo": true,
      "point": "{0.26562025289338426, 0.52283239582295915}"
    },
    {
      "_class": "curvePoint",
      "cornerRadius": 0,
      "curveFrom": "{0.27712318118316209, 0.52874772327603581}",
      "curveMode": 4,
      "curveTo": "{0.27407676206426107, 0.52496104089299833}",
      "hasCurveFrom": false,
      "hasCurveTo": true,
      "point": "{0.27712318118316209, 0.52874772327603581}"
    },
    {
      "_class": "curvePoint",
      "cornerRadius": 0,
      "curveFrom": "{0.65373265630724553, 0.99787135492996071}",
      "curveMode": 4,
      "curveTo": "{0.65068623718834484, 0.99408467254692323}",
      "hasCurveFrom": true,
      "hasCurveTo": false,
      "point": "{0.65068623718834484, 0.99408467254692323}"
    },
    {
      "_class": "curvePoint",
      "cornerRadius": 0,
      "curveFrom": "{0.66650632369576113, 1}",
      "curveMode": 2,
      "curveTo": "{0.65787201446718202, 1}",
      "hasCurveFrom": true,
      "hasCurveTo": true,
      "point": "{0.66218916908147174, 1}"
    },
    {
      "_class": "curvePoint",
      "cornerRadius": 0,
      "curveFrom": "{0.67369209737124935, 0.99408467254692323}",
      "curveMode": 4,
      "curveTo": "{0.67064567825234833, 0.99787135492996071}",
      "hasCurveFrom": false,
      "hasCurveTo": true,
      "point": "{0.67369209737124935, 0.99408467254692323}"
    },
    {
      "_class": "curvePoint",
      "cornerRadius": 0,
      "curveFrom": "{0.99811232077301737, 0.59086394502952477}",
      "curveMode": 4,
      "curveTo": "{0.99490597420825788, 0.59462567843606817}",
      "hasCurveFrom": true,
      "hasCurveTo": false,
      "point": "{0.99490597420825788, 0.59462567843606817}"
    },
    {
      "_class": "curvePoint",
      "cornerRadius": 0,
      "curveFrom": "{1.0000480723730056, 0.57471755395297064}",
      "curveMode": 2,
      "curveTo": "{0.99994990993513344, 0.58565393200535543}",
      "hasCurveFrom": true,
      "hasCurveTo": true,
      "point": "{0.99999899115406954, 0.58018574297916303}"
    },
    {
      "_class": "curvePoint",
      "cornerRadius": 0,
      "curveFrom": "{0.99516641707899134, 0.56560928786381437}",
      "curveMode": 4,
      "curveTo": "{0.99830445135033696, 0.56945828475012816}",
      "hasCurveFrom": false,
      "hasCurveTo": true,
      "point": "{0.99516641707899134, 0.56560928786381437}"
    },
    {
      "_class": "curvePoint",
      "cornerRadius": 0,
      "curveFrom": "{0.99516641707899134, 0.56560928786381437}",
      "curveMode": 1,
      "curveTo": "{0.99516641707899134, 0.56560928786381437}",
      "hasCurveFrom": false,
      "hasCurveTo": false,
      "point": "{0.99516641707899134, 0.56560928786381437}"
    }
  ],
  "resizingConstraint": 63,
  "resizingType": 0,
  "rotation": 0,
  "shouldBreakMaskChain": false
}