{
  "_class": "symbolMaster",
  "backgroundColor": {
    "_class": "color",
    "alpha": 1,
    "blue": 1,
    "do_objectID": "C20BB6A0-A155-4D80-851E-1DF3252AE633",
    "green": 1,
    "red": 1
  },
  "booleanOperation": 0,
  "changeIdentifier": 216,
  "do_objectID": "4156500E-8E72-4511-9567-FFBED5F7E973",
  "exportOptions": {
    "_class": "exportOptions",
    "do_objectID": "27E5E1F8-0B47-436C-9CD7-B69A83DFF9FE",
    "exportFormats": [
      {
        "_class": "exportFormat",
        "absoluteSize": 0,
        "fileFormat": "svg",
        "name": "",
        "namingScheme": 0,
        "scale": 1,
        "visibleScaleType": 0
      }
    ],
    "includedLayerIds": [
    ],
    "layerOptions": 0,
    "shouldTrim": false
  },
  "frame": {
    "_class": "rect",
    "constrainProportions": false,
    "do_objectID": "2BAED209-044A-4D53-A8A9-D5B9B4FAF137",
    "height": 40,
    "width": 40,
    "x": 2848,
    "y": 11
  },
  "hasBackgroundColor": false,
  "hasClickThrough": true,
  "horizontalRulerData": {
    "_class": "rulerData",
    "base": 0,
    "do_objectID": "16EE45EB-F98F-4F8E-B034-E519A0ABA238",
    "guides": [
    ]
  },
  "includeBackgroundColorInExport": true,
  "includeBackgroundColorInInstance": true,
  "includeInCloudUpload": true,
  "isFixedToViewport": false,
  "isFlippedHorizontal": false,
  "isFlippedVertical": false,
  "isFlowHome": false,
  "isLocked": false,
  "isVisible": true,
  "layerListExpandedType": 2,
  "layers": [
    {
      "class": "shapeGroup",
      "id": "03E244F7-9CE3-4D90-9E43-FB540162ED19"
    }
  ],
  "name": "25h8/chat/mat-icon-button/view/view-cards-default",
  "nameIsFixed": true,
  "resizesContent": false,
  "resizingConstraint": 63,
  "resizingType": 0,
  "rotation": 0,
  "shouldBreakMaskChain": true,
  "style": {
    "_class": "style",
    "do_objectID": "5CF2BD7D-6076-4457-9191-0CACFDFAE705",
    "endMarkerType": 0,
    "miterLimit": 10,
    "startMarkerType": 0,
    "windingRule": 1
  },
  "symbolID": "D53A8852-97EF-49B7-B259-6671F8BFE2E9",
  "verticalRulerData": {
    "_class": "rulerData",
    "base": 0,
    "do_objectID": "5F550896-BA2A-455A-834A-0666601BE87E",
    "guides": [
    ]
  }
}