{
  "_class": "shapeGroup",
  "booleanOperation": 0,
  "clippingMaskMode": 0,
  "do_objectID": "B22B272C-0AB0-4E1F-9BFD-68F0F72A54D5",
  "exportOptions": {
    "_class": "exportOptions",
    "exportFormats": [
    ],
    "includedLayerIds": [
    ],
    "layerOptions": 0,
    "shouldTrim": false
  },
  "frame": {
    "_class": "rect",
    "constrainProportions": false,
    "height": 23.9999985,
    "width": 23.9999985,
    "x": 0,
    "y": 0
  },
  "hasClickThrough": true,
  "hasClippingMask": false,
  "isFixedToViewport": false,
  "isFlippedHorizontal": false,
  "isFlippedVertical": false,
  "isLocked": false,
  "isVisible": true,
  "layerListExpandedType": 0,
  "layers": [
    {
      "class": "shapePath",
      "id": "A6234D64-5764-45B7-AA6B-F2A2587A6D06"
    }
  ],
  "name": "24x24",
  "nameIsFixed": true,
  "originalObjectID": "B22B272C-0AB0-4E1F-9BFD-68F0F72A54D5",
  "resizingConstraint": 63,
  "resizingType": 0,
  "rotation": 0,
  "shouldBreakMaskChain": false,
  "style": {
    "_class": "style",
    "endMarkerType": 0,
    "miterLimit": 10,
    "sharedObjectID": "AE7841E5-E34E-496B-B937-76B742ED84F1",
    "startMarkerType": 0,
    "windingRule": 1
  },
  "windingRule": 1
}