{
  "_class": "symbolInstance",
  "booleanOperation": 0,
  "do_objectID": "91B7AD5C-5BE0-4025-8A8C-E7F80EC6E011",
  "exportOptions": {
    "_class": "exportOptions",
    "do_objectID": "758A3D75-86DC-4040-98EF-E734539AEFFD",
    "exportFormats": [
    ],
    "includedLayerIds": [
    ],
    "layerOptions": 0,
    "shouldTrim": false
  },
  "frame": {
    "_class": "rect",
    "constrainProportions": false,
    "do_objectID": "27C9988C-1AB2-4A44-903A-8B3C3FACFD65",
    "height": 112,
    "width": 536,
    "x": 408,
    "y": 700
  },
  "horizontalSpacing": 0,
  "isFixedToViewport": false,
  "isFlippedHorizontal": false,
  "isFlippedVertical": false,
  "isLocked": false,
  "isVisible": true,
  "layerListExpandedType": 0,
  "name": "25h8/chat/chat-area/chat-message-input-box/chat-message-input-box-default",
  "nameIsFixed": false,
  "overrideValues": [
  ],
  "resizingConstraint": 63,
  "resizingType": 0,
  "rotation": 0,
  "scale": 1,
  "shouldBreakMaskChain": false,
  "style": {
    "_class": "style",
    "do_objectID": "ACD4A748-0676-4213-8644-A0EB53F6705A",
    "endMarkerType": 0,
    "miterLimit": 10,
    "startMarkerType": 0,
    "windingRule": 1
  },
  "symbolID": "9CB02A1D-4487-46DB-8935-BD3D5CAC71E1",
  "verticalSpacing": 0
}