{
  "_class": "symbolInstance",
  "booleanOperation": 0,
  "do_objectID": "92BCCCE0-F7AF-4A84-8FF3-9CFA4B8C94D8",
  "exportOptions": {
    "_class": "exportOptions",
    "do_objectID": "94EBB493-3E3D-4E33-A874-EC9C5D45C6BC",
    "exportFormats": [
    ],
    "includedLayerIds": [
    ],
    "layerOptions": 0,
    "shouldTrim": false
  },
  "frame": {
    "_class": "rect",
    "constrainProportions": false,
    "do_objectID": "6982C554-4F32-48DD-8804-2340B58189EE",
    "height": 787,
    "width": 320,
    "x": 72,
    "y": 63
  },
  "horizontalSpacing": 0,
  "isFixedToViewport": false,
  "isFlippedHorizontal": false,
  "isFlippedVertical": false,
  "isLocked": false,
  "isVisible": true,
  "layerListExpandedType": 0,
  "name": "25h8/chat/mat-sidenav-content/mat-sidenav-conten-close",
  "nameIsFixed": false,
  "overrideValues": [
  ],
  "resizingConstraint": 63,
  "resizingType": 0,
  "rotation": 0,
  "scale": 1,
  "shouldBreakMaskChain": false,
  "style": {
    "_class": "style",
    "do_objectID": "6943640A-F48A-4C16-A99A-8885FEB04B90",
    "endMarkerType": 0,
    "miterLimit": 10,
    "startMarkerType": 0,
    "windingRule": 1
  },
  "symbolID": "054F37F0-E653-46A5-AEBB-9A410F4B4452",
  "verticalSpacing": 0
}