{
  "_class": "artboard",
  "backgroundColor": {
    "_class": "color",
    "alpha": 1,
    "blue": 1,
    "do_objectID": "4B06DBBF-432B-4978-85C0-DC4C08D1AC89",
    "green": 1,
    "red": 1
  },
  "booleanOperation": 0,
  "do_objectID": "C77E227F-6F00-4B7D-87EE-38DC4F7FE1C2",
  "exportOptions": {
    "_class": "exportOptions",
    "do_objectID": "038983B3-B7F9-40AD-963E-615C231FE115",
    "exportFormats": [
    ],
    "includedLayerIds": [
    ],
    "layerOptions": 0,
    "shouldTrim": false
  },
  "frame": {
    "_class": "rect",
    "constrainProportions": false,
    "do_objectID": "3D134145-246B-4B09-BAC2-2B8BE1349366",
    "height": 850,
    "width": 1280,
    "x": 6757,
    "y": -1040
  },
  "hasBackgroundColor": false,
  "hasClickThrough": true,
  "horizontalRulerData": {
    "_class": "rulerData",
    "base": 0,
    "do_objectID": "19387CBE-4AB6-4920-9FB4-FA6D1BBA5162",
    "guides": [
    ]
  },
  "includeBackgroundColorInExport": true,
  "includeInCloudUpload": true,
  "isFixedToViewport": false,
  "isFlippedHorizontal": false,
  "isFlippedVertical": false,
  "isFlowHome": false,
  "isLocked": false,
  "isVisible": true,
  "layerListExpandedType": 2,
  "layers": [
    {
      "class": "shapeGroup",
      "id": "16CE6C7C-57BD-421E-8303-AC7760DA9A28"
    },
    {
      "class": "symbolInstance",
      "id": "FE4BB584-2D75-44D2-BD5A-DE18801DC6E6"
    },
    {
      "class": "symbolInstance",
      "id": "DA4206B0-4D51-4D6C-B294-746E362C0404"
    },
    {
      "class": "symbolInstance",
      "id": "5DBA3D60-593D-40FC-BE3E-E1B0EC5081A3"
    },
    {
      "class": "symbolInstance",
      "id": "89795035-F3C1-4EFD-ADDB-A5C8388B2200"
    },
    {
      "class": "symbolInstance",
      "id": "F03B45BB-5835-4041-A343-6301EEED6E04"
    },
    {
      "class": "symbolInstance",
      "id": "56F914FC-8C49-4D52-B866-1CA5BF33F309"
    },
    {
      "class": "symbolInstance",
      "id": "AAD3B922-3DBC-4E33-A90B-AEF860D9CD3B"
    },
    {
      "class": "symbolInstance",
      "id": "91B7AD5C-5BE0-4025-8A8C-E7F80EC6E011"
    },
    {
      "class": "symbolInstance",
      "id": "92BCCCE0-F7AF-4A84-8FF3-9CFA4B8C94D8"
    },
    {
      "class": "symbolInstance",
      "id": "EECD3FFD-1536-489E-BE89-623EB3A9216B"
    },
    {
      "class": "symbolInstance",
      "id": "65DF72BE-A419-4FD4-A5F0-20EC27A305DA"
    },
    {
      "class": "symbolInstance",
      "id": "A8DCC5A2-49F5-41B2-AB0F-65A4308F115A"
    }
  ],
  "name": "25h8-chat-area-detail-files-128",
  "nameIsFixed": true,
  "resizesContent": false,
  "resizingConstraint": 63,
  "resizingType": 0,
  "rotation": 0,
  "shouldBreakMaskChain": true,
  "style": {
    "_class": "style",
    "do_objectID": "B8CA7252-287D-4A14-BEE1-01BF953E17DD",
    "endMarkerType": 0,
    "miterLimit": 10,
    "startMarkerType": 0,
    "windingRule": 1
  },
  "verticalRulerData": {
    "_class": "rulerData",
    "base": 0,
    "do_objectID": "4CE6F912-B89A-41F7-8BF2-A16E6920B91B",
    "guides": [
    ]
  }
}