{
  "_class": "symbolMaster",
  "backgroundColor": {
    "_class": "color",
    "alpha": 1,
    "blue": 1,
    "do_objectID": "B8372F14-E6E6-45C2-802E-56E8171A3EB9",
    "green": 1,
    "red": 1
  },
  "booleanOperation": 0,
  "changeIdentifier": 692,
  "do_objectID": "5C406D0C-29A1-4DC4-907E-79662DEB8160",
  "exportOptions": {
    "_class": "exportOptions",
    "do_objectID": "D0665431-D11A-4478-AEE7-B44BF8F7D06E",
    "exportFormats": [
      {
        "_class": "exportFormat",
        "absoluteSize": 0,
        "fileFormat": "svg",
        "name": "",
        "namingScheme": 0,
        "scale": 1,
        "visibleScaleType": 0
      }
    ],
    "includedLayerIds": [
    ],
    "layerOptions": 0,
    "shouldTrim": false
  },
  "frame": {
    "_class": "rect",
    "constrainProportions": false,
    "do_objectID": "519969DF-3801-47A2-832A-A553328FB78C",
    "height": 40,
    "width": 40,
    "x": 688,
    "y": 75
  },
  "hasBackgroundColor": false,
  "hasClickThrough": false,
  "horizontalRulerData": {
    "_class": "rulerData",
    "base": 0,
    "do_objectID": "6307CA3C-51DE-4279-A1F6-F6C9DFF9AAF5",
    "guides": [
    ]
  },
  "includeBackgroundColorInExport": true,
  "includeBackgroundColorInInstance": true,
  "includeInCloudUpload": true,
  "isFixedToViewport": false,
  "isFlippedHorizontal": false,
  "isFlippedVertical": false,
  "isFlowHome": false,
  "isLocked": false,
  "isVisible": true,
  "layerListExpandedType": 1,
  "layers": [
    {
      "class": "shapeGroup",
      "id": "EA7FE856-9A11-45C7-B4D1-5DD61C2D1DA5"
    },
    {
      "class": "shapeGroup",
      "id": "540A8B29-0FD9-4BC9-8C33-D847BB96789C"
    }
  ],
  "name": "25h8/chat/mat-icon-button/language/language-hover",
  "nameIsFixed": true,
  "originalObjectID": "84D39E8D-70F6-4986-BCF7-0995950AFD5E",
  "resizesContent": false,
  "resizingConstraint": 63,
  "resizingType": 0,
  "rotation": 0,
  "shouldBreakMaskChain": true,
  "style": {
    "_class": "style",
    "do_objectID": "FEB35178-1F9B-4EEE-B648-30B4A9D48E5A",
    "endMarkerType": 0,
    "miterLimit": 10,
    "startMarkerType": 0,
    "windingRule": 1
  },
  "symbolID": "F36B2C06-7AF7-4CEE-800B-14893CE9CDA9",
  "verticalRulerData": {
    "_class": "rulerData",
    "base": 0,
    "do_objectID": "C869709C-6F9E-4BFB-A028-6925638F3DEE",
    "guides": [
    ]
  }
}