{
  "_class": "shapePath",
  "booleanOperation": 0,
  "do_objectID": "2F1AB795-1464-48BB-A36B-DAD3E2AD4139",
  "edited": true,
  "exportOptions": {
    "_class": "exportOptions",
    "do_objectID": "FED77303-F859-4822-9059-8E4E0124AF08",
    "exportFormats": [
    ],
    "includedLayerIds": [
    ],
    "layerOptions": 0,
    "shouldTrim": false
  },
  "frame": {
    "_class": "rect",
    "constrainProportions": false,
    "do_objectID": "32F206E4-1A95-4A4C-87B2-6B2C8CEDE072",
    "height": 1.206087111486483,
    "width": 1.204072956081081,
    "x": 3.417229729730025,
    "y": 3.41722972972974
  },
  "isClosed": true,
  "isFixedToViewport": false,
  "isFlippedHorizontal": false,
  "isFlippedVertical": false,
  "isLocked": false,
  "isVisible": true,
  "layerListExpandedType": 0,
  "name": "Path",
  "nameIsFixed": false,
  "pointRadiusBehaviour": 0,
  "points": [
    {
      "_class": "curvePoint",
      "cornerRadius": 0,
      "curveFrom": "{0.77746280891016872, 1}",
      "curveMode": 4,
      "curveTo": "{0.50083388842422638, 1}",
      "hasCurveFrom": true,
      "hasCurveTo": false,
      "point": "{0.50083388842422638, 1}"
    },
    {
      "_class": "curvePoint",
      "cornerRadius": 0,
      "curveFrom": "{1, 0.22399888000559984}",
      "curveMode": 2,
      "curveTo": "{1, 0.77599612001939988}",
      "hasCurveFrom": true,
      "hasCurveTo": true,
      "point": "{1, 0.49999750001249987}"
    },
    {
      "_class": "curvePoint",
      "cornerRadius": 0,
      "curveFrom": "{0.22420496793828398, 0}",
      "curveMode": 2,
      "curveTo": "{0.77746280891016872, 0}",
      "hasCurveFrom": true,
      "hasCurveTo": true,
      "point": "{0.50083388842422638, 0}"
    },
    {
      "_class": "curvePoint",
      "cornerRadius": 0,
      "curveFrom": "{0, 0.77599612001939988}",
      "curveMode": 2,
      "curveTo": "{0, 0.22399888000559984}",
      "hasCurveFrom": true,
      "hasCurveTo": true,
      "point": "{0, 0.49999750001249987}"
    },
    {
      "_class": "curvePoint",
      "cornerRadius": 0,
      "curveFrom": "{0.50083388842422638, 1}",
      "curveMode": 4,
      "curveTo": "{0.22420496793828398, 1}",
      "hasCurveFrom": false,
      "hasCurveTo": true,
      "point": "{0.50083388842422638, 1}"
    }
  ],
  "resizingConstraint": 63,
  "resizingType": 0,
  "rotation": 0,
  "shouldBreakMaskChain": false
}