{
  "_class": "shapeGroup",
  "booleanOperation": 0,
  "clippingMaskMode": 0,
  "do_objectID": "9CAAD90F-CEA6-42C5-8130-D8A68F3C6D81",
  "exportOptions": {
    "_class": "exportOptions",
    "do_objectID": "9BFC91B5-A4C0-4586-BD83-6F7AD8668CF5",
    "exportFormats": [
    ],
    "includedLayerIds": [
    ],
    "layerOptions": 0,
    "shouldTrim": false
  },
  "frame": {
    "_class": "rect",
    "constrainProportions": false,
    "do_objectID": "D2BFAF64-D168-4F09-B0E4-827A55D3755E",
    "height": 48,
    "width": 304,
    "x": 0,
    "y": 0
  },
  "hasClickThrough": true,
  "hasClippingMask": false,
  "isFixedToViewport": false,
  "isFlippedHorizontal": false,
  "isFlippedVertical": false,
  "isLocked": false,
  "isVisible": true,
  "layerListExpandedType": 0,
  "layers": [
    {
      "class": "rectangle",
      "id": "BDF17015-6547-4A40-85AC-8DED93129A0B"
    }
  ],
  "name": "BG",
  "nameIsFixed": true,
  "resizingConstraint": 63,
  "resizingType": 0,
  "rotation": 0,
  "shouldBreakMaskChain": false,
  "style": {
    "_class": "style",
    "do_objectID": "8CECC345-294D-4FD5-8FDA-6E73AD45C084",
    "endMarkerType": 0,
    "fills": [
      {
        "_class": "fill",
        "color": {
          "_class": "color",
          "alpha": 0.12,
          "blue": 0,
          "green": 0,
          "red": 0
        },
        "fillType": 0,
        "isEnabled": true,
        "noiseIndex": 0,
        "noiseIntensity": 0,
        "patternFillType": 1,
        "patternTileScale": 1
      }
    ],
    "miterLimit": 10,
    "sharedObjectID": "11474FBB-7E09-4137-9228-3881284F46DE",
    "startMarkerType": 0,
    "windingRule": 0
  },
  "windingRule": 0
}