{
  "_class": "symbolMaster",
  "backgroundColor": {
    "_class": "color",
    "alpha": 1,
    "blue": 1,
    "do_objectID": "4D97069E-E8E5-4015-85AA-77192BED6003",
    "green": 1,
    "red": 1
  },
  "booleanOperation": 0,
  "changeIdentifier": 1369,
  "do_objectID": "9F026389-A513-43A7-8E1A-F67A74D9D1FA",
  "exportOptions": {
    "_class": "exportOptions",
    "do_objectID": "16ECA40D-11EF-46A6-81F8-328F58CC30A9",
    "exportFormats": [
    ],
    "includedLayerIds": [
    ],
    "layerOptions": 0,
    "shouldTrim": false
  },
  "frame": {
    "_class": "rect",
    "constrainProportions": false,
    "do_objectID": "0906F3D8-8E01-438E-955E-3D6F154C0449",
    "height": 72,
    "width": 72,
    "x": -1560,
    "y": 2170
  },
  "hasBackgroundColor": false,
  "hasClickThrough": true,
  "horizontalRulerData": {
    "_class": "rulerData",
    "base": 0,
    "do_objectID": "6951E932-53EE-449D-9DC6-3E5696392876",
    "guides": [
    ]
  },
  "includeBackgroundColorInExport": true,
  "includeBackgroundColorInInstance": false,
  "includeInCloudUpload": true,
  "isFixedToViewport": false,
  "isFlippedHorizontal": false,
  "isFlippedVertical": false,
  "isFlowHome": false,
  "isLocked": false,
  "isVisible": true,
  "layerListExpandedType": 1,
  "layers": [
    {
      "class": "shapeGroup",
      "id": "D42BEA33-B177-45D1-8FF9-9728650069B2"
    },
    {
      "class": "text",
      "id": "7320AC4F-8C2E-4F7D-8202-2DFD0373DA88"
    },
    {
      "class": "group",
      "id": "C1E77EA1-A88D-4FB5-8444-9B4A91EA5FFC"
    }
  ],
  "name": "25h8/chat/product-icon-name/chat/chat-default",
  "nameIsFixed": true,
  "originalObjectID": "4DA53197-7BA7-435C-8748-21FB1B337C7E",
  "resizesContent": false,
  "resizingConstraint": 63,
  "resizingType": 0,
  "rotation": 0,
  "shouldBreakMaskChain": true,
  "style": {
    "_class": "style",
    "do_objectID": "582CAFBC-F081-4556-A33A-8BC10814C624",
    "endMarkerType": 0,
    "miterLimit": 10,
    "startMarkerType": 0,
    "windingRule": 1
  },
  "symbolID": "22889918-043B-4F45-96BD-5FFEA280D3EF",
  "verticalRulerData": {
    "_class": "rulerData",
    "base": 0,
    "do_objectID": "15856AA3-C954-4C4F-B4CE-8A3FDB1E12E5",
    "guides": [
    ]
  }
}