{
  "_class": "shapePath",
  "booleanOperation": -1,
  "do_objectID": "169A7DF2-005E-4980-8F0E-AAB2AB551D49",
  "edited": true,
  "exportOptions": {
    "_class": "exportOptions",
    "do_objectID": "B0D0075B-C478-4E9C-B9C9-5CE48F267FB5",
    "exportFormats": [
    ],
    "includedLayerIds": [
    ],
    "layerOptions": 0,
    "shouldTrim": false
  },
  "frame": {
    "_class": "rect",
    "constrainProportions": false,
    "do_objectID": "A9864761-2D5D-488F-AE41-2CB8144F7240",
    "height": 19.9999988,
    "width": 19.9999988,
    "x": 0,
    "y": 0
  },
  "isClosed": true,
  "isFixedToViewport": false,
  "isFlippedHorizontal": false,
  "isFlippedVertical": false,
  "isLocked": false,
  "isVisible": true,
  "layerListExpandedType": 0,
  "name": "Path",
  "nameIsFixed": false,
  "pointRadiusBehaviour": 1,
  "points": [
    {
      "_class": "curvePoint",
      "cornerRadius": 0,
      "curveFrom": "{0.77650003000000012, 0}",
      "curveMode": 2,
      "curveTo": "{0.22350001300000003, 0}",
      "hasCurveFrom": true,
      "hasCurveTo": true,
      "point": "{0.5, 0}"
    },
    {
      "_class": "curvePoint",
      "cornerRadius": 0,
      "curveFrom": "{1, 0.77650003000000012}",
      "curveMode": 2,
      "curveTo": "{1, 0.22350001299999997}",
      "hasCurveFrom": true,
      "hasCurveTo": true,
      "point": "{1, 0.5}"
    },
    {
      "_class": "curvePoint",
      "cornerRadius": 0,
      "curveFrom": "{0.22350001300000003, 1}",
      "curveMode": 2,
      "curveTo": "{0.77650003000000012, 1}",
      "hasCurveFrom": true,
      "hasCurveTo": true,
      "point": "{0.5, 1}"
    },
    {
      "_class": "curvePoint",
      "cornerRadius": 0,
      "curveFrom": "{0, 0.22350001299999997}",
      "curveMode": 2,
      "curveTo": "{0, 0.77650003000000012}",
      "hasCurveFrom": true,
      "hasCurveTo": true,
      "point": "{0, 0.5}"
    }
  ],
  "resizingConstraint": 63,
  "resizingType": 0,
  "rotation": 0,
  "shouldBreakMaskChain": false
}