{
  "_class": "symbolMaster",
  "backgroundColor": {
    "_class": "color",
    "alpha": 1,
    "blue": 1,
    "do_objectID": "17AC835E-4ED1-432E-91FF-7BF901DA0A81",
    "green": 1,
    "red": 1
  },
  "booleanOperation": 0,
  "changeIdentifier": 142,
  "do_objectID": "0A68AF90-C02F-4381-845A-E151B9C47CE9",
  "exportOptions": {
    "_class": "exportOptions",
    "do_objectID": "B7C017E6-A8E2-4687-9ABF-2811DC9B29E1",
    "exportFormats": [
    ],
    "includedLayerIds": [
    ],
    "layerOptions": 0,
    "shouldTrim": false
  },
  "frame": {
    "_class": "rect",
    "constrainProportions": false,
    "do_objectID": "54E6624C-50DF-43B2-A5DA-934B074A8342",
    "height": 20,
    "width": 37,
    "x": 4264,
    "y": -2046
  },
  "hasBackgroundColor": false,
  "hasClickThrough": true,
  "horizontalRulerData": {
    "_class": "rulerData",
    "base": 0,
    "do_objectID": "C65A0759-379E-492F-8DEC-BEFC1AB61D04",
    "guides": [
    ]
  },
  "includeBackgroundColorInExport": true,
  "includeBackgroundColorInInstance": false,
  "includeInCloudUpload": true,
  "isFixedToViewport": false,
  "isFlippedHorizontal": false,
  "isFlippedVertical": false,
  "isFlowHome": false,
  "isLocked": false,
  "isVisible": true,
  "layerListExpandedType": 1,
  "layers": [
    {
      "class": "group",
      "id": "69E50AFF-AB3F-4BD5-969F-1105BDB2151E"
    }
  ],
  "name": "25h8/chat/buttons/switch-off",
  "nameIsFixed": true,
  "originalObjectID": "937A6213-FAFE-4D78-94D6-56AD470D4727",
  "resizesContent": false,
  "resizingConstraint": 63,
  "resizingType": 0,
  "rotation": 0,
  "shouldBreakMaskChain": true,
  "style": {
    "_class": "style",
    "do_objectID": "71D0B136-461C-4A0C-8F5E-64837343EA0D",
    "endMarkerType": 0,
    "miterLimit": 10,
    "startMarkerType": 0,
    "windingRule": 1
  },
  "symbolID": "059DA859-F4D5-41D3-B204-BDD444929F96",
  "verticalRulerData": {
    "_class": "rulerData",
    "base": 0,
    "do_objectID": "7901FD74-46F5-40D3-B990-6940D3806913",
    "guides": [
    ]
  }
}