{
  "_class": "symbolInstance",
  "booleanOperation": 0,
  "do_objectID": "40A23EAF-2BE7-4BE2-A65F-188DF3194080",
  "exportOptions": {
    "_class": "exportOptions",
    "exportFormats": [
    ],
    "includedLayerIds": [
    ],
    "layerOptions": 0,
    "shouldTrim": false
  },
  "frame": {
    "_class": "rect",
    "constrainProportions": false,
    "height": 48,
    "width": 320,
    "x": 0,
    "y": 229
  },
  "horizontalSpacing": 0,
  "isFixedToViewport": false,
  "isFlippedHorizontal": false,
  "isFlippedVertical": false,
  "isLocked": false,
  "isVisible": true,
  "layerListExpandedType": 0,
  "name": "25h8/chat/chat-detail-container/setting/chat-setting-header",
  "nameIsFixed": false,
  "overrideValues": [
    {
      "_class": "overrideValue",
      "do_objectID": "870C0C40-8E55-41E3-B6DC-5129ABE301E8",
      "overrideName": "64CD844C-B54D-4140-9202-AF53AEE6212F_stringValue",
      "value": "Підписані повідомлення"
    }
  ],
  "resizingConstraint": 63,
  "resizingType": 0,
  "rotation": 0,
  "scale": 1,
  "shouldBreakMaskChain": false,
  "style": {
    "_class": "style",
    "endMarkerType": 0,
    "miterLimit": 10,
    "startMarkerType": 0,
    "windingRule": 1
  },
  "symbolID": "5512B0B4-DCA9-44CB-BC10-79FBA2A81B7A",
  "verticalSpacing": 0
}