{
  "_class": "symbolInstance",
  "booleanOperation": 0,
  "do_objectID": "4A295AC6-1479-4C8E-B5F1-261BA5F18011",
  "exportOptions": {
    "_class": "exportOptions",
    "do_objectID": "99D18848-6C59-4BF8-8C97-B1678881CF08",
    "exportFormats": [
    ],
    "includedLayerIds": [
    ],
    "layerOptions": 0,
    "shouldTrim": false
  },
  "frame": {
    "_class": "rect",
    "constrainProportions": false,
    "do_objectID": "7C007A8B-E648-47C5-BB08-2752836AB411",
    "height": 64,
    "width": 1209,
    "x": 72,
    "y": -1
  },
  "horizontalSpacing": 0,
  "isFixedToViewport": false,
  "isFlippedHorizontal": false,
  "isFlippedVertical": false,
  "isLocked": false,
  "isVisible": true,
  "layerListExpandedType": 0,
  "name": "25h8/chat/mat-toolbar/mat-toolbar-default",
  "nameIsFixed": false,
  "overrideValues": [
  ],
  "resizingConstraint": 63,
  "resizingType": 0,
  "rotation": 0,
  "scale": 1,
  "shouldBreakMaskChain": false,
  "style": {
    "_class": "style",
    "do_objectID": "AD271121-C5A0-42B2-8650-1520B2873E5C",
    "endMarkerType": 0,
    "miterLimit": 10,
    "startMarkerType": 0,
    "windingRule": 1
  },
  "symbolID": "3408C285-2551-4D94-9EE2-BCCE07B43FA8",
  "verticalSpacing": 0
}