{
  "_class": "symbolInstance",
  "booleanOperation": 0,
  "do_objectID": "6CEB8064-7676-4774-A61B-63AFD7F3457F",
  "exportOptions": {
    "_class": "exportOptions",
    "do_objectID": "14B75E38-AA8F-4F57-BF86-BA5AAA5BDD34",
    "exportFormats": [
    ],
    "includedLayerIds": [
    ],
    "layerOptions": 0,
    "shouldTrim": false
  },
  "frame": {
    "_class": "rect",
    "constrainProportions": false,
    "do_objectID": "694CFB5C-2908-4A9E-B036-F8D26EC4E94B",
    "height": 40,
    "width": 40,
    "x": 981,
    "y": 12
  },
  "horizontalSpacing": 0,
  "isFixedToViewport": false,
  "isFlippedHorizontal": false,
  "isFlippedVertical": false,
  "isLocked": false,
  "isVisible": true,
  "layerListExpandedType": 0,
  "name": "25h8/chat/mat-icon-button/black/notification",
  "nameIsFixed": true,
  "overrideValues": [
  ],
  "resizingConstraint": 63,
  "resizingType": 0,
  "rotation": 0,
  "scale": 1,
  "shouldBreakMaskChain": false,
  "style": {
    "_class": "style",
    "do_objectID": "38A3D08E-2B2D-48EC-8F57-9A1301812E84",
    "endMarkerType": 0,
    "miterLimit": 10,
    "startMarkerType": 0,
    "windingRule": 1
  },
  "symbolID": "3ADD6236-5E14-4F23-8089-0B72B5FC89E6",
  "verticalSpacing": 0
}