{
  "_class": "symbolMaster",
  "backgroundColor": {
    "_class": "color",
    "alpha": 1,
    "blue": 1,
    "do_objectID": "9C34C629-6C23-4EFA-BE33-952D133351AC",
    "green": 1,
    "red": 1
  },
  "booleanOperation": 0,
  "changeIdentifier": 293,
  "do_objectID": "42182DFE-5BDB-4477-8E27-CEBBC6B8B190",
  "exportOptions": {
    "_class": "exportOptions",
    "do_objectID": "E02FBC5B-F261-4A0E-B2E4-AD60EB06CE08",
    "exportFormats": [
    ],
    "includedLayerIds": [
    ],
    "layerOptions": 0,
    "shouldTrim": false
  },
  "frame": {
    "_class": "rect",
    "constrainProportions": false,
    "do_objectID": "D405B965-76A4-400A-AC4B-807720DA3DE3",
    "height": 40,
    "width": 40,
    "x": 2416,
    "y": 139
  },
  "hasBackgroundColor": false,
  "hasClickThrough": true,
  "horizontalRulerData": {
    "_class": "rulerData",
    "base": 0,
    "do_objectID": "135F4E03-9B16-40B8-84FC-4028A65DA1EC",
    "guides": [
    ]
  },
  "includeBackgroundColorInExport": true,
  "includeBackgroundColorInInstance": false,
  "includeInCloudUpload": true,
  "isFixedToViewport": false,
  "isFlippedHorizontal": false,
  "isFlippedVertical": false,
  "isFlowHome": false,
  "isLocked": false,
  "isVisible": true,
  "layerListExpandedType": 2,
  "layers": [
    {
      "class": "shapeGroup",
      "id": "094CAE67-FF09-4706-8444-8508C7C7694C"
    },
    {
      "class": "shapeGroup",
      "id": "9801E3A4-6E84-4E83-9376-125A2796953F"
    }
  ],
  "name": "25h8/chat/mat-icon-button/sort/sort-press",
  "nameIsFixed": true,
  "resizesContent": false,
  "resizingConstraint": 63,
  "resizingType": 0,
  "rotation": 0,
  "shouldBreakMaskChain": true,
  "style": {
    "_class": "style",
    "do_objectID": "19C39F4D-D78E-4352-8295-4BF1118D7B1F",
    "endMarkerType": 0,
    "miterLimit": 10,
    "startMarkerType": 0,
    "windingRule": 1
  },
  "symbolID": "4077DF07-3C03-43F3-BE41-3758241BC2E3",
  "verticalRulerData": {
    "_class": "rulerData",
    "base": 0,
    "do_objectID": "65D50B76-4172-4A9A-8C8F-CCAA704A30C8",
    "guides": [
    ]
  }
}