{
  "_class": "shapePath",
  "booleanOperation": -1,
  "do_objectID": "AB65EE70-0C75-4BDA-A147-400DA6AAE625",
  "edited": true,
  "exportOptions": {
    "_class": "exportOptions",
    "exportFormats": [
    ],
    "includedLayerIds": [
    ],
    "layerOptions": 0,
    "shouldTrim": false
  },
  "frame": {
    "_class": "rect",
    "constrainProportions": false,
    "height": 7.199999999999999,
    "width": 7.199999999999998,
    "x": 5.733114389064723,
    "y": 6
  },
  "isClosed": true,
  "isFixedToViewport": false,
  "isFlippedHorizontal": false,
  "isFlippedVertical": false,
  "isLocked": false,
  "isVisible": true,
  "layerListExpandedType": 0,
  "name": "Path",
  "nameIsFixed": false,
  "pointRadiusBehaviour": 1,
  "points": [
    {
      "_class": "curvePoint",
      "cornerRadius": 0,
      "curveFrom": "{0.22499999999999998, 1}",
      "curveMode": 2,
      "curveTo": "{0.77500000000000036, 1}",
      "hasCurveFrom": true,
      "hasCurveTo": true,
      "point": "{0.50000000000000011, 1}"
    },
    {
      "_class": "curvePoint",
      "cornerRadius": 0,
      "curveFrom": "{0, 0.22499999999999995}",
      "curveMode": 2,
      "curveTo": "{0, 0.77500000000000002}",
      "hasCurveFrom": true,
      "hasCurveTo": true,
      "point": "{0, 0.5}"
    },
    {
      "_class": "curvePoint",
      "cornerRadius": 0,
      "curveFrom": "{0.77500000000000036, 0}",
      "curveMode": 2,
      "curveTo": "{0.22499999999999998, 0}",
      "hasCurveFrom": true,
      "hasCurveTo": true,
      "point": "{0.50000000000000011, 0}"
    },
    {
      "_class": "curvePoint",
      "cornerRadius": 0,
      "curveFrom": "{1, 0.77500000000000002}",
      "curveMode": 2,
      "curveTo": "{1, 0.22499999999999995}",
      "hasCurveFrom": true,
      "hasCurveTo": true,
      "point": "{1, 0.5}"
    }
  ],
  "resizingConstraint": 63,
  "resizingType": 0,
  "rotation": 0,
  "shouldBreakMaskChain": false
}