{
  "_class": "symbolInstance",
  "booleanOperation": 0,
  "do_objectID": "8122CB9B-54A3-4F1D-A487-52A03108A0FC",
  "exportOptions": {
    "_class": "exportOptions",
    "do_objectID": "E39902CA-0D98-41C5-8415-4A5D17312C5C",
    "exportFormats": [
    ],
    "includedLayerIds": [
    ],
    "layerOptions": 0,
    "shouldTrim": false
  },
  "frame": {
    "_class": "rect",
    "constrainProportions": false,
    "do_objectID": "1BE0C7FC-6FEE-4509-8776-766D9573226D",
    "height": 24,
    "width": 52,
    "x": 318,
    "y": 56
  },
  "horizontalSpacing": 0,
  "isFixedToViewport": false,
  "isFlippedHorizontal": false,
  "isFlippedVertical": false,
  "isLocked": false,
  "isVisible": true,
  "layerListExpandedType": 0,
  "name": "emoji-reaction",
  "nameIsFixed": false,
  "overrideValues": [
  ],
  "resizingConstraint": 60,
  "resizingType": 0,
  "rotation": 0,
  "scale": 1,
  "shouldBreakMaskChain": false,
  "style": {
    "_class": "style",
    "do_objectID": "DF6D302A-BDE1-4E20-B5EB-AE3174317E00",
    "endMarkerType": 0,
    "miterLimit": 10,
    "startMarkerType": 0,
    "windingRule": 1
  },
  "symbolID": "1F9A8B3D-ACCD-4149-99CD-90C32D2E3FE0",
  "verticalSpacing": 0
}