{
  "_class": "symbolMaster",
  "backgroundColor": {
    "_class": "color",
    "alpha": 1,
    "blue": 1,
    "do_objectID": "AA033B25-740A-49F1-8122-D99EA1FECAC6",
    "green": 1,
    "red": 1
  },
  "booleanOperation": 0,
  "changeIdentifier": 412,
  "do_objectID": "000CEADA-520A-489E-9F68-DDD4918CD356",
  "exportOptions": {
    "_class": "exportOptions",
    "do_objectID": "6E5389D6-C154-4429-83F5-2F397AA9BF69",
    "exportFormats": [
      {
        "_class": "exportFormat",
        "absoluteSize": 0,
        "fileFormat": "svg",
        "name": "",
        "namingScheme": 0,
        "scale": 1,
        "visibleScaleType": 0
      }
    ],
    "includedLayerIds": [
    ],
    "layerOptions": 0,
    "shouldTrim": false
  },
  "frame": {
    "_class": "rect",
    "constrainProportions": false,
    "do_objectID": "55CFADC2-7CF2-4A50-A015-BB6553E429BA",
    "height": 40,
    "width": 40,
    "x": 1912,
    "y": -53
  },
  "hasBackgroundColor": false,
  "hasClickThrough": false,
  "horizontalRulerData": {
    "_class": "rulerData",
    "base": 0,
    "do_objectID": "6E4F728C-9620-404E-BA62-CD22B4F4620B",
    "guides": [
    ]
  },
  "includeBackgroundColorInExport": true,
  "includeBackgroundColorInInstance": false,
  "includeInCloudUpload": true,
  "isFixedToViewport": false,
  "isFlippedHorizontal": false,
  "isFlippedVertical": false,
  "isFlowHome": false,
  "isLocked": false,
  "isVisible": true,
  "layerListExpandedType": 2,
  "layers": [
    {
      "class": "shapeGroup",
      "id": "5D8713C1-C730-413A-A6C5-3F630163C801"
    }
  ],
  "name": "25h8/chat/mat-icon-button/file/file-defaul-white",
  "nameIsFixed": true,
  "resizesContent": false,
  "resizingConstraint": 63,
  "resizingType": 0,
  "rotation": 0,
  "shouldBreakMaskChain": true,
  "style": {
    "_class": "style",
    "do_objectID": "A943CEB9-9521-44AE-9351-D515C87B8E71",
    "endMarkerType": 0,
    "miterLimit": 10,
    "startMarkerType": 0,
    "windingRule": 1
  },
  "symbolID": "AA8451FA-799C-467A-BA45-7A348E4E3744",
  "verticalRulerData": {
    "_class": "rulerData",
    "base": 0,
    "do_objectID": "2DBB8E85-1368-46BF-A7D1-B2CAECF6AB3C",
    "guides": [
    ]
  }
}