{
  "_class": "symbolInstance",
  "booleanOperation": 0,
  "do_objectID": "CD06561B-7440-4EC6-A14C-F2C59C1D43D1",
  "exportOptions": {
    "_class": "exportOptions",
    "do_objectID": "D17EABD6-EFBC-4825-8DC4-6F206F25F1DB",
    "exportFormats": [
    ],
    "includedLayerIds": [
    ],
    "layerOptions": 0,
    "shouldTrim": false
  },
  "frame": {
    "_class": "rect",
    "constrainProportions": false,
    "do_objectID": "108C1D9E-3144-4E5C-A492-017B50F0C646",
    "height": 80,
    "width": 320,
    "x": 0,
    "y": 320
  },
  "horizontalSpacing": 0,
  "isFixedToViewport": false,
  "isFlippedHorizontal": false,
  "isFlippedVertical": false,
  "isLocked": false,
  "isVisible": true,
  "layerListExpandedType": 0,
  "name": "25h8/chat/chat-list-item",
  "nameIsFixed": false,
  "overrideValues": [
  ],
  "resizingConstraint": 63,
  "resizingType": 0,
  "rotation": 0,
  "scale": 1,
  "shouldBreakMaskChain": false,
  "style": {
    "_class": "style",
    "do_objectID": "3FD12300-3D3C-421C-96CB-49B59F70C317",
    "endMarkerType": 0,
    "miterLimit": 10,
    "startMarkerType": 0,
    "windingRule": 1
  },
  "symbolID": "359A9BD0-A10E-45CA-B6B3-22CDD16204F7",
  "verticalSpacing": 0
}