{
  "_class": "group",
  "booleanOperation": 0,
  "do_objectID": "6FB56E0E-37F9-4485-896C-161B7886F962",
  "exportOptions": {
    "_class": "exportOptions",
    "do_objectID": "332C6854-187E-4879-8AF2-AA5CD1BCECD8",
    "exportFormats": [
    ],
    "includedLayerIds": [
    ],
    "layerOptions": 0,
    "shouldTrim": false
  },
  "frame": {
    "_class": "rect",
    "constrainProportions": false,
    "do_objectID": "B08C6B68-63EF-457B-938B-CEC093C77E37",
    "height": 14,
    "width": 22,
    "x": 246,
    "y": 45
  },
  "hasClickThrough": false,
  "isFixedToViewport": false,
  "isFlippedHorizontal": false,
  "isFlippedVertical": false,
  "isLocked": false,
  "isVisible": true,
  "layerListExpandedType": 0,
  "layers": [
    {
      "class": "shapeGroup",
      "id": "D73BB37E-6937-47C3-A020-D64C0857F071"
    },
    {
      "class": "text",
      "id": "031FD351-F452-4864-9313-6D9B16F7447E"
    }
  ],
  "name": "Material/Notification bubble/2 Digit",
  "nameIsFixed": true,
  "originalObjectID": "53740116-0211-4C29-8125-03A62800E110",
  "resizingConstraint": 63,
  "resizingType": 0,
  "rotation": 0,
  "shouldBreakMaskChain": false,
  "style": {
    "_class": "style",
    "do_objectID": "642F12EE-EC94-40C8-82A0-A33B4A2D1748",
    "endMarkerType": 0,
    "miterLimit": 10,
    "startMarkerType": 0,
    "windingRule": 1
  }
}