{
  "_class": "symbolInstance",
  "booleanOperation": 0,
  "do_objectID": "143E1355-D537-459F-8DF7-66BDD8AAA9DB",
  "exportOptions": {
    "_class": "exportOptions",
    "do_objectID": "8A605862-6B8A-416D-9B5F-B596EE54F5F5",
    "exportFormats": [
    ],
    "includedLayerIds": [
    ],
    "layerOptions": 0,
    "shouldTrim": false
  },
  "frame": {
    "_class": "rect",
    "constrainProportions": false,
    "do_objectID": "E45256E9-8410-4ABF-A392-5C3412AF2E68",
    "height": 72,
    "width": 72,
    "x": 0,
    "y": 16
  },
  "horizontalSpacing": 0,
  "isFixedToViewport": false,
  "isFlippedHorizontal": false,
  "isFlippedVertical": false,
  "isLocked": false,
  "isVisible": true,
  "layerListExpandedType": 0,
  "name": "product-logo-button",
  "nameIsFixed": true,
  "originalObjectID": "4DA53197-7BA7-435C-8748-21FB1B337C7E",
  "overrideValues": [
    {
      "_class": "overrideValue",
      "do_objectID": "96EC919B-ED1E-498B-B01F-3E64968E4889",
      "overrideName": "D3925EAB-AAA9-4E16-B0CB-8FECF4EAE741_stringValue",
      "value": "Пошук"
    }
  ],
  "resizingConstraint": 63,
  "resizingType": 0,
  "rotation": 0,
  "scale": 1,
  "shouldBreakMaskChain": false,
  "style": {
    "_class": "style",
    "do_objectID": "5006E6CE-D002-42F0-ACB5-4FE3C357069E",
    "endMarkerType": 0,
    "miterLimit": 10,
    "startMarkerType": 0,
    "windingRule": 1
  },
  "symbolID": "9022A438-503A-40F7-8840-173BEBF41ADD",
  "verticalSpacing": 0
}