{
  "_class": "symbolInstance",
  "booleanOperation": 0,
  "do_objectID": "76EEF319-CAA8-420F-A544-49729B38567A",
  "exportOptions": {
    "_class": "exportOptions",
    "do_objectID": "21EA3C2B-9ED4-417F-AF3E-3A158835173A",
    "exportFormats": [
    ],
    "includedLayerIds": [
    ],
    "layerOptions": 0,
    "shouldTrim": false
  },
  "frame": {
    "_class": "rect",
    "constrainProportions": false,
    "do_objectID": "2977BF0F-C0C6-44C9-85C1-DF2A5AF90A61",
    "height": 72,
    "width": 72,
    "x": 0,
    "y": 336
  },
  "horizontalSpacing": 0,
  "isFixedToViewport": false,
  "isFlippedHorizontal": false,
  "isFlippedVertical": false,
  "isLocked": false,
  "isVisible": true,
  "layerListExpandedType": 0,
  "name": "product-logo-button",
  "nameIsFixed": true,
  "originalObjectID": "4DA53197-7BA7-435C-8748-21FB1B337C7E",
  "overrideValues": [
    {
      "_class": "overrideValue",
      "do_objectID": "C23C5C78-F9C5-452E-9506-DD134CADAD0F",
      "overrideName": "5E0075D3-0060-4E25-A5D7-1A45B61362D3_stringValue",
      "value": "Мережа"
    }
  ],
  "resizingConstraint": 63,
  "resizingType": 0,
  "rotation": 0,
  "scale": 1,
  "shouldBreakMaskChain": false,
  "style": {
    "_class": "style",
    "do_objectID": "D33CEBA3-66AD-4E94-9D26-A9D82C6697C5",
    "endMarkerType": 0,
    "miterLimit": 10,
    "startMarkerType": 0,
    "windingRule": 1
  },
  "symbolID": "89FF4B41-5760-4954-9553-60C9FC6289A9",
  "verticalSpacing": 0
}