{
  "_class": "symbolInstance",
  "booleanOperation": 0,
  "do_objectID": "C745B4A1-073E-47A2-82B7-E32F1D6343D5",
  "exportOptions": {
    "_class": "exportOptions",
    "do_objectID": "A699D380-45E1-4848-BE5F-0EB5BBC58C5A",
    "exportFormats": [
    ],
    "includedLayerIds": [
    ],
    "layerOptions": 0,
    "shouldTrim": false
  },
  "frame": {
    "_class": "rect",
    "constrainProportions": false,
    "do_objectID": "E2612993-5F5A-43FE-8E74-00629AA75DF9",
    "height": 72,
    "width": 72,
    "x": 0,
    "y": 176
  },
  "horizontalSpacing": 0,
  "isFixedToViewport": false,
  "isFlippedHorizontal": false,
  "isFlippedVertical": false,
  "isLocked": false,
  "isVisible": true,
  "layerListExpandedType": 0,
  "name": "25h8/chat/product-icon-name/trade/trade-default",
  "nameIsFixed": false,
  "overrideValues": [
    {
      "_class": "overrideValue",
      "do_objectID": "745922BC-7254-4E15-903C-D493DD88ABA9",
      "overrideName": "B8202CC0-F21F-4B07-A07E-25229AE83155_stringValue",
      "value": "Бізнес"
    }
  ],
  "resizingConstraint": 63,
  "resizingType": 0,
  "rotation": 0,
  "scale": 1,
  "shouldBreakMaskChain": false,
  "style": {
    "_class": "style",
    "do_objectID": "ABB8D414-64EC-450E-A174-B44CAD524675",
    "endMarkerType": 0,
    "miterLimit": 10,
    "startMarkerType": 0,
    "windingRule": 1
  },
  "symbolID": "B172079E-4E3E-44E9-99A3-521E370B298F",
  "verticalSpacing": 0
}