{
  "_class": "symbolInstance",
  "booleanOperation": -1,
  "do_objectID": "02CFFEF4-FB55-469C-85B2-120345666EA6",
  "exportOptions": {
    "_class": "exportOptions",
    "do_objectID": "49D070EC-1E48-41F9-A7FC-AA033736774F",
    "exportFormats": [
    ],
    "includedLayerIds": [
    ],
    "layerOptions": 0,
    "shouldTrim": false
  },
  "frame": {
    "_class": "rect",
    "constrainProportions": false,
    "do_objectID": "AEE5E975-DA42-4B0B-826A-297750D3AD11",
    "height": 14,
    "width": 22,
    "x": 294,
    "y": 39
  },
  "horizontalSpacing": 0,
  "isFixedToViewport": false,
  "isFlippedHorizontal": false,
  "isFlippedVertical": false,
  "isLocked": false,
  "isVisible": true,
  "layerListExpandedType": 0,
  "name": "25h8/chat/notification-bubble-3-digit-normal",
  "nameIsFixed": false,
  "overrideValues": [
  ],
  "resizingConstraint": 12,
  "resizingType": 0,
  "rotation": 0,
  "scale": 1,
  "shouldBreakMaskChain": false,
  "style": {
    "_class": "style",
    "do_objectID": "FD7B2276-B739-4A86-BDB3-C009980864E7",
    "endMarkerType": 0,
    "miterLimit": 10,
    "startMarkerType": 0,
    "windingRule": 1
  },
  "symbolID": "3F668D78-AD18-407A-A5B8-94E350E6E6D3",
  "verticalSpacing": 0
}