{
  "_class": "group",
  "booleanOperation": 0,
  "do_objectID": "4A10547A-336D-43BA-8783-9CF13A302FBA",
  "exportOptions": {
    "_class": "exportOptions",
    "do_objectID": "A6AFBC42-AD6F-4D4B-934F-F6E47371F20B",
    "exportFormats": [
    ],
    "includedLayerIds": [
    ],
    "layerOptions": 0,
    "shouldTrim": false
  },
  "frame": {
    "_class": "rect",
    "constrainProportions": false,
    "do_objectID": "DC8FBDFC-B183-45DB-A7E7-423A6EDC0B13",
    "height": 52,
    "width": 407,
    "x": 8,
    "y": 0
  },
  "hasClickThrough": false,
  "isFixedToViewport": false,
  "isFlippedHorizontal": false,
  "isFlippedVertical": false,
  "isLocked": false,
  "isVisible": true,
  "layerListExpandedType": 0,
  "layers": [
    {
      "class": "symbolInstance",
      "id": "4FEEE82F-A37F-4F42-9C20-769C07EC67C5"
    },
    {
      "class": "shapeGroup",
      "id": "C9AA9BE3-9A5C-45A1-9572-E2AD45AE6316"
    },
    {
      "class": "group",
      "id": "0D51A6E6-A55E-4C9F-821E-E674009707C1"
    },
    {
      "class": "text",
      "id": "129BAC69-2BED-44C4-86DE-D7D9F97A0EEE"
    },
    {
      "class": "text",
      "id": "C7087846-AA1A-420D-947A-6B73A9DBB819"
    }
  ],
  "name": "mesage 1",
  "nameIsFixed": true,
  "resizingConstraint": 63,
  "resizingType": 0,
  "rotation": 0,
  "shouldBreakMaskChain": false,
  "style": {
    "_class": "style",
    "do_objectID": "D46B2FE5-82B1-495D-89A2-EA8560DB8BC9",
    "endMarkerType": 0,
    "miterLimit": 10,
    "startMarkerType": 0,
    "windingRule": 1
  },
  "userInfo": {
    "com.animaapp.stc-sketch-plugin": {
      "kModelPropertiesKey": {
      }
    }
  }
}