{
  "_class": "symbolMaster",
  "backgroundColor": {
    "_class": "color",
    "alpha": 1,
    "blue": 1,
    "do_objectID": "D5F29921-BC4E-4BE1-9D5B-E0869EA67E37",
    "green": 1,
    "red": 1
  },
  "booleanOperation": 0,
  "changeIdentifier": 996,
  "do_objectID": "7CBC2B31-D503-4072-8437-93FD995AC685",
  "exportOptions": {
    "_class": "exportOptions",
    "do_objectID": "71A874C7-801F-48DD-9CED-D87F70748DB4",
    "exportFormats": [
      {
        "_class": "exportFormat",
        "absoluteSize": 0,
        "fileFormat": "svg",
        "name": "",
        "namingScheme": 0,
        "scale": 1,
        "visibleScaleType": 0
      }
    ],
    "includedLayerIds": [
    ],
    "layerOptions": 0,
    "shouldTrim": false
  },
  "frame": {
    "_class": "rect",
    "constrainProportions": false,
    "do_objectID": "C2BFE879-5F64-42AC-A8AF-A8E4E06FAC7D",
    "height": 40,
    "width": 40,
    "x": 1264,
    "y": 203
  },
  "hasBackgroundColor": false,
  "hasClickThrough": true,
  "horizontalRulerData": {
    "_class": "rulerData",
    "base": 0,
    "do_objectID": "79B42FCA-71CB-4C2B-B159-DFAE93A6AAD1",
    "guides": [
    ]
  },
  "includeBackgroundColorInExport": true,
  "includeBackgroundColorInInstance": true,
  "includeInCloudUpload": true,
  "isFixedToViewport": false,
  "isFlippedHorizontal": false,
  "isFlippedVertical": false,
  "isFlowHome": false,
  "isLocked": false,
  "isVisible": true,
  "layerListExpandedType": 0,
  "layers": [
    {
      "class": "shapeGroup",
      "id": "910EE4E2-300E-4816-B917-F4CC1C3FC8D9"
    },
    {
      "class": "shapeGroup",
      "id": "85527BDD-827F-4A57-AEE0-BB3C0C52781B"
    }
  ],
  "name": "25h8/chat/mat-icon-button/setting/setting-press",
  "nameIsFixed": true,
  "originalObjectID": "022D1CB9-7194-4F32-B8E4-5EDA4295540C",
  "resizesContent": false,
  "resizingConstraint": 63,
  "resizingType": 0,
  "rotation": 0,
  "shouldBreakMaskChain": true,
  "style": {
    "_class": "style",
    "do_objectID": "59AD0A74-965C-4BF2-A88A-3F955EFC7CA8",
    "endMarkerType": 0,
    "miterLimit": 10,
    "startMarkerType": 0,
    "windingRule": 1
  },
  "symbolID": "54E85A5C-3498-40D8-BDD2-29922A8ADC8A",
  "verticalRulerData": {
    "_class": "rulerData",
    "base": 0,
    "do_objectID": "D7F38217-7D79-4B4F-B4B5-0DF3612C0408",
    "guides": [
    ]
  }
}