{
  "_class": "group",
  "booleanOperation": 0,
  "do_objectID": "0B8C6EE2-6FFD-4261-868C-557D9386295F",
  "exportOptions": {
    "_class": "exportOptions",
    "exportFormats": [
    ],
    "includedLayerIds": [
    ],
    "layerOptions": 0,
    "shouldTrim": false
  },
  "frame": {
    "_class": "rect",
    "constrainProportions": false,
    "height": 240,
    "width": 1440,
    "x": 0,
    "y": 0
  },
  "hasClickThrough": true,
  "isFixedToViewport": false,
  "isFlippedHorizontal": false,
  "isFlippedVertical": false,
  "isLocked": false,
  "isVisible": true,
  "layerListExpandedType": 2,
  "layers": [
    {
      "class": "shapeGroup",
      "id": "6F03403E-FF3E-4F1A-85FC-4EEFB2649103"
    },
    {
      "class": "shapeGroup",
      "id": "70637C8B-538C-44FF-8707-BCC9A826FA99"
    },
    {
      "class": "text",
      "id": "8B5712F4-FF1D-43A9-84BA-F67818A3FCDD"
    }
  ],
  "name": "Artboard Header",
  "nameIsFixed": true,
  "resizingConstraint": 63,
  "resizingType": 0,
  "rotation": 0,
  "shouldBreakMaskChain": false,
  "style": {
    "_class": "style",
    "endMarkerType": 0,
    "miterLimit": 10,
    "startMarkerType": 0,
    "windingRule": 1
  }
}