{
  "_class": "shapePath",
  "booleanOperation": -1,
  "do_objectID": "73A7DB8F-5727-49C9-9112-105B35E38E93",
  "edited": true,
  "exportOptions": {
    "_class": "exportOptions",
    "do_objectID": "00FCCE00-C40D-4976-A984-A783DFF855C7",
    "exportFormats": [
    ],
    "includedLayerIds": [
    ],
    "layerOptions": 0,
    "shouldTrim": false
  },
  "frame": {
    "_class": "rect",
    "constrainProportions": false,
    "do_objectID": "235CBC2A-7A80-470A-8D33-2796329626B8",
    "height": 12.84957142857143,
    "width": 14.07200000000001,
    "x": 0,
    "y": 0
  },
  "isClosed": true,
  "isFixedToViewport": false,
  "isFlippedHorizontal": false,
  "isFlippedVertical": false,
  "isLocked": false,
  "isVisible": true,
  "layerListExpandedType": 0,
  "name": "Path",
  "nameIsFixed": false,
  "pointRadiusBehaviour": 1,
  "points": [
    {
      "_class": "curvePoint",
      "cornerRadius": 0,
      "curveFrom": "{0.084366117111995514, 0}",
      "curveMode": 1,
      "curveTo": "{0.084366117111995514, 0}",
      "hasCurveFrom": false,
      "hasCurveTo": false,
      "point": "{0.084366117111995514, 0}"
    },
    {
      "_class": "curvePoint",
      "cornerRadius": 0,
      "curveFrom": "{0, 0.092087562675797985}",
      "curveMode": 1,
      "curveTo": "{0, 0.092087562675797985}",
      "hasCurveFrom": false,
      "hasCurveTo": false,
      "point": "{0, 0.092087562675797985}"
    },
    {
      "_class": "curvePoint",
      "cornerRadius": 0,
      "curveFrom": "{0.83126776577600892, 1}",
      "curveMode": 1,
      "curveTo": "{0.83126776577600892, 1}",
      "hasCurveFrom": false,
      "hasCurveTo": false,
      "point": "{0.83126776577600892, 1}"
    },
    {
      "_class": "curvePoint",
      "cornerRadius": 0,
      "curveFrom": "{1, 1}",
      "curveMode": 1,
      "curveTo": "{1, 1}",
      "hasCurveFrom": false,
      "hasCurveTo": false,
      "point": "{1, 1}"
    }
  ],
  "resizingConstraint": 63,
  "resizingType": 0,
  "rotation": 0,
  "shouldBreakMaskChain": false
}