{
  "_class": "shapeGroup",
  "booleanOperation": 0,
  "clippingMaskMode": 0,
  "do_objectID": "3A5B8DF0-F56A-4C0F-92D9-B52910195996",
  "exportOptions": {
    "_class": "exportOptions",
    "do_objectID": "B1EB3CF4-50E0-42AE-86B4-DBE815C0634F",
    "exportFormats": [
    ],
    "includedLayerIds": [
    ],
    "layerOptions": 0,
    "shouldTrim": false
  },
  "frame": {
    "_class": "rect",
    "constrainProportions": true,
    "do_objectID": "BC8C88A3-7F31-4601-9766-8C596E397A59",
    "height": 20,
    "width": 20,
    "x": 2,
    "y": 2
  },
  "hasClickThrough": true,
  "hasClippingMask": false,
  "isFixedToViewport": false,
  "isFlippedHorizontal": false,
  "isFlippedVertical": false,
  "isLocked": false,
  "isVisible": true,
  "layerListExpandedType": 1,
  "layers": [
    {
      "class": "rectangle",
      "id": "F2CA397F-A4A1-46AE-A21A-54880A4E0EE2"
    }
  ],
  "name": "Live area",
  "nameIsFixed": true,
  "resizingConstraint": 63,
  "resizingType": 0,
  "rotation": 0,
  "shouldBreakMaskChain": false,
  "style": {
    "_class": "style",
    "do_objectID": "0277E29F-1CAD-4204-A3D2-CA5720825257",
    "endMarkerType": 0,
    "fills": [
      {
        "_class": "fill",
        "color": {
          "_class": "color",
          "alpha": 0.87,
          "blue": 0,
          "green": 0,
          "red": 0
        },
        "fillType": 0,
        "isEnabled": true,
        "noiseIndex": 0,
        "noiseIntensity": 0,
        "patternFillType": 1,
        "patternTileScale": 1
      }
    ],
    "miterLimit": 10,
    "sharedObjectID": "8E365737-F220-4C75-A958-A8AB2B9CF2AD",
    "startMarkerType": 0,
    "windingRule": 0
  },
  "windingRule": 0
}