{
  "_class": "symbolInstance",
  "booleanOperation": 0,
  "do_objectID": "1D15AE69-467E-4284-9DA5-03044DBBD406",
  "exportOptions": {
    "_class": "exportOptions",
    "do_objectID": "D71F45A3-3E1F-48C7-8CAA-1830CF416592",
    "exportFormats": [
    ],
    "includedLayerIds": [
    ],
    "layerOptions": 0,
    "shouldTrim": false
  },
  "frame": {
    "_class": "rect",
    "constrainProportions": true,
    "do_objectID": "C8E115C6-FFF7-4A30-995F-ED888F412784",
    "height": 12,
    "width": 12,
    "x": 304,
    "y": 4
  },
  "horizontalSpacing": 0,
  "isFixedToViewport": false,
  "isFlippedHorizontal": false,
  "isFlippedVertical": false,
  "isLocked": false,
  "isVisible": true,
  "layerListExpandedType": 0,
  "name": "Black/icon-active-unfocused",
  "nameIsFixed": false,
  "overrideValues": [
  ],
  "resizingConstraint": 12,
  "resizingType": 0,
  "rotation": 0,
  "scale": 1,
  "shouldBreakMaskChain": false,
  "style": {
    "_class": "style",
    "do_objectID": "1ABE067A-902F-485C-9DAD-F0872C20923B",
    "endMarkerType": 0,
    "miterLimit": 10,
    "startMarkerType": 0,
    "windingRule": 1
  },
  "symbolID": "39FA8BF2-9336-4B2B-AE56-6B5E13045A31",
  "verticalSpacing": 0
}