{
  "_class": "symbolInstance",
  "booleanOperation": 0,
  "do_objectID": "DA6C8998-B1EA-4A3C-BA71-D5A632F1E8B6",
  "exportOptions": {
    "_class": "exportOptions",
    "do_objectID": "69DFBDCF-E8F1-4590-BD76-D5D384FF3AFC",
    "exportFormats": [
    ],
    "includedLayerIds": [
    ],
    "layerOptions": 0,
    "shouldTrim": false
  },
  "frame": {
    "_class": "rect",
    "constrainProportions": true,
    "do_objectID": "1D27AFCE-A804-426F-8364-B66171E3A435",
    "height": 16,
    "width": 16,
    "x": 117,
    "y": 19
  },
  "horizontalSpacing": 0,
  "isFixedToViewport": false,
  "isFlippedHorizontal": false,
  "isFlippedVertical": false,
  "isLocked": false,
  "isVisible": true,
  "layerListExpandedType": 0,
  "name": "Black/icon-inactive",
  "nameIsFixed": false,
  "overrideValues": [
  ],
  "resizingConstraint": 12,
  "resizingType": 0,
  "rotation": 0,
  "scale": 1,
  "shouldBreakMaskChain": false,
  "style": {
    "_class": "style",
    "do_objectID": "3199F0A0-016A-4A47-8EAD-B357E2A98FD8",
    "endMarkerType": 0,
    "miterLimit": 10,
    "startMarkerType": 0,
    "windingRule": 1
  },
  "symbolID": "23518F14-394B-4E06-85C6-4DA360118D62",
  "verticalSpacing": 0
}