{
  "_class": "group",
  "booleanOperation": -1,
  "do_objectID": "BBB810D4-1F1F-4D73-9DFB-3E012E98CC94",
  "exportOptions": {
    "_class": "exportOptions",
    "do_objectID": "BC32C9DA-B93F-4D7F-855F-532ED1BD92FA",
    "exportFormats": [
    ],
    "includedLayerIds": [
    ],
    "layerOptions": 0,
    "shouldTrim": false
  },
  "frame": {
    "_class": "rect",
    "constrainProportions": false,
    "do_objectID": "965EF3CF-43A5-4627-A2E8-22D970EEC3A5",
    "height": 80,
    "width": 320,
    "x": 0,
    "y": 0
  },
  "hasClickThrough": false,
  "isFixedToViewport": false,
  "isFlippedHorizontal": false,
  "isFlippedVertical": false,
  "isLocked": false,
  "isVisible": true,
  "layerListExpandedType": 2,
  "layers": [
    {
      "class": "shapeGroup",
      "id": "074CE9F0-F348-4852-9309-D0E630401E89"
    },
    {
      "class": "text",
      "id": "D454EC93-D0A1-48E2-907B-634E6DF50AA8"
    },
    {
      "class": "text",
      "id": "C38DBEAD-4AD6-41E6-A466-ED54D3BF5990"
    },
    {
      "class": "shapeGroup",
      "id": "B39DC900-719E-4FD8-A3D9-7958D5756994"
    },
    {
      "class": "symbolInstance",
      "id": "4A239714-4ED1-4681-9C8F-1A6DE0F88CB2"
    },
    {
      "class": "text",
      "id": "388011E8-4504-4FD6-B0B4-1E80B46D0D77"
    },
    {
      "class": "text",
      "id": "B2FF512B-E5C4-4007-999D-58422ABA615C"
    },
    {
      "class": "symbolInstance",
      "id": "1D15AE69-467E-4284-9DA5-03044DBBD406"
    },
    {
      "class": "symbolInstance",
      "id": "DA6C8998-B1EA-4A3C-BA71-D5A632F1E8B6"
    }
  ],
  "name": "25h8/Chat/Chat List/Focused/Short Title/chat-list-item+entity",
  "nameIsFixed": true,
  "resizingConstraint": 63,
  "resizingType": 0,
  "rotation": 0,
  "shouldBreakMaskChain": false,
  "style": {
    "_class": "style",
    "do_objectID": "404EF132-9224-42D0-BE6B-143CFA68F260",
    "endMarkerType": 0,
    "miterLimit": 10,
    "startMarkerType": 0,
    "windingRule": 1
  }
}