{
  "_class": "group",
  "booleanOperation": 0,
  "do_objectID": "1DEED507-087A-4BCB-A392-319326B78F47",
  "exportOptions": {
    "_class": "exportOptions",
    "do_objectID": "47BFE84B-65E4-4991-AA62-6400A303D63C",
    "exportFormats": [
    ],
    "includedLayerIds": [
    ],
    "layerOptions": 0,
    "shouldTrim": false
  },
  "frame": {
    "_class": "rect",
    "constrainProportions": false,
    "do_objectID": "7E396547-78B6-4200-86A8-BF96976775DB",
    "height": 56,
    "width": 320,
    "x": 0,
    "y": 80
  },
  "hasClickThrough": false,
  "isFixedToViewport": false,
  "isFlippedHorizontal": false,
  "isFlippedVertical": false,
  "isLocked": false,
  "isVisible": true,
  "layerListExpandedType": 0,
  "layers": [
    {
      "class": "shapeGroup",
      "id": "FE3E06B9-6A43-4EEE-8835-4907628A2F69"
    },
    {
      "class": "symbolInstance",
      "id": "D1DCE052-2431-4A3C-8145-D9CD03176D27"
    },
    {
      "class": "text",
      "id": "9196E92C-F99B-4673-A46C-AC3BD3B176B2"
    },
    {
      "class": "shapeGroup",
      "id": "C4E2E596-802D-41F6-A30E-92B33C1E9F5F"
    },
    {
      "class": "group",
      "id": "AE7B0716-2C94-43C7-9AA8-12AA906B7BCB"
    }
  ],
  "name": "files copy",
  "nameIsFixed": true,
  "resizingConstraint": 63,
  "resizingType": 0,
  "rotation": 0,
  "shouldBreakMaskChain": false,
  "style": {
    "_class": "style",
    "do_objectID": "BE2201A1-10DB-448A-9D8A-0FB83046CD37",
    "endMarkerType": 0,
    "miterLimit": 10,
    "startMarkerType": 0,
    "windingRule": 1
  }
}