{
  "_class": "shapePath",
  "booleanOperation": -1,
  "do_objectID": "E04A7372-8248-4FB8-98F6-DCA0AC0CC246",
  "edited": true,
  "exportOptions": {
    "_class": "exportOptions",
    "do_objectID": "734A42AD-FBD9-426E-BA63-7409631431B8",
    "exportFormats": [
    ],
    "includedLayerIds": [
    ],
    "layerOptions": 0,
    "shouldTrim": false
  },
  "frame": {
    "_class": "rect",
    "constrainProportions": false,
    "do_objectID": "5D4E80B7-7334-47C9-AB36-31C5A73EFB05",
    "height": 23.14365925925926,
    "width": 15.51448888888887,
    "x": 0,
    "y": 0
  },
  "isClosed": false,
  "isFixedToViewport": false,
  "isFlippedHorizontal": false,
  "isFlippedVertical": false,
  "isLocked": false,
  "isVisible": true,
  "layerListExpandedType": 0,
  "name": "Path",
  "nameIsFixed": false,
  "pointRadiusBehaviour": 1,
  "points": [
    {
      "_class": "curvePoint",
      "cornerRadius": 0,
      "curveFrom": "{0, 0.86701229102347532}",
      "curveMode": 1,
      "curveTo": "{0, 0.86701229102347532}",
      "hasCurveFrom": false,
      "hasCurveTo": false,
      "point": "{0, 0.86701229102347532}"
    },
    {
      "_class": "curvePoint",
      "cornerRadius": 0,
      "curveFrom": "{0.22792839763642694, 0.7982175103396052}",
      "curveMode": 4,
      "curveTo": "{0.13842544316996871, 0.73268480223684984}",
      "hasCurveFrom": true,
      "hasCurveTo": false,
      "point": "{0.13842544316996871, 0.73268480223684984}"
    },
    {
      "_class": "curvePoint",
      "cornerRadius": 0,
      "curveFrom": "{0.52476538060479649, 0.8310129900390284}",
      "curveMode": 3,
      "curveTo": "{0.33194299617657286, 0.8310129900390284}",
      "hasCurveFrom": true,
      "hasCurveTo": true,
      "point": "{0.45038234271810917, 0.8310129900390284}"
    },
    {
      "_class": "curvePoint",
      "cornerRadius": 0,
      "curveFrom": "{0.69794925269377828, 0.75371352012582282}",
      "curveMode": 2,
      "curveTo": "{0.58915537017726816, 0.81557639657482384}",
      "hasCurveFrom": true,
      "hasCurveTo": true,
      "point": "{0.64355231143552338, 0.78464495835032333}"
    },
    {
      "_class": "curvePoint",
      "cornerRadius": 0,
      "curveFrom": "{0.72523461939520339, 0.61268713228869354}",
      "curveMode": 2,
      "curveTo": "{0.72523461939520339, 0.71328712063843425}",
      "hasCurveFrom": true,
      "hasCurveTo": true,
      "point": "{0.72523461939520339, 0.66342401118424899}"
    },
    {
      "_class": "curvePoint",
      "cornerRadius": 0,
      "curveFrom": "{0.58741744873131752, 0.50882507135783783}",
      "curveMode": 2,
      "curveTo": "{0.69760166840458837, 0.57156171724820881}",
      "hasCurveFrom": true,
      "hasCurveTo": true,
      "point": "{0.64259645464025028, 0.54022251995106896}"
    },
    {
      "_class": "curvePoint",
      "cornerRadius": 0,
      "curveFrom": "{0.35053875564824466, 0.49309722141317647}",
      "curveMode": 2,
      "curveTo": "{0.51720542231491151, 0.49309722141317647}",
      "hasCurveFrom": true,
      "hasCurveTo": true,
      "point": "{0.43178658324643737, 0.49309722141317647}"
    },
    {
      "_class": "curvePoint",
      "cornerRadius": 0,
      "curveFrom": "{0.20455335418839063, 0.53463039552630043}",
      "curveMode": 4,
      "curveTo": "{0.27476538060479661, 0.50690277858682364}",
      "hasCurveFrom": false,
      "hasCurveTo": true,
      "point": "{0.20455335418839063, 0.53463039552630043}"
    },
    {
      "_class": "curvePoint",
      "cornerRadius": 0,
      "curveFrom": "{0.055787278415015601, 0.49863109454185367}",
      "curveMode": 1,
      "curveTo": "{0.055787278415015601, 0.49863109454185367}",
      "hasCurveFrom": false,
      "hasCurveTo": false,
      "point": "{0.055787278415015601, 0.49863109454185367}"
    },
    {
      "_class": "curvePoint",
      "cornerRadius": 0,
      "curveFrom": "{0.12391379909628088, 0}",
      "curveMode": 1,
      "curveTo": "{0.12391379909628088, 0}",
      "hasCurveFrom": false,
      "hasCurveTo": false,
      "point": "{0.12391379909628088, 0}"
    },
    {
      "_class": "curvePoint",
      "cornerRadius": 0,
      "curveFrom": "{0.8966805700382342, 0}",
      "curveMode": 1,
      "curveTo": "{0.8966805700382342, 0}",
      "hasCurveFrom": false,
      "hasCurveTo": false,
      "point": "{0.8966805700382342, 0}"
    },
    {
      "_class": "curvePoint",
      "cornerRadius": 0,
      "curveFrom": "{0.8966805700382342, 0.15372517038504113}",
      "curveMode": 1,
      "curveTo": "{0.8966805700382342, 0.15372517038504113}",
      "hasCurveFrom": false,
      "hasCurveTo": false,
      "point": "{0.8966805700382342, 0.15372517038504113}"
    },
    {
      "_class": "curvePoint",
      "cornerRadius": 0,
      "curveFrom": "{0.35531803962460917, 0.15372517038504113}",
      "curveMode": 1,
      "curveTo": "{0.35531803962460917, 0.15372517038504113}",
      "hasCurveFrom": false,
      "hasCurveTo": false,
      "point": "{0.35531803962460917, 0.15372517038504113}"
    },
    {
      "_class": "curvePoint",
      "cornerRadius": 0,
      "curveFrom": "{0.33263816475495306, 0.31578027611114351}",
      "curveMode": 1,
      "curveTo": "{0.33263816475495306, 0.31578027611114351}",
      "hasCurveFrom": false,
      "hasCurveTo": false,
      "point": "{0.33263816475495306, 0.31578027611114351}"
    },
    {
      "_class": "curvePoint",
      "cornerRadius": 0,
      "curveFrom": "{0.32229753215154672, 0.36150754354284387}",
      "curveMode": 1,
      "curveTo": "{0.32229753215154672, 0.36150754354284387}",
      "hasCurveFrom": false,
      "hasCurveTo": false,
      "point": "{0.32229753215154672, 0.36150754354284387}"
    },
    {
      "_class": "curvePoint",
      "cornerRadius": 0,
      "curveFrom": "{0.36774417796315606, 0.34671171433564402}",
      "curveMode": 4,
      "curveTo": "{0.32638164754953081, 0.36150754354284387}",
      "hasCurveFrom": true,
      "hasCurveTo": false,
      "point": "{0.32638164754953081, 0.36150754354284387}"
    },
    {
      "_class": "curvePoint",
      "cornerRadius": 0,
      "curveFrom": "{0.6405109489051094, 0.33931379973204406}",
      "curveMode": 3,
      "curveTo": "{0.42005561348627041, 0.33931379973204406}",
      "hasCurveFrom": true,
      "hasCurveTo": true,
      "point": "{0.4834028501911713, 0.33931379973204406}"
    },
    {
      "_class": "curvePoint",
      "cornerRadius": 0,
      "curveFrom": "{0.95316301703163009, 0.49402924215063793}",
      "curveMode": 2,
      "curveTo": "{0.76581508515815078, 0.3703034892526359}",
      "hasCurveFrom": true,
      "hasCurveTo": true,
      "point": "{0.85948905109489071, 0.43210811440554564}"
    },
    {
      "_class": "curvePoint",
      "cornerRadius": 0,
      "curveFrom": "{1, 0.75901438807013455}",
      "curveMode": 2,
      "curveTo": "{1, 0.57062969651074746}",
      "hasCurveFrom": true,
      "hasCurveTo": true,
      "point": "{1, 0.6620259800780568}"
    },
    {
      "_class": "curvePoint",
      "cornerRadius": 0,
      "curveFrom": "{0.74860966284323938, 0.96790353585367284}",
      "curveMode": 2,
      "curveTo": "{0.94968717413972881, 0.83951767926836385}",
      "hasCurveFrom": true,
      "hasCurveTo": true,
      "point": "{0.84914841849148448, 0.90376885885710967}"
    },
    {
      "_class": "curvePoint",
      "cornerRadius": 0,
      "curveFrom": "{0.38147375738616623, 1}",
      "curveMode": 3,
      "curveTo": "{0.62261035801181785, 1}",
      "hasCurveFrom": true,
      "hasCurveTo": true,
      "point": "{0.4710636079249218, 1}"
    },
    {
      "_class": "curvePoint",
      "cornerRadius": 0,
      "curveFrom": "{0.13017031630170312, 0.94227296557348406}",
      "curveMode": 2,
      "curveTo": "{0.29544664581160951, 0.98846624337391509}",
      "hasCurveFrom": true,
      "hasCurveTo": true,
      "point": "{0.2128084810566564, 0.96534047882565399}"
    },
    {
      "_class": "curvePoint",
      "cornerRadius": 0,
      "curveFrom": "{0, 0.86701229102347532}",
      "curveMode": 4,
      "curveTo": "{0.059176225234619483, 0.90947748587406074}",
      "hasCurveFrom": false,
      "hasCurveTo": true,
      "point": "{0, 0.86701229102347532}"
    }
  ],
  "resizingConstraint": 63,
  "resizingType": 0,
  "rotation": 0,
  "shouldBreakMaskChain": false
}