{
  "_class": "symbolMaster",
  "backgroundColor": {
    "_class": "color",
    "alpha": 1,
    "blue": 1,
    "do_objectID": "781BD5B1-64B5-4E88-9904-5251B905FD6C",
    "green": 1,
    "red": 1
  },
  "booleanOperation": 0,
  "changeIdentifier": 10767,
  "do_objectID": "BC59FCF4-B832-4EA4-9A5C-9608C7C7AF58",
  "exportOptions": {
    "_class": "exportOptions",
    "do_objectID": "EF787F39-D189-4B07-9FB6-BDED625BE107",
    "exportFormats": [
    ],
    "includedLayerIds": [
    ],
    "layerOptions": 0,
    "shouldTrim": false
  },
  "frame": {
    "_class": "rect",
    "constrainProportions": false,
    "do_objectID": "E4532544-4F3D-45FE-A49C-58F0915CE276",
    "height": 194,
    "width": 276,
    "x": 94,
    "y": 2028
  },
  "hasBackgroundColor": false,
  "hasClickThrough": true,
  "horizontalRulerData": {
    "_class": "rulerData",
    "base": 0,
    "do_objectID": "6DE3FED5-93B5-4FFE-A156-C109C7C15090",
    "guides": [
    ]
  },
  "includeBackgroundColorInExport": true,
  "includeBackgroundColorInInstance": false,
  "includeInCloudUpload": true,
  "isFixedToViewport": false,
  "isFlippedHorizontal": false,
  "isFlippedVertical": false,
  "isFlowHome": false,
  "isLocked": false,
  "isVisible": true,
  "layerListExpandedType": 2,
  "layers": [
    {
      "class": "group",
      "id": "E888AEF0-E1C0-41E4-B772-3A0B1E0F8037"
    }
  ],
  "name": "25h8/chat/chat-layout/chat-layout-component/chat-card-item-v1-test-test copy 2",
  "nameIsFixed": true,
  "resizesContent": false,
  "resizingConstraint": 63,
  "resizingType": 0,
  "rotation": 0,
  "shouldBreakMaskChain": true,
  "style": {
    "_class": "style",
    "do_objectID": "E6BF9098-643B-490A-AFFD-0CE7D5BBE588",
    "endMarkerType": 0,
    "miterLimit": 10,
    "startMarkerType": 0,
    "windingRule": 1
  },
  "symbolID": "331D9A94-DA7B-49E5-943F-F17D01C79BE8",
  "verticalRulerData": {
    "_class": "rulerData",
    "base": 0,
    "do_objectID": "97343800-FED2-44A0-90D5-9F340205179C",
    "guides": [
    ]
  }
}