{
  "_class": "symbolInstance",
  "booleanOperation": 0,
  "do_objectID": "021E8E15-C91A-40CA-AC71-F0BB3184E130",
  "exportOptions": {
    "_class": "exportOptions",
    "do_objectID": "BC9A598F-263D-4964-B741-825779D169A4",
    "exportFormats": [
    ],
    "includedLayerIds": [
    ],
    "layerOptions": 0,
    "shouldTrim": false
  },
  "frame": {
    "_class": "rect",
    "constrainProportions": false,
    "do_objectID": "7A5DBBFA-1FEA-483C-BCFF-55A77B01548B",
    "height": 36,
    "width": 56,
    "x": 1129,
    "y": 14
  },
  "horizontalSpacing": 0,
  "isFixedToViewport": false,
  "isFlippedHorizontal": false,
  "isFlippedVertical": false,
  "isLocked": false,
  "isVisible": true,
  "layerListExpandedType": 0,
  "name": "mat-basic-button",
  "nameIsFixed": false,
  "overrideValues": [
  ],
  "resizingConstraint": 63,
  "resizingType": 0,
  "rotation": 0,
  "scale": 1,
  "shouldBreakMaskChain": false,
  "style": {
    "_class": "style",
    "do_objectID": "2B400D79-5758-4038-B14E-6C65D4B5C646",
    "endMarkerType": 0,
    "miterLimit": 10,
    "startMarkerType": 0,
    "windingRule": 1
  },
  "symbolID": "206373D6-BBFA-490B-BA84-27C558D3A0F1",
  "verticalSpacing": 0
}