{
  "_class": "symbolInstance",
  "booleanOperation": 0,
  "do_objectID": "3BC8A52A-293F-4022-9F49-2D7FFAC2D2A1",
  "exportOptions": {
    "_class": "exportOptions",
    "do_objectID": "33EA37D5-8BFD-4B7F-828B-DD3C61403485",
    "exportFormats": [
    ],
    "includedLayerIds": [
    ],
    "layerOptions": 0,
    "shouldTrim": false
  },
  "frame": {
    "_class": "rect",
    "constrainProportions": false,
    "do_objectID": "AD56F62C-5987-4B8F-A8D0-AE2DB33CF419",
    "height": 40,
    "width": 72,
    "x": 853,
    "y": 12
  },
  "horizontalSpacing": 0,
  "isFixedToViewport": false,
  "isFlippedHorizontal": false,
  "isFlippedVertical": false,
  "isLocked": false,
  "isVisible": true,
  "layerListExpandedType": 0,
  "name": "mat-menu",
  "nameIsFixed": false,
  "overrideValues": [
  ],
  "resizingConstraint": 63,
  "resizingType": 0,
  "rotation": 0,
  "scale": 1,
  "shouldBreakMaskChain": false,
  "style": {
    "_class": "style",
    "do_objectID": "F55F4F71-487E-4643-829A-C2A31C9507DC",
    "endMarkerType": 0,
    "miterLimit": 10,
    "startMarkerType": 0,
    "windingRule": 1
  },
  "symbolID": "7334CA78-065E-49CD-9342-BAE3C93FF5D2",
  "verticalSpacing": 0
}