{
  "_class": "symbolInstance",
  "booleanOperation": 0,
  "do_objectID": "A9ACED6B-DF24-4FC2-9A6A-1B3E5CFD8CCA",
  "exportOptions": {
    "_class": "exportOptions",
    "do_objectID": "37DB351F-04C8-4FAA-8FAB-CFFBCE3342BE",
    "exportFormats": [
    ],
    "includedLayerIds": [
    ],
    "layerOptions": 0,
    "shouldTrim": false
  },
  "frame": {
    "_class": "rect",
    "constrainProportions": false,
    "do_objectID": "068A2867-A5AD-42DE-86E0-68D2B8D80C21",
    "height": 194,
    "width": 360,
    "x": 16,
    "y": 588
  },
  "horizontalSpacing": 0,
  "isFixedToViewport": false,
  "isFlippedHorizontal": false,
  "isFlippedVertical": false,
  "isLocked": false,
  "isVisible": true,
  "layerListExpandedType": 0,
  "name": "25h8/chat/chat-layout/chat-layout-component/chat-card-item-v1-test-test copy 3",
  "nameIsFixed": false,
  "overrideValues": [
  ],
  "resizingConstraint": 63,
  "resizingType": 0,
  "rotation": 0,
  "scale": 1,
  "shouldBreakMaskChain": false,
  "style": {
    "_class": "style",
    "do_objectID": "EC2C4877-98D6-4F06-919B-A927A259202A",
    "endMarkerType": 0,
    "miterLimit": 10,
    "startMarkerType": 0,
    "windingRule": 1
  },
  "symbolID": "331D9A94-DA7B-49E5-943F-F17D01C79BE8",
  "verticalSpacing": 0
}