{
  "_class": "shapeGroup",
  "booleanOperation": 0,
  "clippingMaskMode": 0,
  "do_objectID": "47BAD005-496B-4FB6-AF27-9231C087876D",
  "exportOptions": {
    "_class": "exportOptions",
    "do_objectID": "F44A418B-1575-4882-9D74-6905C9740EC1",
    "exportFormats": [
    ],
    "includedLayerIds": [
    ],
    "layerOptions": 0,
    "shouldTrim": false
  },
  "frame": {
    "_class": "rect",
    "constrainProportions": false,
    "do_objectID": "0FC72825-48CF-4075-86A7-B06B8D619AAE",
    "height": 248,
    "width": 248,
    "x": 1055,
    "y": 1962
  },
  "hasClickThrough": false,
  "hasClippingMask": false,
  "isFixedToViewport": false,
  "isFlippedHorizontal": false,
  "isFlippedVertical": false,
  "isLocked": false,
  "isVisible": true,
  "layerListExpandedType": 0,
  "layers": [
    {
      "class": "rectangle",
      "id": "6D86CFB7-B19B-4266-9C76-5128A68C4022"
    }
  ],
  "name": "bg 8dp",
  "nameIsFixed": true,
  "resizingConstraint": 63,
  "resizingType": 0,
  "rotation": 0,
  "shouldBreakMaskChain": false,
  "style": {
    "_class": "style",
    "do_objectID": "63D26402-3880-460B-A3A6-2C9B34D44527",
    "endMarkerType": 0,
    "fills": [
      {
        "_class": "fill",
        "color": {
          "_class": "color",
          "alpha": 0.12,
          "blue": 0,
          "green": 0,
          "red": 0
        },
        "fillType": 0,
        "isEnabled": true,
        "noiseIndex": 0,
        "noiseIntensity": 0,
        "patternFillType": 1,
        "patternTileScale": 1
      }
    ],
    "miterLimit": 10,
    "sharedObjectID": "11474FBB-7E09-4137-9228-3881284F46DE",
    "startMarkerType": 0,
    "windingRule": 0
  },
  "windingRule": 0
}