{
  "_class": "group",
  "booleanOperation": 0,
  "do_objectID": "4E15E5D2-B15C-491B-AD19-5FF569464398",
  "exportOptions": {
    "_class": "exportOptions",
    "do_objectID": "393CCB87-B01F-4D9E-9F0F-1ACD7E8ECE72",
    "exportFormats": [
    ],
    "includedLayerIds": [
    ],
    "layerOptions": 0,
    "shouldTrim": false
  },
  "frame": {
    "_class": "rect",
    "constrainProportions": false,
    "do_objectID": "CB1E8925-75C5-40AA-8E1B-525776B1B3E1",
    "height": 400,
    "width": 769,
    "x": 0,
    "y": 560
  },
  "hasClickThrough": false,
  "isFixedToViewport": false,
  "isFlippedHorizontal": false,
  "isFlippedVertical": false,
  "isLocked": false,
  "isVisible": true,
  "layerListExpandedType": 2,
  "layers": [
    {
      "class": "shapeGroup",
      "id": "49B998C8-57B3-4858-AFD7-9A7C1C40989B"
    },
    {
      "class": "group",
      "id": "07C32B42-AD10-4E32-9AD7-89E0E7F2CB4E"
    }
  ],
  "name": "25h8/chat/chat-layout/mat-expansion-panel-body copy",
  "nameIsFixed": false,
  "resizingConstraint": 63,
  "resizingType": 0,
  "rotation": 0,
  "shouldBreakMaskChain": false,
  "style": {
    "_class": "style",
    "do_objectID": "70201439-1D56-4D3B-9303-6E5E0DF29126",
    "endMarkerType": 0,
    "miterLimit": 10,
    "startMarkerType": 0,
    "windingRule": 1
  }
}