{
  "_class": "symbolInstance",
  "booleanOperation": 0,
  "do_objectID": "FDFB2E55-FDCD-425D-9691-F7D5F763FE70",
  "exportOptions": {
    "_class": "exportOptions",
    "do_objectID": "A6925918-6F51-4A96-8AD9-10246DC1654E",
    "exportFormats": [
    ],
    "includedLayerIds": [
    ],
    "layerOptions": 0,
    "shouldTrim": false
  },
  "frame": {
    "_class": "rect",
    "constrainProportions": false,
    "do_objectID": "98498B96-A9BA-4498-9BDB-735CD663D455",
    "height": 20,
    "width": 37,
    "x": 267,
    "y": 18
  },
  "horizontalSpacing": 0,
  "isFixedToViewport": false,
  "isFlippedHorizontal": false,
  "isFlippedVertical": false,
  "isLocked": false,
  "isVisible": true,
  "layerListExpandedType": 0,
  "name": "Switch on cyan 500",
  "nameIsFixed": false,
  "overrideValues": [
  ],
  "resizingConstraint": 63,
  "resizingType": 0,
  "rotation": 0,
  "scale": 1,
  "shouldBreakMaskChain": false,
  "style": {
    "_class": "style",
    "do_objectID": "1CD013BF-1F3E-4E0F-BF6D-8D6094E58B4F",
    "endMarkerType": 0,
    "miterLimit": 10,
    "startMarkerType": 0,
    "windingRule": 1
  },
  "symbolID": "BD6800A6-1AAE-4C9C-BE59-BCCED97539FF",
  "userInfo": {
    "com.animaapp.stc-sketch-plugin": {
      "kModelPropertiesKey": {
      }
    }
  },
  "verticalSpacing": 0
}