{
  "_class": "group",
  "booleanOperation": 0,
  "do_objectID": "32D35C3D-2562-43D6-A34B-212ADD90CCF1",
  "exportOptions": {
    "_class": "exportOptions",
    "do_objectID": "D119300E-D2D7-43FD-A0A1-0D5A0FB8FDB1",
    "exportFormats": [
    ],
    "includedLayerIds": [
    ],
    "layerOptions": 0,
    "shouldTrim": false
  },
  "frame": {
    "_class": "rect",
    "constrainProportions": false,
    "do_objectID": "ABCF0AC5-BAF0-4797-86FA-13D837E2D71A",
    "height": 24,
    "width": 24,
    "x": 176,
    "y": 16
  },
  "hasClickThrough": false,
  "isFixedToViewport": false,
  "isFlippedHorizontal": false,
  "isFlippedVertical": false,
  "isLocked": false,
  "isVisible": true,
  "layerListExpandedType": 1,
  "layers": [
    {
      "class": "shapeGroup",
      "id": "DF1C4798-949D-49FD-B68B-FB76D85050F5"
    },
    {
      "class": "shapeGroup",
      "id": "52FC71C3-80EC-42F6-95B7-66F7E75AFBD1"
    },
    {
      "class": "shapeGroup",
      "id": "EE0FF70C-BBBB-46CA-A332-2881732E3BE1"
    },
    {
      "class": "shapeGroup",
      "id": "0DB70CD2-27D5-438E-A6FC-1ABADE915412"
    },
    {
      "class": "shapeGroup",
      "id": "227ACB5F-F01A-4061-B50E-5B24C71ACBC4"
    }
  ],
  "name": "baseline-sentiment_satisfied_alt-24px copy 4",
  "nameIsFixed": false,
  "resizingConstraint": 63,
  "resizingType": 0,
  "rotation": 0,
  "shouldBreakMaskChain": false,
  "style": {
    "_class": "style",
    "do_objectID": "F1321E41-97BC-4C14-AC60-3D83891EA30C",
    "endMarkerType": 0,
    "miterLimit": 10,
    "startMarkerType": 0,
    "windingRule": 1
  }
}