{
  "_class": "symbolInstance",
  "booleanOperation": -1,
  "do_objectID": "77DA20AA-1B16-474B-ACB2-C188AB542243",
  "exportOptions": {
    "_class": "exportOptions",
    "do_objectID": "631415E6-A068-41B5-9C86-09C550A71DF5",
    "exportFormats": [
    ],
    "includedLayerIds": [
    ],
    "layerOptions": 0,
    "shouldTrim": false
  },
  "frame": {
    "_class": "rect",
    "constrainProportions": false,
    "do_objectID": "8472A4BC-4043-4095-BAA0-D923BE069D70",
    "height": 80,
    "width": 320,
    "x": 832,
    "y": 1480
  },
  "horizontalSpacing": 0,
  "isFixedToViewport": false,
  "isFlippedHorizontal": false,
  "isFlippedVertical": false,
  "isLocked": false,
  "isVisible": true,
  "layerListExpandedType": 0,
  "name": "25h8/Chat/Chat List/Focused/Long Title/chat-list-item notification-bubble+state-icon",
  "nameIsFixed": false,
  "overrideValues": [
  ],
  "resizingConstraint": 63,
  "resizingType": 0,
  "rotation": 0,
  "scale": 1,
  "shouldBreakMaskChain": false,
  "style": {
    "_class": "style",
    "do_objectID": "739C55ED-2B0C-4D2C-8F11-3C1CD738B113",
    "endMarkerType": 0,
    "miterLimit": 10,
    "startMarkerType": 0,
    "windingRule": 1
  },
  "symbolID": "BF3052A9-71D1-4496-9B8D-5EBD4D976EA3",
  "verticalSpacing": 0
}