{
  "_class": "symbolInstance",
  "booleanOperation": -1,
  "do_objectID": "988EBFDD-0F00-4FC1-B2DA-EE668BC095DF",
  "exportOptions": {
    "_class": "exportOptions",
    "do_objectID": "626DABED-4D09-44AC-BD6F-CFDDF6D1965D",
    "exportFormats": [
    ],
    "includedLayerIds": [
    ],
    "layerOptions": 0,
    "shouldTrim": false
  },
  "frame": {
    "_class": "rect",
    "constrainProportions": false,
    "do_objectID": "B2C934ED-BC81-4A77-8E8E-E5BD2AF5FE8E",
    "height": 80,
    "width": 320,
    "x": 288,
    "y": 928
  },
  "horizontalSpacing": 0,
  "isFixedToViewport": false,
  "isFlippedHorizontal": false,
  "isFlippedVertical": false,
  "isLocked": false,
  "isVisible": true,
  "layerListExpandedType": 0,
  "name": "25h8/Chat/Chat List/Inactive/Short Title/chat-list-item+entity+notification-bubble+state-icon",
  "nameIsFixed": false,
  "overrideValues": [
  ],
  "resizingConstraint": 63,
  "resizingType": 0,
  "rotation": 0,
  "scale": 1,
  "shouldBreakMaskChain": false,
  "style": {
    "_class": "style",
    "do_objectID": "C1862CF6-1612-4FD0-8789-F9A5B83462A4",
    "endMarkerType": 0,
    "miterLimit": 10,
    "startMarkerType": 0,
    "windingRule": 1
  },
  "symbolID": "6477FA6E-5EC9-4907-A343-E842150EBA09",
  "verticalSpacing": 0
}