{
  "_class": "shapePath",
  "booleanOperation": -1,
  "do_objectID": "3B7A520F-ECDA-4765-83A5-7D75B7226C72",
  "edited": true,
  "exportOptions": {
    "_class": "exportOptions",
    "do_objectID": "13C4AC81-13CF-4358-B7FD-9995280513E6",
    "exportFormats": [
    ],
    "includedLayerIds": [
    ],
    "layerOptions": 0,
    "shouldTrim": false
  },
  "frame": {
    "_class": "rect",
    "constrainProportions": false,
    "do_objectID": "95D571DE-7B32-4437-AEE8-4D5FD210CEA2",
    "height": 16.126,
    "width": 18.344,
    "x": 0,
    "y": 0
  },
  "isClosed": true,
  "isFixedToViewport": false,
  "isFlippedHorizontal": false,
  "isFlippedVertical": false,
  "isLocked": false,
  "isVisible": true,
  "layerListExpandedType": 0,
  "name": "Path",
  "nameIsFixed": false,
  "pointRadiusBehaviour": 1,
  "points": [
    {
      "_class": "curvePoint",
      "cornerRadius": 0,
      "curveFrom": "{0.8716092455298734, 1}",
      "curveMode": 1,
      "curveTo": "{0.8716092455298734, 1}",
      "hasCurveFrom": false,
      "hasCurveTo": false,
      "point": "{0.8716092455298734, 1}"
    },
    {
      "_class": "curvePoint",
      "cornerRadius": 0,
      "curveFrom": "{1, 1}",
      "curveMode": 1,
      "curveTo": "{1, 1}",
      "hasCurveFrom": false,
      "hasCurveTo": false,
      "point": "{1, 1}"
    },
    {
      "_class": "curvePoint",
      "cornerRadius": 0,
      "curveFrom": "{0.12847797645006545, 0}",
      "curveMode": 1,
      "curveTo": "{0.12847797645006545, 0}",
      "hasCurveFrom": false,
      "hasCurveTo": false,
      "point": "{0.12847797645006545, 0}"
    },
    {
      "_class": "curvePoint",
      "cornerRadius": 0,
      "curveFrom": "{0, 0}",
      "curveMode": 1,
      "curveTo": "{0, 0}",
      "hasCurveFrom": false,
      "hasCurveTo": false,
      "point": "{0, 0}"
    }
  ],
  "resizingConstraint": 63,
  "resizingType": 0,
  "rotation": 0,
  "shouldBreakMaskChain": false
}