{
  "_class": "shapePath",
  "booleanOperation": 0,
  "do_objectID": "FFD688DF-FA2F-48B1-85B6-845776144C64",
  "edited": true,
  "exportOptions": {
    "_class": "exportOptions",
    "exportFormats": [
    ],
    "includedLayerIds": [
    ],
    "layerOptions": 0,
    "shouldTrim": false
  },
  "frame": {
    "_class": "rect",
    "constrainProportions": false,
    "height": 13,
    "width": 18,
    "x": 2,
    "y": 1
  },
  "isClosed": true,
  "isFixedToViewport": false,
  "isFlippedHorizontal": false,
  "isFlippedVertical": false,
  "isLocked": false,
  "isVisible": true,
  "layerListExpandedType": 0,
  "name": "Fill 8",
  "nameIsFixed": false,
  "pointRadiusBehaviour": 0,
  "points": [
    {
      "_class": "curvePoint",
      "cornerRadius": 0,
      "curveFrom": "{1, 0.008728444646768722}",
      "curveMode": 4,
      "curveTo": "{0.88257912365331193, -0.030744795579103673}",
      "hasCurveFrom": true,
      "hasCurveTo": true,
      "point": "{1, 0.008728444646768722}"
    },
    {
      "_class": "curvePoint",
      "cornerRadius": 0,
      "curveFrom": "{0.81217528279095885, 0.20650253592513071}",
      "curveMode": 2,
      "curveTo": "{0.90607411779946279, 0.17252923383739663}",
      "hasCurveFrom": true,
      "hasCurveTo": true,
      "point": "{0.85919231827529374, 0.18948956938778036}"
    },
    {
      "_class": "curvePoint",
      "cornerRadius": 0,
      "curveFrom": "{0.69483554802037018, 0.30811981401326838}",
      "curveMode": 2,
      "curveTo": "{0.7339277562389851, 0.26288348071441875}",
      "hasCurveFrom": true,
      "hasCurveTo": true,
      "point": "{0.71438165212967764, 0.28555427835081165}"
    },
    {
      "_class": "curvePoint",
      "cornerRadius": 0,
      "curveFrom": "{0.70660107655480109, 0.17818706493643843}",
      "curveMode": 2,
      "curveTo": "{0.62827240842672794, 0.26859394280042864}",
      "hasCurveFrom": true,
      "hasCurveTo": true,
      "point": "{0.66743674249076457, 0.22341024048854635}"
    },
    {
      "_class": "curvePoint",
      "cornerRadius": 0,
      "curveFrom": "{0.76526643607475653, 0.053951620198875935}",
      "curveMode": 2,
      "curveTo": "{0.81217528279095885, 0.076464524874365322}",
      "hasCurveFrom": true,
      "hasCurveTo": true,
      "point": "{0.78872536729819653, 0.065214651409991456}"
    },
    {
      "_class": "curvePoint",
      "cornerRadius": 0,
      "curveFrom": "{0.5734747973675165, 0.25158097626307757}",
      "curveMode": 2,
      "curveTo": "{0.65958404107046609, 0.16122672938605542}",
      "hasCurveFrom": true,
      "hasCurveTo": true,
      "point": "{0.61654294281500777, 0.20644990493816337}"
    },
    {
      "_class": "curvePoint",
      "cornerRadius": 0,
      "curveFrom": "{0.49909501927628663, 0.4097765653416317}",
      "curveMode": 2,
      "curveTo": "{0.53822329041761241, 0.31926442550370682}",
      "hasCurveFrom": true,
      "hasCurveTo": true,
      "point": "{0.51878537507643763, 0.36460602077649185}"
    },
    {
      "_class": "curvePoint",
      "cornerRadius": 0,
      "curveFrom": "{0.41693466561018033, 0.5736299855192285}",
      "curveMode": 2,
      "curveTo": "{0.50307095650516331, 0.52845944095408859}",
      "hasCurveFrom": true,
      "hasCurveTo": true,
      "point": "{0.46003887398038273, 0.55102497661654526}"
    },
    {
      "_class": "curvePoint",
      "cornerRadius": 0,
      "curveFrom": "{0.10395357513296312, 0.84470588389703594}",
      "curveMode": 2,
      "curveTo": "{0.2291189641318169, 0.68649713707173921}",
      "hasCurveFrom": true,
      "hasCurveTo": true,
      "point": "{0.16656782468976208, 0.76565414147135558}"
    },
    {
      "_class": "curvePoint",
      "cornerRadius": 0,
      "curveFrom": "{-0.018326780049018589, 1.0612429220294302}",
      "curveMode": 2,
      "curveTo": "{0.036542956855614719, 0.90308680619110138}",
      "hasCurveFrom": true,
      "hasCurveTo": true,
      "point": "{0.009035962557876278, 0.98219117960374969}"
    },
    {
      "_class": "curvePoint",
      "cornerRadius": 0,
      "curveFrom": "{0.047109393209908187, 0.78015397838099243}",
      "curveMode": 4,
      "curveTo": "{0.022920187801572428, 0.85595575736140983}",
      "hasCurveFrom": true,
      "hasCurveTo": true,
      "point": "{0.047109393209908187, 0.78015397838099243}"
    },
    {
      "_class": "curvePoint",
      "cornerRadius": 0,
      "curveFrom": "{0.59309302732224556, 0.076464524874365322}",
      "curveMode": 4,
      "curveTo": "{0.21347667140596435, 0.34763252747936646}",
      "hasCurveFrom": true,
      "hasCurveTo": true,
      "point": "{0.59309302732224556, 0.076464524874365322}"
    }
  ],
  "resizingConstraint": 63,
  "resizingType": 0,
  "rotation": 0,
  "shouldBreakMaskChain": false
}