{
  "_class": "shapePath",
  "booleanOperation": 0,
  "do_objectID": "E886D4E7-BC8E-49D8-A431-B4C29329624B",
  "edited": true,
  "exportOptions": {
    "_class": "exportOptions",
    "exportFormats": [
    ],
    "includedLayerIds": [
    ],
    "layerOptions": 0,
    "shouldTrim": false
  },
  "frame": {
    "_class": "rect",
    "constrainProportions": false,
    "height": 18.09310900375191,
    "width": 17.47324961614082,
    "x": 2.52675038385928,
    "y": 0
  },
  "isClosed": true,
  "isFixedToViewport": false,
  "isFlippedHorizontal": false,
  "isFlippedVertical": false,
  "isLocked": false,
  "isVisible": true,
  "layerListExpandedType": 0,
  "name": "Shape",
  "nameIsFixed": false,
  "pointRadiusBehaviour": 0,
  "points": [
    {
      "_class": "curvePoint",
      "cornerRadius": 0,
      "curveFrom": "{1, 0.90056920446364297}",
      "curveMode": 1,
      "curveTo": "{1, 0.90056920446364297}",
      "hasCurveFrom": false,
      "hasCurveTo": false,
      "point": "{1, 0.90056920446364297}"
    },
    {
      "_class": "curvePoint",
      "cornerRadius": 0,
      "curveFrom": "{0.56670637030130222, 0.46348260889128867}",
      "curveMode": 1,
      "curveTo": "{0.56670637030130222, 0.46348260889128867}",
      "hasCurveFrom": false,
      "hasCurveTo": false,
      "point": "{0.56670637030130222, 0.46348260889128867}"
    },
    {
      "_class": "curvePoint",
      "cornerRadius": 0,
      "curveFrom": "{0.68343789887228412, 0.34800215982721378}",
      "curveMode": 1,
      "curveTo": "{0.68343789887228412, 0.34800215982721378}",
      "hasCurveFrom": false,
      "hasCurveTo": false,
      "point": "{0.68343789887228412, 0.34800215982721378}"
    },
    {
      "_class": "curvePoint",
      "cornerRadius": 0,
      "curveFrom": "{0.7236399609975751, 0.38777335313174943}",
      "curveMode": 1,
      "curveTo": "{0.7236399609975751, 0.38777335313174943}",
      "hasCurveFrom": false,
      "hasCurveTo": false,
      "point": "{0.7236399609975751, 0.38777335313174943}"
    },
    {
      "_class": "curvePoint",
      "cornerRadius": 0,
      "curveFrom": "{0.81409602215064825, 0.29828676205903526}",
      "curveMode": 1,
      "curveTo": "{0.81409602215064825, 0.29828676205903526}",
      "hasCurveFrom": false,
      "hasCurveTo": false,
      "point": "{0.81409602215064825, 0.29828676205903526}"
    },
    {
      "_class": "curvePoint",
      "cornerRadius": 0,
      "curveFrom": "{0.5125777134686289, 0}",
      "curveMode": 1,
      "curveTo": "{0.5125777134686289, 0}",
      "hasCurveFrom": false,
      "hasCurveTo": false,
      "point": "{0.5125777134686289, 0}"
    },
    {
      "_class": "curvePoint",
      "cornerRadius": 0,
      "curveFrom": "{0.42212449505789251, 0.089483778797696187}",
      "curveMode": 1,
      "curveTo": "{0.42212449505789251, 0.089483778797696187}",
      "hasCurveFrom": false,
      "hasCurveTo": false,
      "point": "{0.42212449505789251, 0.089483778797696187}"
    },
    {
      "_class": "curvePoint",
      "cornerRadius": 0,
      "curveFrom": "{0.46232655718318355, 0.12925497210223183}",
      "curveMode": 1,
      "curveTo": "{0.46232655718318355, 0.12925497210223183}",
      "hasCurveFrom": false,
      "hasCurveTo": false,
      "point": "{0.46232655718318355, 0.12925497210223183}"
    },
    {
      "_class": "curvePoint",
      "cornerRadius": 0,
      "curveFrom": "{0.13065528053602751, 0.45737153527717778}",
      "curveMode": 1,
      "curveTo": "{0.13065528053602751, 0.45737153527717778}",
      "hasCurveFrom": false,
      "hasCurveTo": false,
      "point": "{0.13065528053602751, 0.45737153527717778}"
    },
    {
      "_class": "curvePoint",
      "cornerRadius": 0,
      "curveFrom": "{0.090453218410736488, 0.41760034197264218}",
      "curveMode": 1,
      "curveTo": "{0.090453218410736488, 0.41760034197264218}",
      "hasCurveFrom": false,
      "hasCurveTo": false,
      "point": "{0.090453218410736488, 0.41760034197264218}"
    },
    {
      "_class": "curvePoint",
      "cornerRadius": 0,
      "curveFrom": "{0, 0.50708693304535635}",
      "curveMode": 1,
      "curveTo": "{0, 0.50708693304535635}",
      "hasCurveFrom": false,
      "hasCurveTo": false,
      "point": "{0, 0.50708693304535635}"
    },
    {
      "_class": "curvePoint",
      "cornerRadius": 0,
      "curveFrom": "{0.30151546593968276, 0.80537369510439161}",
      "curveMode": 1,
      "curveTo": "{0.30151546593968276, 0.80537369510439161}",
      "hasCurveFrom": false,
      "hasCurveTo": false,
      "point": "{0.30151546593968276, 0.80537369510439161}"
    },
    {
      "_class": "curvePoint",
      "cornerRadius": 0,
      "curveFrom": "{0.39197152709275584, 0.71588710403167743}",
      "curveMode": 1,
      "curveTo": "{0.39197152709275584, 0.71588710403167743}",
      "hasCurveFrom": false,
      "hasCurveTo": false,
      "point": "{0.39197152709275584, 0.71588710403167743}"
    },
    {
      "_class": "curvePoint",
      "cornerRadius": 0,
      "curveFrom": "{0.35176946496746486, 0.67611591072714183}",
      "curveMode": 1,
      "curveTo": "{0.35176946496746486, 0.67611591072714183}",
      "hasCurveFrom": false,
      "hasCurveTo": false,
      "point": "{0.35176946496746486, 0.67611591072714183}"
    },
    {
      "_class": "curvePoint",
      "cornerRadius": 0,
      "curveFrom": "{0.46620121498807476, 0.56291059215262784}",
      "curveMode": 1,
      "curveTo": "{0.46620121498807476, 0.56291059215262784}",
      "hasCurveFrom": false,
      "hasCurveTo": false,
      "point": "{0.46620121498807476, 0.56291059215262784}"
    },
    {
      "_class": "curvePoint",
      "cornerRadius": 0,
      "curveFrom": "{0.89949484468677254, 1}",
      "curveMode": 1,
      "curveTo": "{0.89949484468677254, 1}",
      "hasCurveFrom": false,
      "hasCurveTo": false,
      "point": "{0.89949484468677254, 1}"
    },
    {
      "_class": "curvePoint",
      "cornerRadius": 0,
      "curveFrom": "{1, 0.90056920446364297}",
      "curveMode": 1,
      "curveTo": "{1, 0.90056920446364297}",
      "hasCurveFrom": false,
      "hasCurveTo": false,
      "point": "{1, 0.90056920446364297}"
    }
  ],
  "resizingConstraint": 63,
  "resizingType": 0,
  "rotation": 0,
  "shouldBreakMaskChain": false
}