{
  "_class": "group",
  "booleanOperation": 0,
  "do_objectID": "6D6401B2-596D-4FB8-8FC0-14C8DAB1B8FF",
  "exportOptions": {
    "_class": "exportOptions",
    "do_objectID": "A4084315-6EA4-4446-BCE3-3B30BAFDBB6D",
    "exportFormats": [
      {
        "_class": "exportFormat",
        "absoluteSize": 0,
        "fileFormat": "png",
        "name": "",
        "namingScheme": 0,
        "scale": 1,
        "visibleScaleType": 0
      },
      {
        "_class": "exportFormat",
        "absoluteSize": 0,
        "fileFormat": "png",
        "name": "@2x",
        "namingScheme": 0,
        "scale": 2,
        "visibleScaleType": 0
      },
      {
        "_class": "exportFormat",
        "absoluteSize": 0,
        "fileFormat": "png",
        "name": "@3x",
        "namingScheme": 0,
        "scale": 3,
        "visibleScaleType": 0
      }
    ],
    "includedLayerIds": [
    ],
    "layerOptions": 0,
    "shouldTrim": false
  },
  "frame": {
    "_class": "rect",
    "constrainProportions": true,
    "do_objectID": "8C24AFA7-33B5-4E3B-B2C0-17B850FB3A0B",
    "height": 48,
    "width": 48,
    "x": 0,
    "y": 0
  },
  "hasClickThrough": false,
  "isFixedToViewport": false,
  "isFlippedHorizontal": false,
  "isFlippedVertical": false,
  "isLocked": false,
  "isVisible": true,
  "layerListExpandedType": 0,
  "layers": [
    {
      "class": "shapeGroup",
      "id": "77749C7E-B60A-4AA6-898D-FD937E0CAFBE"
    },
    {
      "class": "shapeGroup",
      "id": "0AB4EA63-A8CE-485F-BE67-AF4A468CBB28"
    },
    {
      "class": "group",
      "id": "F53FD869-D4E5-42EE-BC52-793059024DC4"
    },
    {
      "class": "group",
      "id": "B9730893-86D3-4E22-8F55-D27521B1B5A7"
    }
  ],
  "name": "25h8/chat/product-icon/chat/chat-default",
  "nameIsFixed": true,
  "resizingConstraint": 63,
  "resizingType": 0,
  "rotation": 0,
  "shouldBreakMaskChain": false,
  "style": {
    "_class": "style",
    "do_objectID": "F4963322-A1E0-4907-A4F9-8763435E3422",
    "endMarkerType": 0,
    "miterLimit": 10,
    "shadows": [
      {
        "_class": "shadow",
        "blurRadius": 4,
        "color": {
          "_class": "color",
          "alpha": 0.24,
          "blue": 0,
          "green": 0,
          "red": 0
        },
        "contextSettings": {
          "_class": "graphicsContextSettings",
          "blendMode": 0,
          "opacity": 1
        },
        "isEnabled": true,
        "offsetX": 0,
        "offsetY": 2,
        "spread": 0
      }
    ],
    "startMarkerType": 0,
    "windingRule": 1
  },
  "userInfo": {
    "com.animaapp.stc-sketch-plugin": {
      "kModelPropertiesKey": {
        "constraints": {
          "aspectRatio": {
            "constant": 41,
            "enabled": 1,
            "modelID": "constraint_0d900831-d838-4c15-bfbe-17d376a30777",
            "model_class": "ADModelConstraint",
            "model_version": 0.1,
            "multiplier": 44
          },
          "automatic": 1,
          "modelID": "viewConstraints_5e687e28-3656-4677-9816-a9f53dbe9cc5",
          "model_class": "ADModelViewConstraints",
          "model_version": 0.1,
          "scaleFactor": 1
        }
      }
    }
  }
}