{
  "_class": "symbolInstance",
  "booleanOperation": 0,
  "do_objectID": "22E3EB58-7C50-4B09-8AD4-B9B97467B66B",
  "exportOptions": {
    "_class": "exportOptions",
    "do_objectID": "5A15D671-BF20-4393-906B-AE2A074E196E",
    "exportFormats": [
    ],
    "includedLayerIds": [
    ],
    "layerOptions": 0,
    "shouldTrim": false
  },
  "frame": {
    "_class": "rect",
    "constrainProportions": false,
    "do_objectID": "BF1F959D-AA5C-4B6E-8BD3-FFEC12E72A6A",
    "height": 282,
    "width": 1209,
    "x": 12,
    "y": 3595
  },
  "horizontalSpacing": 0,
  "isFixedToViewport": false,
  "isFlippedHorizontal": false,
  "isFlippedVertical": false,
  "isLocked": false,
  "isVisible": true,
  "layerListExpandedType": 0,
  "name": "25h8/chat/mat-toolbar/mat-toolbar-chats-active copy 11",
  "nameIsFixed": false,
  "overrideValues": [
  ],
  "resizingConstraint": 63,
  "resizingType": 0,
  "rotation": 0,
  "scale": 1,
  "shouldBreakMaskChain": false,
  "style": {
    "_class": "style",
    "do_objectID": "CFC3C00D-60FE-4AC9-BFCD-F5B03E2FC772",
    "endMarkerType": 0,
    "miterLimit": 10,
    "startMarkerType": 0,
    "windingRule": 1
  },
  "symbolID": "3E3480C4-7AEB-4F48-90B5-80992F9757F1",
  "verticalSpacing": 0
}