{
  "_class": "symbolInstance",
  "booleanOperation": 0,
  "do_objectID": "33BD669D-962B-4600-9612-0783C8BF80D2",
  "exportOptions": {
    "_class": "exportOptions",
    "do_objectID": "D26FF9C6-CE14-4A06-A70C-2C073CBFB555",
    "exportFormats": [
    ],
    "includedLayerIds": [
    ],
    "layerOptions": 0,
    "shouldTrim": false
  },
  "frame": {
    "_class": "rect",
    "constrainProportions": false,
    "do_objectID": "DFC870BD-F378-4127-8C61-A7A923318453",
    "height": 72,
    "width": 72,
    "x": 1498,
    "y": 3823
  },
  "horizontalSpacing": 0,
  "isFixedToViewport": false,
  "isFlippedHorizontal": false,
  "isFlippedVertical": false,
  "isLocked": false,
  "isVisible": true,
  "layerListExpandedType": 0,
  "name": "25h8/chat/product-icon-name/chat/chat-active copy 10",
  "nameIsFixed": false,
  "overrideValues": [
  ],
  "resizingConstraint": 63,
  "resizingType": 0,
  "rotation": 0,
  "scale": 1,
  "shouldBreakMaskChain": false,
  "style": {
    "_class": "style",
    "do_objectID": "0F4293B4-5484-491B-B83A-46AB09E8A976",
    "endMarkerType": 0,
    "miterLimit": 10,
    "startMarkerType": 0,
    "windingRule": 1
  },
  "symbolID": "ED2AB0E6-F73F-4E41-9C2F-ED51DDD3DD21",
  "verticalSpacing": 0
}