{
  "_class": "shapePath",
  "booleanOperation": -1,
  "do_objectID": "3395C448-FBF2-438F-AE02-F2E33413C10B",
  "edited": true,
  "exportOptions": {
    "_class": "exportOptions",
    "exportFormats": [
    ],
    "includedLayerIds": [
    ],
    "layerOptions": 0,
    "shouldTrim": false
  },
  "frame": {
    "_class": "rect",
    "constrainProportions": false,
    "height": 18.27203381434403,
    "width": 18.27215880339143,
    "x": 1.387778780781446e-16,
    "y": -4.484260185400044e-16
  },
  "isClosed": true,
  "isFixedToViewport": false,
  "isFlippedHorizontal": false,
  "isFlippedVertical": false,
  "isLocked": false,
  "isVisible": true,
  "layerListExpandedType": 0,
  "name": "Path",
  "nameIsFixed": false,
  "pointRadiusBehaviour": 1,
  "points": [
    {
      "_class": "curvePoint",
      "cornerRadius": 0,
      "curveFrom": "{0.33700331850398185, 0.39211593707296372}",
      "curveMode": 1,
      "curveTo": "{0.33700331850398185, 0.39211593707296372}",
      "hasCurveFrom": false,
      "hasCurveTo": false,
      "point": "{0.33700331850398185, 0.39211593707296372}"
    },
    {
      "_class": "curvePoint",
      "cornerRadius": 0,
      "curveFrom": "{0.56915979468416134, 0.15995787283657215}",
      "curveMode": 1,
      "curveTo": "{0.56915979468416134, 0.15995787283657215}",
      "hasCurveFrom": false,
      "hasCurveTo": false,
      "point": "{0.56915979468416134, 0.15995787283657215}"
    },
    {
      "_class": "curvePoint",
      "cornerRadius": 0,
      "curveFrom": "{0.65790496916506969, 0.01209536396165886}",
      "curveMode": 4,
      "curveTo": "{0.64922696221164899, 0.026529923612545133}",
      "hasCurveFrom": true,
      "hasCurveTo": false,
      "point": "{0.64922696221164899, 0.026529923612545133}"
    },
    {
      "_class": "curvePoint",
      "cornerRadius": 0,
      "curveFrom": "{0.70617931638228926, -0.0016439808011903378}",
      "curveMode": 2,
      "curveTo": "{0.67274580010521967, 0.0024604175592280544}",
      "hasCurveFrom": true,
      "hasCurveTo": true,
      "point": "{0.68946255824375446, 0.0004082183790188583}"
    },
    {
      "_class": "curvePoint",
      "cornerRadius": 0,
      "curveFrom": "{0.73482166488628375, 0.016022062147814535}",
      "curveMode": 4,
      "curveTo": "{0.7229099454685558, 0.0041151588301379036}",
      "hasCurveFrom": false,
      "hasCurveTo": true,
      "point": "{0.73482166488628375, 0.016022062147814535}"
    },
    {
      "_class": "curvePoint",
      "cornerRadius": 0,
      "curveFrom": "{0.99590041688381015, 0.27712013916548633}",
      "curveMode": 4,
      "curveTo": "{0.98399857107401523, 0.2652006728192644}",
      "hasCurveFrom": true,
      "hasCurveTo": false,
      "point": "{0.98399857107401523, 0.2652006728192644}"
    },
    {
      "_class": "curvePoint",
      "cornerRadius": 0,
      "curveFrom": "{0.99752462405555309, 0.32729122463203492}",
      "curveMode": 2,
      "curveTo": "{1.0016505182734465, 0.2938562883752705}",
      "hasCurveFrom": true,
      "hasCurveTo": true,
      "point": "{0.99958757116450003, 0.31057375650365271}"
    },
    {
      "_class": "curvePoint",
      "cornerRadius": 0,
      "curveFrom": "{0.97343605341659567, 0.35079596100071569}",
      "curveMode": 4,
      "curveTo": "{0.98787847114834315, 0.34212743943929341}",
      "hasCurveFrom": false,
      "hasCurveTo": true,
      "point": "{0.97343605341659567, 0.35079596100071569}"
    },
    {
      "_class": "curvePoint",
      "cornerRadius": 0,
      "curveFrom": "{0.84006374496513447, 0.43080894777902884}",
      "curveMode": 1,
      "curveTo": "{0.84006374496513447, 0.43080894777902884}",
      "hasCurveFrom": false,
      "hasCurveTo": false,
      "point": "{0.84006374496513447, 0.43080894777902884}"
    },
    {
      "_class": "curvePoint",
      "cornerRadius": 0,
      "curveFrom": "{0.60785254071419126, 0.66302174046054918}",
      "curveMode": 1,
      "curveTo": "{0.60785254071419126, 0.66302174046054918}",
      "hasCurveFrom": false,
      "hasCurveTo": false,
      "point": "{0.60785254071419126, 0.66302174046054918}"
    },
    {
      "_class": "curvePoint",
      "cornerRadius": 0,
      "curveFrom": "{0.54939322606541652, 0.97169745366063609}",
      "curveMode": 4,
      "curveTo": "{0.55317919802112225, 0.95176901696012528}",
      "hasCurveFrom": true,
      "hasCurveTo": false,
      "point": "{0.55317919802112225, 0.95176901696012528}"
    },
    {
      "_class": "curvePoint",
      "cornerRadius": 0,
      "curveFrom": "{0.49611982365873641, 0.99982822025386398}",
      "curveMode": 2,
      "curveTo": "{0.53489528400079889, 0.98789722776650946}",
      "hasCurveFrom": true,
      "hasCurveTo": true,
      "point": "{0.51550755382976765, 0.99386272401018672}"
    },
    {
      "_class": "curvePoint",
      "cornerRadius": 0,
      "curveFrom": "{0.46068875843024426, 0.98022780842710411}",
      "curveMode": 4,
      "curveTo": "{0.47502279599205388, 0.99458081944556964}",
      "hasCurveFrom": false,
      "hasCurveTo": true,
      "point": "{0.46068875843024426, 0.98022780842710411}"
    },
    {
      "_class": "curvePoint",
      "cornerRadius": 0,
      "curveFrom": "{0.25956309837315805, 0.7791007725787451}",
      "curveMode": 1,
      "curveTo": "{0.25956309837315805, 0.7791007725787451}",
      "hasCurveFrom": false,
      "hasCurveTo": false,
      "point": "{0.25956309837315805, 0.7791007725787451}"
    },
    {
      "_class": "curvePoint",
      "cornerRadius": 0,
      "curveFrom": "{0.036025811472454115, 1.0026792029452554}",
      "curveMode": 4,
      "curveTo": "{0.046725631172611637, 0.99199442412979721}",
      "hasCurveFrom": true,
      "hasCurveTo": false,
      "point": "{0.046725631172611637, 0.99199442412979721}"
    },
    {
      "_class": "curvePoint",
      "cornerRadius": 0,
      "curveFrom": "{-0.0026791841194077565, 0.98126716651554202}",
      "curveMode": 2,
      "curveTo": "{0.01869022856999979, 1.0026669510658746}",
      "hasCurveFrom": true,
      "hasCurveTo": true,
      "point": "{0.0080055222252960155, 0.99196705879070834}"
    },
    {
      "_class": "curvePoint",
      "cornerRadius": 0,
      "curveFrom": "{0.0080328851425815889, 0.95324668497860321}",
      "curveMode": 4,
      "curveTo": "{-0.0026669333243053224, 0.96393146502908467}",
      "hasCurveFrom": false,
      "hasCurveTo": true,
      "point": "{0.0080328851425815889, 0.95324668497860321}"
    },
    {
      "_class": "curvePoint",
      "cornerRadius": 0,
      "curveFrom": "{0.22092508041389189, 0.74040776187267998}",
      "curveMode": 1,
      "curveTo": "{0.22092508041389189, 0.74040776187267998}",
      "hasCurveFrom": false,
      "hasCurveTo": false,
      "point": "{0.22092508041389189, 0.74040776187267998}"
    },
    {
      "_class": "curvePoint",
      "cornerRadius": 0,
      "curveFrom": "{0.0079797360282547677, 0.52757416479073616}",
      "curveMode": 4,
      "curveTo": "{0.022262183541178152, 0.54185296294537488}",
      "hasCurveFrom": true,
      "hasCurveTo": false,
      "point": "{0.022262183541178152, 0.54185296294537488}"
    },
    {
      "_class": "curvePoint",
      "cornerRadius": 0,
      "curveFrom": "{0.014445783814278908, 0.46793715376288475}",
      "curveMode": 2,
      "curveTo": "{0.0027217636434387531, 0.50659004716523948}",
      "hasCurveFrom": true,
      "hasCurveTo": true,
      "point": "{0.0085837737288588303, 0.48726360046406214}"
    },
    {
      "_class": "curvePoint",
      "cornerRadius": 0,
      "curveFrom": "{0.050282955772260655, 0.44947134756795198}",
      "curveMode": 4,
      "curveTo": "{0.030474923945477062, 0.45340983481176195}",
      "hasCurveFrom": false,
      "hasCurveTo": true,
      "point": "{0.050282955772260655, 0.44947134756795198}"
    },
    {
      "_class": "curvePoint",
      "cornerRadius": 0,
      "curveFrom": "{0.33700331850398163, 0.39211593707296433}",
      "curveMode": 1,
      "curveTo": "{0.33700331850398163, 0.39211593707296433}",
      "hasCurveFrom": false,
      "hasCurveTo": false,
      "point": "{0.33700331850398163, 0.39211593707296433}"
    }
  ],
  "resizingConstraint": 63,
  "resizingType": 0,
  "rotation": 0,
  "shouldBreakMaskChain": false
}