{
  "_class": "artboard",
  "backgroundColor": {
    "_class": "color",
    "alpha": 1,
    "blue": 1,
    "do_objectID": "F60EE659-B7D6-4B4B-A559-51CEC358C86F",
    "green": 1,
    "red": 1
  },
  "booleanOperation": 0,
  "do_objectID": "791FC3C0-D615-4A96-898D-2B7C40E5C042",
  "exportOptions": {
    "_class": "exportOptions",
    "do_objectID": "22612DFD-F4B6-4ED3-9DA8-322BCEBE53D3",
    "exportFormats": [
    ],
    "includedLayerIds": [
    ],
    "layerOptions": 0,
    "shouldTrim": false
  },
  "frame": {
    "_class": "rect",
    "constrainProportions": false,
    "do_objectID": "30595C3B-8B74-480E-A235-3ED2F95A9946",
    "height": 1152,
    "width": 1440,
    "x": 14455,
    "y": 12
  },
  "hasBackgroundColor": false,
  "hasClickThrough": true,
  "horizontalRulerData": {
    "_class": "rulerData",
    "base": 0,
    "do_objectID": "5E673D48-13A3-4B14-80D8-C4366B1BE1A6",
    "guides": [
      288
    ]
  },
  "includeBackgroundColorInExport": true,
  "includeInCloudUpload": true,
  "isFixedToViewport": false,
  "isFlippedHorizontal": false,
  "isFlippedVertical": false,
  "isFlowHome": false,
  "isLocked": false,
  "isVisible": true,
  "layerListExpandedType": 2,
  "layers": [
    {
      "class": "group",
      "id": "74E3A3A2-8F5B-404A-8A84-3D89A415B326"
    },
    {
      "class": "text",
      "id": "7C0ACBE4-935C-48D9-A5C1-FCD4F3FC5CD9"
    },
    {
      "class": "shapeGroup",
      "id": "0309FAF4-0630-47FB-B0B1-B75A6CD74995"
    },
    {
      "class": "text",
      "id": "5ABDCE3D-92D3-455F-9B0D-A7CD0490CAB8"
    },
    {
      "class": "text",
      "id": "C2C29AC8-5C91-424F-B4F9-7B770F67FFFD"
    },
    {
      "class": "text",
      "id": "BF6835FD-B223-479C-9C6A-63F6718B7575"
    },
    {
      "class": "text",
      "id": "87123BDE-7C3E-4FA5-B995-0FE86BA0455E"
    },
    {
      "class": "text",
      "id": "1884E2F3-E28D-49F3-9C96-0CD8311F3A46"
    },
    {
      "class": "text",
      "id": "0478B3E2-0C62-4DDB-9B6B-B8379C9606A7"
    },
    {
      "class": "shapeGroup",
      "id": "0C93D506-A813-4744-9D65-CE7BC1B05D94"
    },
    {
      "class": "symbolInstance",
      "id": "5ACD2B11-1E98-46C0-BEF3-7FC51505F015"
    },
    {
      "class": "symbolInstance",
      "id": "6A41152C-C4DF-4036-AE45-5B9A8A55EF51"
    },
    {
      "class": "symbolInstance",
      "id": "2EA08F15-C177-44F6-8D7B-68B6B61C3C8B"
    },
    {
      "class": "symbolInstance",
      "id": "1A365E6B-305C-4331-8AA7-E1B7AB1FC85A"
    },
    {
      "class": "symbolInstance",
      "id": "8F46CD0B-AD29-4D5C-8A79-C65699332657"
    },
    {
      "class": "symbolInstance",
      "id": "BF89A7C9-F590-425E-AF3D-5AC122E29F90"
    },
    {
      "class": "symbolInstance",
      "id": "D2EECB6D-8F03-4DA4-B2F6-9558D6F8211E"
    },
    {
      "class": "symbolInstance",
      "id": "57906E20-C02C-4F58-95B0-7D4BD8736669"
    },
    {
      "class": "symbolInstance",
      "id": "872D6E7C-B85F-41BA-9F88-05CDF5590054"
    },
    {
      "class": "symbolInstance",
      "id": "8E00D025-00E9-4D65-811F-9D2F46E04F7C"
    },
    {
      "class": "symbolInstance",
      "id": "43775A57-70F8-43F9-BC9D-F3F404A57F4C"
    },
    {
      "class": "symbolInstance",
      "id": "E5A6139A-8F97-489F-B68B-E13ABA5D949F"
    },
    {
      "class": "symbolInstance",
      "id": "6328B310-57F4-4915-B8ED-55451444B2C4"
    },
    {
      "class": "symbolInstance",
      "id": "2A58BEA2-348D-4298-B7B8-E1342B8F691D"
    },
    {
      "class": "symbolInstance",
      "id": "FBD6C39C-C47A-43A5-9F7A-F33F902C7E83"
    },
    {
      "class": "symbolInstance",
      "id": "E840CC08-6B3A-4CD9-8688-751ADB0E04FE"
    },
    {
      "class": "symbolInstance",
      "id": "23A518DB-93A4-48B7-B915-C41BD72CDD3B"
    },
    {
      "class": "symbolInstance",
      "id": "21B356AD-56A2-41F1-8AD2-A72FCCEFDE79"
    },
    {
      "class": "symbolInstance",
      "id": "2D9BCF59-A971-4C89-A833-2EA65032A8E5"
    },
    {
      "class": "symbolInstance",
      "id": "0A152711-71B4-4727-B23E-AD0574E85FD2"
    },
    {
      "class": "symbolInstance",
      "id": "F19C8F16-F742-4DD2-A223-744BBC741BE3"
    },
    {
      "class": "symbolInstance",
      "id": "73612F39-F9D3-41B1-8A2F-0239C78F608C"
    },
    {
      "class": "symbolInstance",
      "id": "10205893-304D-43BA-9730-838FF3480D15"
    },
    {
      "class": "symbolInstance",
      "id": "0EB8B1F6-E1A3-4861-9836-C8EC64FCDCBA"
    },
    {
      "class": "symbolInstance",
      "id": "42BE82A7-E0D4-4F5B-88FA-68EF3872A428"
    },
    {
      "class": "symbolInstance",
      "id": "636FEA82-2052-4CB9-9502-0A199EFB3B3C"
    },
    {
      "class": "symbolInstance",
      "id": "247AB442-C0B5-4213-9439-87A8C3777FAC"
    },
    {
      "class": "symbolInstance",
      "id": "0C0CDB66-8312-408D-8DFF-3A8ACBCB5600"
    },
    {
      "class": "symbolInstance",
      "id": "B7B40EA3-6670-4C84-816A-705CBBCE0DCA"
    },
    {
      "class": "symbolInstance",
      "id": "E93A0FA1-31A0-473D-9CDF-8D812E1B15A4"
    },
    {
      "class": "symbolInstance",
      "id": "542F75FF-6265-47C7-8E9B-B688D8A0335F"
    },
    {
      "class": "symbolInstance",
      "id": "DAB5FD2D-020B-4406-A6C8-9C07CC6F749E"
    },
    {
      "class": "symbolInstance",
      "id": "B54089A6-BFBE-4C09-9D36-6D4790AAF5B4"
    },
    {
      "class": "symbolInstance",
      "id": "12040ACE-248F-4525-8970-F305FE7D3533"
    },
    {
      "class": "symbolInstance",
      "id": "4A0E0270-CCFF-4A9B-B40B-36B2DB2345F6"
    },
    {
      "class": "symbolInstance",
      "id": "6EA22CB5-DB9D-4D21-8A6C-C5DE7C8F4164"
    },
    {
      "class": "symbolInstance",
      "id": "74BB7C76-45C9-49DB-9737-2D8C6ABDA97B"
    },
    {
      "class": "symbolInstance",
      "id": "F2CEE53F-7803-4916-BE16-931DA7981A2D"
    },
    {
      "class": "symbolInstance",
      "id": "FD550C07-9567-44CB-84AD-FFCDE134C1C5"
    },
    {
      "class": "symbolInstance",
      "id": "378126D6-2D65-4D44-9EC1-7B58EEB1EE20"
    }
  ],
  "name": "Chat Lists",
  "nameIsFixed": true,
  "resizesContent": true,
  "resizingConstraint": 63,
  "resizingType": 0,
  "rotation": 0,
  "shouldBreakMaskChain": true,
  "style": {
    "_class": "style",
    "do_objectID": "EEFA8A02-8301-4EA2-B345-EE92E0E8AD6F",
    "endMarkerType": 0,
    "miterLimit": 10,
    "startMarkerType": 0,
    "windingRule": 1
  },
  "verticalRulerData": {
    "_class": "rulerData",
    "base": 0,
    "do_objectID": "F242066D-4E25-407A-B86E-C1DE65693AE5",
    "guides": [
    ]
  }
}