{
  "_class": "text",
  "attributedString": {
    "_class": "attributedString",
    "attributes": [
      {
        "_class": "stringAttribute",
        "attributes": {
          "MSAttributedStringColorAttribute": {
            "_class": "color",
            "alpha": 1,
            "blue": 0.211764705882353,
            "green": 0.2627450980392158,
            "red": 0.9568627450980393
          },
          "MSAttributedStringFontAttribute": {
            "_class": "fontDescriptor",
            "attributes": {
              "name": "Roboto-Medium",
              "size": 12
            }
          },
          "kerning": 0.2,
          "paragraphStyle": {
            "_class": "paragraphStyle",
            "alignment": 2,
            "allowsDefaultTighteningForTruncation": 0,
            "maximumLineHeight": 14,
            "minimumLineHeight": 14
          }
        },
        "length": 8,
        "location": 0
      }
    ],
    "string": "app.name"
  },
  "automaticallyDrawOnUnderlyingPath": false,
  "booleanOperation": 0,
  "do_objectID": "E16C5B9E-11D4-4743-9475-86440D1DAB37",
  "dontSynchroniseWithSymbol": false,
  "exportOptions": {
    "_class": "exportOptions",
    "do_objectID": "8076EF85-E733-4E9C-A0EB-A2E06407DC4F",
    "exportFormats": [
    ],
    "includedLayerIds": [
    ],
    "layerOptions": 0,
    "shouldTrim": false
  },
  "frame": {
    "_class": "rect",
    "constrainProportions": false,
    "do_objectID": "66C9ABAE-3DDB-401A-8971-8CA85282189A",
    "height": 14,
    "width": 64,
    "x": 4,
    "y": 58
  },
  "glyphBounds": "{{5, 4}, {54, 10}}",
  "isFixedToViewport": false,
  "isFlippedHorizontal": false,
  "isFlippedVertical": false,
  "isLocked": false,
  "isVisible": true,
  "layerListExpandedType": 0,
  "lineSpacingBehaviour": 1,
  "name": "App name",
  "nameIsFixed": true,
  "originalObjectID": "35369623-8ADF-414D-B422-73C033289C95",
  "resizingConstraint": 63,
  "resizingType": 0,
  "rotation": 0,
  "shouldBreakMaskChain": false,
  "style": {
    "_class": "style",
    "do_objectID": "D4FAF395-4571-4244-A457-D0FC10786C86",
    "endMarkerType": 0,
    "miterLimit": 10,
    "sharedObjectID": "C82913A0-07A5-4A8E-BF73-90B941B0F47E",
    "startMarkerType": 0,
    "textStyle": {
      "_class": "textStyle",
      "do_objectID": "6C77C57A-BCF3-47B1-A019-45E2DA71366D",
      "encodedAttributes": {
        "MSAttributedStringColorAttribute": {
          "_class": "color",
          "alpha": 1,
          "blue": 0.211764705882353,
          "green": 0.2627450980392158,
          "red": 0.9568627450980393
        },
        "MSAttributedStringFontAttribute": {
          "_class": "fontDescriptor",
          "attributes": {
            "name": "Roboto-Medium",
            "size": 12
          }
        },
        "kerning": 0.2,
        "paragraphStyle": {
          "_class": "paragraphStyle",
          "alignment": 2,
          "allowsDefaultTighteningForTruncation": 0,
          "maximumLineHeight": 14,
          "minimumLineHeight": 14
        }
      },
      "verticalAlignment": 0
    },
    "windingRule": 1
  },
  "textBehaviour": 1
}