{
  "_class": "group",
  "booleanOperation": 0,
  "do_objectID": "B9730893-86D3-4E22-8F55-D27521B1B5A7",
  "exportOptions": {
    "_class": "exportOptions",
    "do_objectID": "C13664B6-6F35-47C2-A5D2-371F31D9E41F",
    "exportFormats": [
    ],
    "includedLayerIds": [
    ],
    "layerOptions": 0,
    "shouldTrim": false
  },
  "frame": {
    "_class": "rect",
    "constrainProportions": false,
    "do_objectID": "0DE82FC5-5D94-489C-AB9A-BC4D92DDB406",
    "height": 24,
    "width": 31,
    "x": 15.89473684210679,
    "y": 6.315789473684163
  },
  "hasClickThrough": false,
  "isFixedToViewport": false,
  "isFlippedHorizontal": false,
  "isFlippedVertical": false,
  "isLocked": false,
  "isVisible": true,
  "layerListExpandedType": 0,
  "layers": [
    {
      "class": "shapeGroup",
      "id": "F7D047E5-D2C3-47E8-B463-2638D07A55CC"
    },
    {
      "class": "shapeGroup",
      "id": "FB60B9C3-610B-4048-A10A-7EDEEE7D5C29"
    },
    {
      "class": "shapeGroup",
      "id": "92C2F698-9B47-4A02-9086-A2A79B495F74"
    },
    {
      "class": "shapeGroup",
      "id": "5E5D9C88-8382-4A0D-B84A-0981D0AFAA69"
    }
  ],
  "name": "text bubble",
  "nameIsFixed": true,
  "resizingConstraint": 63,
  "resizingType": 0,
  "rotation": 0,
  "shouldBreakMaskChain": false,
  "style": {
    "_class": "style",
    "do_objectID": "2F158B1E-9ABA-47A8-BE55-C26E773E29B6",
    "endMarkerType": 0,
    "miterLimit": 10,
    "startMarkerType": 0,
    "windingRule": 1
  },
  "userInfo": {
    "com.animaapp.stc-sketch-plugin": {
      "kModelPropertiesKey": {
      }
    }
  }
}