{
  "_class": "group",
  "booleanOperation": 0,
  "do_objectID": "E8C40C8B-6E63-447D-AB65-2FE94683E7F8",
  "exportOptions": {
    "_class": "exportOptions",
    "exportFormats": [
    ],
    "includedLayerIds": [
    ],
    "layerOptions": 0,
    "shouldTrim": false
  },
  "frame": {
    "_class": "rect",
    "constrainProportions": false,
    "height": 48,
    "width": 304,
    "x": 0,
    "y": 0
  },
  "hasClickThrough": true,
  "isFixedToViewport": false,
  "isFlippedHorizontal": false,
  "isFlippedVertical": false,
  "isLocked": false,
  "isVisible": true,
  "layerListExpandedType": 2,
  "layers": [
    {
      "class": "shapeGroup",
      "id": "EA27B3F2-D40F-4C2F-8541-B58C5CBAB922"
    },
    {
      "class": "group",
      "id": "896B149A-216F-46A2-9F67-94E07D859E10"
    }
  ],
  "name": "25h8/chat/buttons/FAB/fab-extendet-secondary-focused",
  "nameIsFixed": true,
  "resizingConstraint": 63,
  "resizingType": 0,
  "rotation": 0,
  "shouldBreakMaskChain": false,
  "style": {
    "_class": "style",
    "endMarkerType": 0,
    "miterLimit": 10,
    "startMarkerType": 0,
    "windingRule": 1
  }
}