{
  "_class": "group",
  "booleanOperation": 0,
  "do_objectID": "53BFD8BD-9B60-473C-A6E8-824F8AD2ED66",
  "exportOptions": {
    "_class": "exportOptions",
    "do_objectID": "8EF8511A-D811-40ED-BC5F-7DA330548EF2",
    "exportFormats": [
    ],
    "includedLayerIds": [
    ],
    "layerOptions": 0,
    "shouldTrim": false
  },
  "frame": {
    "_class": "rect",
    "constrainProportions": false,
    "do_objectID": "F597B361-8436-458D-A157-D44E2352F315",
    "height": 48,
    "width": 160,
    "x": 160,
    "y": 0
  },
  "hasClickThrough": false,
  "isFixedToViewport": false,
  "isFlippedHorizontal": false,
  "isFlippedVertical": false,
  "isLocked": false,
  "isVisible": true,
  "layerListExpandedType": 0,
  "layers": [
    {
      "class": "shapeGroup",
      "id": "3B768A64-F399-4E0B-8358-A0B53584D3BA"
    },
    {
      "class": "text",
      "id": "8268E03B-360E-4412-A864-CFD4F887893A"
    }
  ],
  "name": "tab",
  "nameIsFixed": true,
  "resizingConstraint": 63,
  "resizingType": 0,
  "rotation": 0,
  "shouldBreakMaskChain": false,
  "style": {
    "_class": "style",
    "do_objectID": "ADD00E66-7319-4E8E-8E16-4A41270C5DEE",
    "endMarkerType": 0,
    "miterLimit": 10,
    "startMarkerType": 0,
    "windingRule": 1
  },
  "userInfo": {
    "com.animaapp.stc-sketch-plugin": {
      "kModelPropertiesKey": {
      }
    }
  }
}