{
  "_class": "symbolInstance",
  "booleanOperation": 0,
  "do_objectID": "00068644-637B-4B62-856E-BB4D83F17480",
  "exportOptions": {
    "_class": "exportOptions",
    "do_objectID": "8E499FC4-1723-4EB4-A308-6BD89529196E",
    "exportFormats": [
    ],
    "includedLayerIds": [
    ],
    "layerOptions": 0,
    "shouldTrim": false
  },
  "frame": {
    "_class": "rect",
    "constrainProportions": true,
    "do_objectID": "F85A31CA-A2B9-47D6-B141-6C421756C530",
    "height": 12,
    "width": 12,
    "x": 288,
    "y": 4
  },
  "horizontalSpacing": 0,
  "isFixedToViewport": false,
  "isFlippedHorizontal": false,
  "isFlippedVertical": false,
  "isLocked": false,
  "isVisible": true,
  "layerListExpandedType": 0,
  "name": "Black/icon-inactive",
  "nameIsFixed": false,
  "overrideValues": [
  ],
  "resizingConstraint": 12,
  "resizingType": 0,
  "rotation": 0,
  "scale": 1,
  "shouldBreakMaskChain": false,
  "style": {
    "_class": "style",
    "do_objectID": "B0E72B52-8D44-4E47-A2F0-F8CAB0670A60",
    "endMarkerType": 0,
    "miterLimit": 10,
    "startMarkerType": 0,
    "windingRule": 1
  },
  "symbolID": "23518F14-394B-4E06-85C6-4DA360118D62",
  "verticalSpacing": 0
}