{
  "_class": "sharedStyle",
  "do_objectID": "18B2AD19-B265-43DB-A6C5-EDA0EB7C95B3",
  "name": "Material/Light/Divider",
  "value": {
    "_class": "style",
    "endMarkerType": 0,
    "fills": [
      {
        "_class": "fill",
        "color": {
          "_class": "color",
          "alpha": 0.12,
          "blue": 0,
          "green": 0,
          "red": 0
        },
        "fillType": 0,
        "isEnabled": true,
        "noiseIndex": 0,
        "noiseIntensity": 0,
        "patternFillType": 0,
        "patternTileScale": 1
      }
    ],
    "miterLimit": 10,
    "sharedObjectID": "18B2AD19-B265-43DB-A6C5-EDA0EB7C95B3",
    "startMarkerType": 0,
    "windingRule": 1
  }
}