{
  "_class": "sharedStyle",
  "do_objectID": "45C93D91-0788-40A2-ACD2-37637A664AE3",
  "name": "Color/Black 32",
  "value": {
    "_class": "style",
    "endMarkerType": 0,
    "fills": [
      {
        "_class": "fill",
        "color": {
          "_class": "color",
          "alpha": 0.32,
          "blue": 0,
          "green": 0,
          "red": 0
        },
        "fillType": 0,
        "isEnabled": true,
        "noiseIndex": 0,
        "noiseIntensity": 0,
        "patternFillType": 1,
        "patternTileScale": 1
      }
    ],
    "miterLimit": 10,
    "sharedObjectID": "45C93D91-0788-40A2-ACD2-37637A664AE3",
    "startMarkerType": 0,
    "windingRule": 1
  }
}