{
  "_class": "sharedStyle",
  "do_objectID": "5DC923B5-0959-4C5C-A748-4E0CD2C930B1",
  "name": "Color/White 70",
  "value": {
    "_class": "style",
    "endMarkerType": 0,
    "fills": [
      {
        "_class": "fill",
        "color": {
          "_class": "color",
          "alpha": 0.7,
          "blue": 1,
          "green": 1,
          "red": 1
        },
        "fillType": 0,
        "isEnabled": true,
        "noiseIndex": 0,
        "noiseIntensity": 0,
        "patternFillType": 1,
        "patternTileScale": 1
      }
    ],
    "miterLimit": 10,
    "sharedObjectID": "5DC923B5-0959-4C5C-A748-4E0CD2C930B1",
    "startMarkerType": 0,
    "windingRule": 1
  }
}