{
  "_class": "sharedStyle",
  "do_objectID": "A0CF85D9-989B-4389-B6C0-8C813618E0FF",
  "name": "Elevation/Primary/12dp",
  "value": {
    "_class": "style",
    "borders": [
      {
        "_class": "border",
        "color": {
          "_class": "color",
          "alpha": 1,
          "blue": 0.9176470588235294,
          "green": 0.9176470588235294,
          "red": 0.9176470588235294
        },
        "contextSettings": {
          "_class": "graphicsContextSettings",
          "blendMode": 2,
          "opacity": 1
        },
        "fillType": 0,
        "isEnabled": true,
        "position": 1,
        "thickness": 1
      }
    ],
    "endMarkerType": 0,
    "fills": [
      {
        "_class": "fill",
        "color": {
          "_class": "color",
          "alpha": 1,
          "blue": 0.8313725490196078,
          "green": 0.7372549019607842,
          "red": 0
        },
        "fillType": 0,
        "isEnabled": true,
        "noiseIndex": 0,
        "noiseIntensity": 0,
        "patternFillType": 1,
        "patternTileScale": 1
      }
    ],
    "miterLimit": 10,
    "shadows": [
      {
        "_class": "shadow",
        "blurRadius": 8,
        "color": {
          "_class": "color",
          "alpha": 0.2,
          "blue": 0,
          "green": 0,
          "red": 0
        },
        "contextSettings": {
          "_class": "graphicsContextSettings",
          "blendMode": 0,
          "opacity": 1
        },
        "isEnabled": true,
        "offsetX": 0,
        "offsetY": 7,
        "spread": -4
      },
      {
        "_class": "shadow",
        "blurRadius": 22,
        "color": {
          "_class": "color",
          "alpha": 0.12,
          "blue": 0,
          "green": 0,
          "red": 0
        },
        "contextSettings": {
          "_class": "graphicsContextSettings",
          "blendMode": 0,
          "opacity": 1
        },
        "isEnabled": true,
        "offsetX": 0,
        "offsetY": 5,
        "spread": 4
      },
      {
        "_class": "shadow",
        "blurRadius": 17,
        "color": {
          "_class": "color",
          "alpha": 0.14,
          "blue": 0,
          "green": 0,
          "red": 0
        },
        "contextSettings": {
          "_class": "graphicsContextSettings",
          "blendMode": 0,
          "opacity": 1
        },
        "isEnabled": true,
        "offsetX": 0,
        "offsetY": 12,
        "spread": 2
      }
    ],
    "sharedObjectID": "A0CF85D9-989B-4389-B6C0-8C813618E0FF",
    "startMarkerType": 0,
    "windingRule": 1
  }
}