{
  "_class": "shapeGroup",
  "booleanOperation": 0,
  "clippingMaskMode": 0,
  "do_objectID": "BBC41786-1771-44EB-8182-0F4195D78868",
  "exportOptions": {
    "_class": "exportOptions",
    "exportFormats": [
    ],
    "includedLayerIds": [
    ],
    "layerOptions": 0,
    "shouldTrim": false
  },
  "frame": {
    "_class": "rect",
    "constrainProportions": true,
    "height": 9.648648648648637,
    "width": 9.64864864864865,
    "x": 22.85135135134988,
    "y": 22.33719433719438
  },
  "hasClickThrough": false,
  "hasClippingMask": false,
  "isFixedToViewport": false,
  "isFlippedHorizontal": false,
  "isFlippedVertical": false,
  "isLocked": false,
  "isVisible": true,
  "layerListExpandedType": 0,
  "layers": [
    {
      "class": "oval",
      "id": "1C946ABA-1F9C-4764-AF68-CF508C07DA99"
    },
    {
      "class": "oval",
      "id": "8C7E5A18-B8DE-435E-88CA-6412012B82AA"
    },
    {
      "class": "shapePath",
      "id": "A78A49FB-E1D3-46DC-A75E-68BB354BBBB4"
    },
    {
      "class": "shapePath",
      "id": "903F1C24-AA52-4064-9355-6155F0695FA1"
    },
    {
      "class": "shapePath",
      "id": "79A1A0B6-341A-4E44-8C66-4A4C9797D869"
    },
    {
      "class": "shapePath",
      "id": "1D663C26-61A9-4AD7-B69C-31FE771849B1"
    }
  ],
  "name": "Combined Shape",
  "nameIsFixed": false,
  "resizingConstraint": 63,
  "resizingType": 0,
  "rotation": 0,
  "shouldBreakMaskChain": false,
  "style": {
    "_class": "style",
    "endMarkerType": 0,
    "fills": [
      {
        "_class": "fill",
        "color": {
          "_class": "color",
          "alpha": 1,
          "blue": 0.0274509803921569,
          "green": 0.7568627450980392,
          "red": 1
        },
        "fillType": 0,
        "isEnabled": true,
        "noiseIndex": 0,
        "noiseIntensity": 0,
        "patternFillType": 0,
        "patternTileScale": 1
      }
    ],
    "miterLimit": 10,
    "shadows": [
      {
        "_class": "shadow",
        "blurRadius": 4,
        "color": {
          "_class": "color",
          "alpha": 0.1,
          "blue": 0.1294117647058823,
          "green": 0.1294117647058823,
          "red": 0.1294117647058823
        },
        "contextSettings": {
          "_class": "graphicsContextSettings",
          "blendMode": 0,
          "opacity": 1
        },
        "isEnabled": true,
        "offsetX": 0,
        "offsetY": 4,
        "spread": 0
      }
    ],
    "startMarkerType": 0,
    "windingRule": 1
  },
  "windingRule": 1
}