{
  "_class": "symbolMaster",
  "backgroundColor": {
    "_class": "color",
    "alpha": 1,
    "blue": 1,
    "do_objectID": "33F7290B-71A8-4043-8347-8914B2C0A823",
    "green": 1,
    "red": 1
  },
  "booleanOperation": 0,
  "changeIdentifier": 340,
  "do_objectID": "F9B3671B-2933-4C03-9605-E288C001CC4B",
  "exportOptions": {
    "_class": "exportOptions",
    "do_objectID": "10B8A97C-4E5C-4827-9C4F-9825BF847966",
    "exportFormats": [
      {
        "_class": "exportFormat",
        "absoluteSize": 0,
        "fileFormat": "svg",
        "name": "",
        "namingScheme": 0,
        "scale": 1,
        "visibleScaleType": 0
      }
    ],
    "includedLayerIds": [
    ],
    "layerOptions": 0,
    "shouldTrim": false
  },
  "frame": {
    "_class": "rect",
    "constrainProportions": false,
    "do_objectID": "4EAF034A-68BA-48A5-83E2-944C07C0D158",
    "height": 40,
    "width": 40,
    "x": 2704,
    "y": 11
  },
  "hasBackgroundColor": false,
  "hasClickThrough": true,
  "horizontalRulerData": {
    "_class": "rulerData",
    "base": 0,
    "do_objectID": "6EBFF94B-0F56-4182-A017-0BCED2DB70DC",
    "guides": [
    ]
  },
  "includeBackgroundColorInExport": true,
  "includeBackgroundColorInInstance": true,
  "includeInCloudUpload": true,
  "isFixedToViewport": false,
  "isFlippedHorizontal": false,
  "isFlippedVertical": false,
  "isFlowHome": false,
  "isLocked": false,
  "isVisible": true,
  "layerListExpandedType": 2,
  "layers": [
    {
      "class": "shapeGroup",
      "id": "52FFDCF2-B6AD-4803-BBC9-7F8DD7713191"
    }
  ],
  "name": "25h8/chat/mat-icon-button/person-add/person-add-default",
  "nameIsFixed": true,
  "originalObjectID": "CD9C339A-1EE6-481A-AA95-88FC594F3676",
  "resizesContent": false,
  "resizingConstraint": 63,
  "resizingType": 0,
  "rotation": 0,
  "shouldBreakMaskChain": true,
  "style": {
    "_class": "style",
    "do_objectID": "9192D01A-2BBE-4AF5-82FB-FBFCDABD020A",
    "endMarkerType": 0,
    "miterLimit": 10,
    "startMarkerType": 0,
    "windingRule": 1
  },
  "symbolID": "27CBDA44-9B5E-413B-8EF2-C769A6332D78",
  "verticalRulerData": {
    "_class": "rulerData",
    "base": 0,
    "do_objectID": "55F68502-6DDE-40B1-99F7-12A5703C1E2D",
    "guides": [
    ]
  }
}