{
  "_class": "shapeGroup",
  "booleanOperation": 0,
  "clippingMaskMode": 0,
  "do_objectID": "892C1830-B6F2-4409-AAFD-6F21A88B2770",
  "exportOptions": {
    "_class": "exportOptions",
    "do_objectID": "64D8DCA9-BFB4-4B13-BA37-F2D06E94922D",
    "exportFormats": [
    ],
    "includedLayerIds": [
    ],
    "layerOptions": 0,
    "shouldTrim": false
  },
  "frame": {
    "_class": "rect",
    "constrainProportions": false,
    "do_objectID": "27E39779-8142-48FB-B256-93ABB455A727",
    "height": 20,
    "width": 17,
    "x": 12,
    "y": 10
  },
  "hasClickThrough": false,
  "hasClippingMask": false,
  "isFixedToViewport": false,
  "isFlippedHorizontal": false,
  "isFlippedVertical": false,
  "isLocked": false,
  "isVisible": true,
  "layerListExpandedType": 0,
  "layers": [
    {
      "class": "shapePath",
      "id": "4309DF91-D71B-430B-B564-7045841127CE"
    },
    {
      "class": "shapePath",
      "id": "2722CE0A-4343-44F5-B92A-014C3B1F5EE4"
    }
  ],
  "name": "notifications",
  "nameIsFixed": true,
  "originalObjectID": "C3EF5C0A-AE16-4519-B73F-D100BF03E295",
  "resizingConstraint": 63,
  "resizingType": 0,
  "rotation": 0,
  "shouldBreakMaskChain": false,
  "style": {
    "_class": "style",
    "do_objectID": "A440C049-3F80-4B11-8B98-F05DADD0E413",
    "endMarkerType": 0,
    "fills": [
      {
        "_class": "fill",
        "color": {
          "_class": "color",
          "alpha": 1,
          "blue": 0.8313725490196078,
          "green": 0.7372549019607842,
          "red": 0
        },
        "fillType": 0,
        "isEnabled": true,
        "noiseIndex": 0,
        "noiseIntensity": 0,
        "patternFillType": 0,
        "patternTileScale": 1
      }
    ],
    "miterLimit": 10,
    "sharedObjectID": "0261879A-372D-491B-8108-FCA089D037C4",
    "startMarkerType": 0,
    "windingRule": 1
  },
  "windingRule": 1
}