{
  "_class": "group",
  "booleanOperation": 0,
  "do_objectID": "B457FAEB-F010-44EA-9C6D-06E17CB8A2D5",
  "exportOptions": {
    "_class": "exportOptions",
    "exportFormats": [
    ],
    "includedLayerIds": [
    ],
    "layerOptions": 0,
    "shouldTrim": false
  },
  "frame": {
    "_class": "rect",
    "constrainProportions": false,
    "height": 248,
    "width": 150,
    "x": 853,
    "y": 16
  },
  "hasClickThrough": false,
  "isFixedToViewport": false,
  "isFlippedHorizontal": false,
  "isFlippedVertical": false,
  "isLocked": false,
  "isVisible": true,
  "layerListExpandedType": 0,
  "layers": [
    {
      "class": "shapeGroup",
      "id": "48A18A2C-6855-42AF-9617-58B4F90AA489"
    },
    {
      "class": "symbolInstance",
      "id": "73A81C4E-E4DE-418E-AF32-6F1FC81035D4"
    },
    {
      "class": "symbolInstance",
      "id": "7781BCA8-E57B-4842-AAEC-36AA6FD45A46"
    },
    {
      "class": "symbolInstance",
      "id": "99B4F758-42B9-4860-B822-3E20B4CA8107"
    },
    {
      "class": "symbolInstance",
      "id": "C109E778-45DF-493A-A244-EC46810FDD64"
    },
    {
      "class": "symbolInstance",
      "id": "DA2CDE58-8CCD-4A71-B01A-929C98BE2744"
    }
  ],
  "name": "language-menu",
  "nameIsFixed": true,
  "resizingConstraint": 63,
  "resizingType": 0,
  "rotation": 0,
  "shouldBreakMaskChain": false,
  "style": {
    "_class": "style",
    "endMarkerType": 0,
    "miterLimit": 10,
    "startMarkerType": 0,
    "windingRule": 1
  }
}