{
  "_class": "group",
  "booleanOperation": 0,
  "do_objectID": "E5B8ACFD-1DE2-4D3C-95F2-0F90B6D8DE7E",
  "exportOptions": {
    "_class": "exportOptions",
    "do_objectID": "1F4C164A-8ED8-4659-A5DE-9858DDF5726E",
    "exportFormats": [
    ],
    "includedLayerIds": [
    ],
    "layerOptions": 0,
    "shouldTrim": false
  },
  "frame": {
    "_class": "rect",
    "constrainProportions": false,
    "do_objectID": "74B1D3E8-C929-4754-9142-3CB757E56B1B",
    "height": 48,
    "width": 48,
    "x": 0,
    "y": 0
  },
  "hasClickThrough": false,
  "isFixedToViewport": false,
  "isFlippedHorizontal": false,
  "isFlippedVertical": false,
  "isLocked": false,
  "isVisible": true,
  "layerListExpandedType": 0,
  "layers": [
    {
      "class": "shapeGroup",
      "id": "D2868053-C22E-4280-8A70-19B2EDEEA4E3"
    },
    {
      "class": "symbolInstance",
      "id": "7DF345AE-CCBB-4267-B4A7-098F34D8B9B3"
    },
    {
      "class": "symbolInstance",
      "id": "FB0A6F27-927E-4D7E-B0A6-B62F8133C5B7"
    },
    {
      "class": "symbolInstance",
      "id": "28AFCE8D-4B83-4096-8CC3-47DA42222DF1"
    },
    {
      "class": "group",
      "id": "9985A2D0-336C-4782-9E9C-452B6AF88032"
    }
  ],
  "name": "4x-avatar",
  "nameIsFixed": true,
  "resizingConstraint": 63,
  "resizingType": 0,
  "rotation": 0,
  "shouldBreakMaskChain": false,
  "style": {
    "_class": "style",
    "do_objectID": "1C4CAEFD-7A20-41F8-A981-3A71EE3EFAA6",
    "endMarkerType": 0,
    "miterLimit": 10,
    "startMarkerType": 0,
    "windingRule": 1
  },
  "userInfo": {
    "com.animaapp.stc-sketch-plugin": {
      "kModelPropertiesKey": {
      }
    }
  }
}