{
  "_class": "symbolInstance",
  "booleanOperation": 0,
  "do_objectID": "C4B1D7C0-B684-4FB4-A705-B9F8FBC1C1C3",
  "exportOptions": {
    "_class": "exportOptions",
    "do_objectID": "01B5F295-B509-427E-B4CF-B4BE3996FA63",
    "exportFormats": [
    ],
    "includedLayerIds": [
    ],
    "layerOptions": 0,
    "shouldTrim": false
  },
  "frame": {
    "_class": "rect",
    "constrainProportions": false,
    "do_objectID": "CF0C9749-2C6E-420E-8808-4A7077F14738",
    "height": 56,
    "width": 320,
    "x": 0,
    "y": 275
  },
  "horizontalSpacing": 0,
  "isFixedToViewport": false,
  "isFlippedHorizontal": false,
  "isFlippedVertical": false,
  "isLocked": false,
  "isVisible": true,
  "layerListExpandedType": 0,
  "name": "mat-menu-item copy 3",
  "nameIsFixed": true,
  "overrideValues": [
    {
      "_class": "overrideValue",
      "do_objectID": "B27CFEE0-3AA6-4E47-BC64-2821A422AC31",
      "overrideName": "11639098-7EF1-4758-A235-79D0FFFD6629_stringValue",
      "value": "Знайти публічні чати"
    },
    {
      "_class": "overrideValue",
      "do_objectID": "FFA5B3F6-A110-40DB-9BF0-7ABEA1777236",
      "overrideName": "2F183D0E-4B07-4902-A645-5E2F57906634/B5BFD23B-A013-4C42-A197-E68C16A5F795_stringValue",
      "value": "Знайти публічкні чати"
    },
    {
      "_class": "overrideValue",
      "do_objectID": "50E7063E-5336-4423-929B-32144543D355",
      "overrideName": "4D99EEBB-89B5-4FB6-B8A3-0A2D73228B78_stringValue",
      "value": "Останні чати"
    },
    {
      "_class": "overrideValue",
      "do_objectID": "49D3AE28-4974-4678-8932-132220DD3BFC",
      "overrideName": "7F432631-35BE-417F-AEE6-396EF7CD2682_symbolID",
      "value": "4EAC24C0-3422-4FEA-B3B0-9E7DB2466E85"
    }
  ],
  "resizingConstraint": 63,
  "resizingType": 0,
  "rotation": 0,
  "scale": 1,
  "shouldBreakMaskChain": false,
  "style": {
    "_class": "style",
    "do_objectID": "943EC9CC-FC9C-462A-9826-2F6271FC4AA6",
    "endMarkerType": 0,
    "miterLimit": 10,
    "startMarkerType": 0,
    "windingRule": 1
  },
  "symbolID": "BDF7D13A-9C68-4E5E-9CB6-DA88F80D895C",
  "verticalSpacing": 0
}