{
  "_class": "symbolInstance",
  "booleanOperation": 0,
  "do_objectID": "385D6A87-F6C8-4566-AF28-D92BB3EB1CF8",
  "exportOptions": {
    "_class": "exportOptions",
    "do_objectID": "27680BD7-38E4-4247-80A4-2228C10FB73F",
    "exportFormats": [
    ],
    "includedLayerIds": [
    ],
    "layerOptions": 0,
    "shouldTrim": false
  },
  "frame": {
    "_class": "rect",
    "constrainProportions": false,
    "do_objectID": "E786A236-98E9-40A9-9D10-5CB59FC5D22D",
    "height": 56,
    "width": 850,
    "x": 248,
    "y": 756
  },
  "horizontalSpacing": 0,
  "isFixedToViewport": false,
  "isFlippedHorizontal": false,
  "isFlippedVertical": false,
  "isLocked": false,
  "isVisible": true,
  "layerListExpandedType": 0,
  "name": "25h8/chat/chat-area/chat-message-input-box/chat-message-input-box-default",
  "nameIsFixed": false,
  "overrideValues": [
  ],
  "resizingConstraint": 63,
  "resizingType": 0,
  "rotation": 0,
  "scale": 1,
  "shouldBreakMaskChain": false,
  "style": {
    "_class": "style",
    "do_objectID": "BBF255BF-9207-4F45-B2BF-A2137D0FC309",
    "endMarkerType": 0,
    "miterLimit": 10,
    "startMarkerType": 0,
    "windingRule": 1
  },
  "symbolID": "0BE47E9A-7EF6-48B9-90CA-361A588645C6",
  "verticalSpacing": 0
}