{
  "_class": "rectangle",
  "booleanOperation": -1,
  "do_objectID": "626B51AC-A59F-46A5-BD50-3136CE1970D5",
  "edited": true,
  "exportOptions": {
    "_class": "exportOptions",
    "do_objectID": "B1DDAA8C-CDBA-450A-90F2-7ACF663086B4",
    "exportFormats": [
    ],
    "includedLayerIds": [
    ],
    "layerOptions": 0,
    "shouldTrim": false
  },
  "fixedRadius": 0,
  "frame": {
    "_class": "rect",
    "constrainProportions": false,
    "do_objectID": "320409AA-E1FA-4298-A5AB-B77F75B92DE8",
    "height": 3.466338735798194,
    "width": 7.799262155545949,
    "x": 1.731236960027445,
    "y": 0
  },
  "hasConvertedToNewRoundCorners": true,
  "isClosed": true,
  "isFixedToViewport": false,
  "isFlippedHorizontal": false,
  "isFlippedVertical": false,
  "isLocked": false,
  "isVisible": true,
  "layerListExpandedType": 0,
  "name": "Rectangle 7 Copy 2",
  "nameIsFixed": false,
  "pointRadiusBehaviour": 1,
  "points": [
    {
      "_class": "curvePoint",
      "cornerRadius": 1,
      "curveFrom": "{0, 0}",
      "curveMode": 1,
      "curveTo": "{0, 0}",
      "hasCurveFrom": false,
      "hasCurveTo": false,
      "point": "{0, 0}"
    },
    {
      "_class": "curvePoint",
      "cornerRadius": 1,
      "curveFrom": "{1, 0}",
      "curveMode": 1,
      "curveTo": "{1, 0}",
      "hasCurveFrom": false,
      "hasCurveTo": false,
      "point": "{1, 0}"
    },
    {
      "_class": "curvePoint",
      "cornerRadius": 0,
      "curveFrom": "{0.88888888888888884, 1}",
      "curveMode": 1,
      "curveTo": "{0.88888888888888884, 1}",
      "hasCurveFrom": false,
      "hasCurveTo": false,
      "point": "{0.88888888888888884, 1}"
    },
    {
      "_class": "curvePoint",
      "cornerRadius": 0,
      "curveFrom": "{0.1111111111111111, 1}",
      "curveMode": 1,
      "curveTo": "{0.1111111111111111, 1}",
      "hasCurveFrom": false,
      "hasCurveTo": false,
      "point": "{0.1111111111111111, 1}"
    }
  ],
  "resizingConstraint": 63,
  "resizingType": 0,
  "rotation": 0,
  "shouldBreakMaskChain": false
}