{
  "_class": "shapeGroup",
  "booleanOperation": 0,
  "clippingMaskMode": 0,
  "do_objectID": "0A984E4F-1E45-4122-9AA7-74FF3C70CAB5",
  "exportOptions": {
    "_class": "exportOptions",
    "do_objectID": "31460631-5EEA-4EB8-A2FB-18DA2073446D",
    "exportFormats": [
    ],
    "includedLayerIds": [
    ],
    "layerOptions": 0,
    "shouldTrim": false
  },
  "frame": {
    "_class": "rect",
    "constrainProportions": false,
    "do_objectID": "CA762BD7-4B44-4162-B4CF-0E09B3B3A8CC",
    "height": 14,
    "width": 14,
    "x": 13,
    "y": 13
  },
  "hasClickThrough": false,
  "hasClippingMask": false,
  "isFixedToViewport": false,
  "isFlippedHorizontal": false,
  "isFlippedVertical": false,
  "isLocked": false,
  "isVisible": true,
  "layerListExpandedType": 0,
  "layers": [
    {
      "class": "shapePath",
      "id": "498EFA77-0F62-420D-AAA1-CBBE4752AE15"
    }
  ],
  "name": "close",
  "nameIsFixed": true,
  "originalObjectID": "AA6F6444-4F7F-4504-AC9D-B0E40C4D1635",
  "resizingConstraint": 63,
  "resizingType": 0,
  "rotation": 0,
  "shouldBreakMaskChain": false,
  "style": {
    "_class": "style",
    "do_objectID": "1A13D125-DA77-4A7D-8FFB-D160C6C909E0",
    "endMarkerType": 0,
    "fills": [
      {
        "_class": "fill",
        "color": {
          "_class": "color",
          "alpha": 0.54,
          "blue": 0,
          "green": 0,
          "red": 0
        },
        "fillType": 0,
        "isEnabled": true,
        "noiseIndex": 0,
        "noiseIntensity": 0,
        "patternFillType": 0,
        "patternTileScale": 1
      }
    ],
    "miterLimit": 10,
    "sharedObjectID": "5E188907-6BE8-4B33-BD07-4955EC1773E6",
    "startMarkerType": 0,
    "windingRule": 1
  },
  "userInfo": {
    "com.animaapp.stc-sketch-plugin": {
      "kModelPropertiesKey": {
      }
    }
  },
  "windingRule": 1
}