{
  "_class": "shapePath",
  "booleanOperation": 0,
  "do_objectID": "34E03B1D-7D96-48DC-A34E-29FC7101F9F3",
  "edited": true,
  "exportOptions": {
    "_class": "exportOptions",
    "exportFormats": [
    ],
    "includedLayerIds": [
    ],
    "layerOptions": 0,
    "shouldTrim": false
  },
  "frame": {
    "_class": "rect",
    "constrainProportions": false,
    "height": 1.206087111486486,
    "width": 1.204072956081082,
    "x": 3.417229729730025,
    "y": 3.417229729729684
  },
  "isClosed": true,
  "isFixedToViewport": false,
  "isFlippedHorizontal": false,
  "isFlippedVertical": false,
  "isLocked": false,
  "isVisible": true,
  "layerListExpandedType": 0,
  "name": "Path",
  "nameIsFixed": false,
  "pointRadiusBehaviour": 0,
  "points": [
    {
      "_class": "curvePoint",
      "cornerRadius": 0,
      "curveFrom": "{0.77746280891016872, 1}",
      "curveMode": 4,
      "curveTo": "{0.50083388842422638, 1}",
      "hasCurveFrom": true,
      "hasCurveTo": false,
      "point": "{0.50083388842422638, 1}"
    },
    {
      "_class": "curvePoint",
      "cornerRadius": 0,
      "curveFrom": "{1, 0.22399888000559984}",
      "curveMode": 2,
      "curveTo": "{1, 0.77599612001939988}",
      "hasCurveFrom": true,
      "hasCurveTo": true,
      "point": "{1, 0.49999750001249987}"
    },
    {
      "_class": "curvePoint",
      "cornerRadius": 0,
      "curveFrom": "{0.22420496793828398, 0}",
      "curveMode": 2,
      "curveTo": "{0.77746280891016872, 0}",
      "hasCurveFrom": true,
      "hasCurveTo": true,
      "point": "{0.50083388842422638, 0}"
    },
    {
      "_class": "curvePoint",
      "cornerRadius": 0,
      "curveFrom": "{0, 0.77599612001939988}",
      "curveMode": 2,
      "curveTo": "{0, 0.22399888000559984}",
      "hasCurveFrom": true,
      "hasCurveTo": true,
      "point": "{0, 0.49999750001249987}"
    },
    {
      "_class": "curvePoint",
      "cornerRadius": 0,
      "curveFrom": "{0.50083388842422638, 1}",
      "curveMode": 4,
      "curveTo": "{0.22420496793828398, 1}",
      "hasCurveFrom": false,
      "hasCurveTo": true,
      "point": "{0.50083388842422638, 1}"
    }
  ],
  "resizingConstraint": 63,
  "resizingType": 0,
  "rotation": 0,
  "shouldBreakMaskChain": false
}