{
  "_class": "shapeGroup",
  "booleanOperation": 0,
  "clippingMaskMode": 0,
  "do_objectID": "9D465437-A492-49D2-AAD7-4C929E820E79",
  "exportOptions": {
    "_class": "exportOptions",
    "exportFormats": [
    ],
    "includedLayerIds": [
    ],
    "layerOptions": 0,
    "shouldTrim": false
  },
  "frame": {
    "_class": "rect",
    "constrainProportions": true,
    "height": 9.648648648648644,
    "width": 9.64864864864865,
    "x": 19.17567567567676,
    "y": 15.90476190476193
  },
  "hasClickThrough": false,
  "hasClippingMask": false,
  "isFixedToViewport": false,
  "isFlippedHorizontal": false,
  "isFlippedVertical": false,
  "isLocked": false,
  "isVisible": true,
  "layerListExpandedType": 0,
  "layers": [
    {
      "class": "oval",
      "id": "D4E73953-37B3-404E-BD14-854092B28B99"
    },
    {
      "class": "oval",
      "id": "5FBAF05F-0542-463B-93C4-94FFE7D9B645"
    },
    {
      "class": "shapePath",
      "id": "CEE50C09-D0AC-451F-AF9F-1125DB108C88"
    },
    {
      "class": "shapePath",
      "id": "9F05786B-1E6D-4AE1-A956-710A0AC35569"
    },
    {
      "class": "shapePath",
      "id": "34E03B1D-7D96-48DC-A34E-29FC7101F9F3"
    },
    {
      "class": "shapePath",
      "id": "5F5E397A-1838-4059-A210-0266843426D8"
    }
  ],
  "name": "Combined Shape",
  "nameIsFixed": false,
  "resizingConstraint": 63,
  "resizingType": 0,
  "rotation": 0,
  "shouldBreakMaskChain": false,
  "style": {
    "_class": "style",
    "endMarkerType": 0,
    "fills": [
      {
        "_class": "fill",
        "color": {
          "_class": "color",
          "alpha": 1,
          "blue": 0.2117647058823529,
          "green": 0.2627450980392156,
          "red": 0.9568627450980391
        },
        "fillType": 0,
        "isEnabled": true,
        "noiseIndex": 0,
        "noiseIntensity": 0,
        "patternFillType": 0,
        "patternTileScale": 1
      }
    ],
    "miterLimit": 10,
    "shadows": [
      {
        "_class": "shadow",
        "blurRadius": 4,
        "color": {
          "_class": "color",
          "alpha": 0.1,
          "blue": 0.1294117647058823,
          "green": 0.1294117647058823,
          "red": 0.1294117647058823
        },
        "contextSettings": {
          "_class": "graphicsContextSettings",
          "blendMode": 0,
          "opacity": 1
        },
        "isEnabled": true,
        "offsetX": 0,
        "offsetY": 4,
        "spread": 0
      }
    ],
    "startMarkerType": 0,
    "windingRule": 1
  },
  "windingRule": 1
}