{
  "_class": "symbolInstance",
  "booleanOperation": 0,
  "do_objectID": "C70A42A5-AAD8-496C-A2C9-FB565B2CE55E",
  "exportOptions": {
    "_class": "exportOptions",
    "exportFormats": [
    ],
    "includedLayerIds": [
    ],
    "layerOptions": 0,
    "shouldTrim": false
  },
  "frame": {
    "_class": "rect",
    "constrainProportions": false,
    "height": 48,
    "width": 320,
    "x": 0,
    "y": 48
  },
  "horizontalSpacing": 0,
  "isFixedToViewport": false,
  "isFlippedHorizontal": false,
  "isFlippedVertical": false,
  "isLocked": false,
  "isVisible": true,
  "layerListExpandedType": 0,
  "name": "25h8/chat/chat-detail-container/setting/chat-setting-header",
  "nameIsFixed": false,
  "overrideValues": [
    {
      "_class": "overrideValue",
      "do_objectID": "CB8CC443-5F9F-4737-887E-1A2ACE8A7781",
      "overrideName": "64CD844C-B54D-4140-9202-AF53AEE6212F_stringValue",
      "value": "Загальні налаштування"
    }
  ],
  "resizingConstraint": 63,
  "resizingType": 0,
  "rotation": 0,
  "scale": 1,
  "shouldBreakMaskChain": false,
  "style": {
    "_class": "style",
    "endMarkerType": 0,
    "miterLimit": 10,
    "startMarkerType": 0,
    "windingRule": 1
  },
  "symbolID": "5512B0B4-DCA9-44CB-BC10-79FBA2A81B7A",
  "verticalSpacing": 0
}