{
  "_class": "symbolInstance",
  "booleanOperation": 0,
  "do_objectID": "8FBA4F13-CE37-4181-AAAF-DF63A39AABED",
  "exportOptions": {
    "_class": "exportOptions",
    "do_objectID": "B46D9C9C-BDAA-45E4-ABDA-9E6F6048EA0C",
    "exportFormats": [
    ],
    "includedLayerIds": [
    ],
    "layerOptions": 0,
    "shouldTrim": false
  },
  "frame": {
    "_class": "rect",
    "constrainProportions": false,
    "do_objectID": "AA2D6FE2-F22C-4B99-9AC9-769F37E0455C",
    "height": 60,
    "width": 888,
    "x": 392,
    "y": 63
  },
  "horizontalSpacing": 0,
  "isFixedToViewport": false,
  "isFlippedHorizontal": false,
  "isFlippedVertical": false,
  "isLocked": false,
  "isVisible": true,
  "layerListExpandedType": 0,
  "name": "25h8/chat/chat-layout/chat-layout-header/chat-layout-header",
  "nameIsFixed": false,
  "overrideValues": [
    {
      "_class": "overrideValue",
      "do_objectID": "339BEB22-CF3D-4C4F-A8A6-A4C913535865",
      "overrideName": "58DF2774-F015-4276-8C50-B87E8FEF19CE_stringValue",
      "value": "Игорь Александрович"
    },
    {
      "_class": "overrideValue",
      "do_objectID": "6503BCDA-3AFC-4534-AE3D-73486D1A2213",
      "overrideName": "404EE40F-4946-4577-8545-F93560869EF2_stringValue",
      "value": "Був онлайн 12 хв. тому"
    },
    {
      "_class": "overrideValue",
      "do_objectID": "6FA39B99-A82F-4E12-9CFF-445BAEB5197B",
      "overrideName": "05045CB2-3EB2-4802-815A-8A917A36135B_symbolID",
      "value": "018365E2-1669-4054-9711-A17EA5356EF5"
    }
  ],
  "resizingConstraint": 63,
  "resizingType": 0,
  "rotation": 0,
  "scale": 1,
  "shouldBreakMaskChain": false,
  "style": {
    "_class": "style",
    "do_objectID": "B6B8ABC0-F942-4B61-86B9-100047E6B025",
    "endMarkerType": 0,
    "miterLimit": 10,
    "startMarkerType": 0,
    "windingRule": 1
  },
  "symbolID": "0F46561D-44FD-4117-957F-B338664F8956",
  "verticalSpacing": 0
}