{
  "_class": "shapePath",
  "booleanOperation": -1,
  "do_objectID": "E99057AC-B60E-46B8-BC76-BEF9A5DA3D4C",
  "edited": true,
  "exportOptions": {
    "_class": "exportOptions",
    "exportFormats": [
    ],
    "includedLayerIds": [
    ],
    "layerOptions": 0,
    "shouldTrim": false
  },
  "frame": {
    "_class": "rect",
    "constrainProportions": false,
    "height": 20.99999874,
    "width": 15.99999904,
    "x": 0,
    "y": 0
  },
  "isClosed": true,
  "isFixedToViewport": false,
  "isFlippedHorizontal": false,
  "isFlippedVertical": false,
  "isLocked": false,
  "isVisible": true,
  "layerListExpandedType": 0,
  "name": "Path",
  "nameIsFixed": false,
  "pointRadiusBehaviour": 0,
  "points": [
    {
      "_class": "curvePoint",
      "cornerRadius": 0,
      "curveFrom": "{0.875, 0.33333333333333331}",
      "curveMode": 4,
      "curveTo": "{0.9437500187500002, 0.33333333333333331}",
      "hasCurveFrom": false,
      "hasCurveTo": true,
      "point": "{0.875, 0.33333333333333331}"
    },
    {
      "_class": "curvePoint",
      "cornerRadius": 0,
      "curveFrom": "{0.8125, 0.33333333333333331}",
      "curveMode": 1,
      "curveTo": "{0.8125, 0.33333333333333331}",
      "hasCurveFrom": false,
      "hasCurveTo": false,
      "point": "{0.8125, 0.33333333333333331}"
    },
    {
      "_class": "curvePoint",
      "cornerRadius": 0,
      "curveFrom": "{0.8125, 0.10666666666666673}",
      "curveMode": 4,
      "curveTo": "{0.8125, 0.23809523809523808}",
      "hasCurveFrom": true,
      "hasCurveTo": false,
      "point": "{0.8125, 0.23809523809523808}"
    },
    {
      "_class": "curvePoint",
      "cornerRadius": 0,
      "curveFrom": "{0.3274999856250001, 0}",
      "curveMode": 2,
      "curveTo": "{0.67250001250000002, 0}",
      "hasCurveFrom": true,
      "hasCurveTo": true,
      "point": "{0.50000000000000011, 0}"
    },
    {
      "_class": "curvePoint",
      "cornerRadius": 0,
      "curveFrom": "{0.18749999999999997, 0.23809523809523808}",
      "curveMode": 4,
      "curveTo": "{0.18749999999999997, 0.10666666666666673}",
      "hasCurveFrom": false,
      "hasCurveTo": true,
      "point": "{0.18749999999999997, 0.23809523809523808}"
    },
    {
      "_class": "curvePoint",
      "cornerRadius": 0,
      "curveFrom": "{0.18749999999999997, 0.33333333333333331}",
      "curveMode": 1,
      "curveTo": "{0.18749999999999997, 0.33333333333333331}",
      "hasCurveFrom": false,
      "hasCurveTo": false,
      "point": "{0.18749999999999997, 0.33333333333333331}"
    },
    {
      "_class": "curvePoint",
      "cornerRadius": 0,
      "curveFrom": "{0.05625000562499996, 0.33333333333333331}",
      "curveMode": 4,
      "curveTo": "{0.12500000000000003, 0.33333333333333331}",
      "hasCurveFrom": true,
      "hasCurveTo": false,
      "point": "{0.12500000000000003, 0.33333333333333331}"
    },
    {
      "_class": "curvePoint",
      "cornerRadius": 0,
      "curveFrom": "{0, 0.4285714285714286}",
      "curveMode": 4,
      "curveTo": "{0, 0.37619045761904762}",
      "hasCurveFrom": false,
      "hasCurveTo": true,
      "point": "{0, 0.4285714285714286}"
    },
    {
      "_class": "curvePoint",
      "cornerRadius": 0,
      "curveFrom": "{0, 0.95714287142857157}",
      "curveMode": 4,
      "curveTo": "{0, 0.90476190476190477}",
      "hasCurveFrom": true,
      "hasCurveTo": false,
      "point": "{0, 0.90476190476190477}"
    },
    {
      "_class": "curvePoint",
      "cornerRadius": 0,
      "curveFrom": "{0.12500000000000003, 1}",
      "curveMode": 4,
      "curveTo": "{0.05625000562499996, 1}",
      "hasCurveFrom": false,
      "hasCurveTo": true,
      "point": "{0.12500000000000003, 1}"
    },
    {
      "_class": "curvePoint",
      "cornerRadius": 0,
      "curveFrom": "{0.9437500187500002, 1}",
      "curveMode": 4,
      "curveTo": "{0.875, 1}",
      "hasCurveFrom": true,
      "hasCurveTo": false,
      "point": "{0.875, 1}"
    },
    {
      "_class": "curvePoint",
      "cornerRadius": 0,
      "curveFrom": "{1, 0.90476190476190477}",
      "curveMode": 4,
      "curveTo": "{1, 0.95714287142857157}",
      "hasCurveFrom": false,
      "hasCurveTo": true,
      "point": "{1, 0.90476190476190477}"
    },
    {
      "_class": "curvePoint",
      "cornerRadius": 0,
      "curveFrom": "{1, 0.37619045761904762}",
      "curveMode": 4,
      "curveTo": "{1, 0.4285714285714286}",
      "hasCurveFrom": true,
      "hasCurveTo": false,
      "point": "{1, 0.4285714285714286}"
    }
  ],
  "resizingConstraint": 63,
  "resizingType": 0,
  "rotation": 0,
  "shouldBreakMaskChain": false
}