{
  "_class": "shapeGroup",
  "booleanOperation": 0,
  "clippingMaskMode": 0,
  "do_objectID": "910EE4E2-300E-4816-B917-F4CC1C3FC8D9",
  "exportOptions": {
    "_class": "exportOptions",
    "do_objectID": "56500F2F-9C13-443C-9355-BFE2326EA6AC",
    "exportFormats": [
    ],
    "includedLayerIds": [
    ],
    "layerOptions": 0,
    "shouldTrim": false
  },
  "frame": {
    "_class": "rect",
    "constrainProportions": true,
    "do_objectID": "19A8702C-C0BE-4895-AF08-7D1DE132833B",
    "height": 24,
    "width": 24,
    "x": 8,
    "y": 8
  },
  "hasClickThrough": false,
  "hasClippingMask": false,
  "isFixedToViewport": false,
  "isFlippedHorizontal": false,
  "isFlippedVertical": false,
  "isLocked": false,
  "isVisible": true,
  "layerListExpandedType": 0,
  "layers": [
    {
      "class": "rectangle",
      "id": "C96497FB-CAE2-436B-9FC1-513DE134DC8A"
    }
  ],
  "name": "24x24",
  "nameIsFixed": true,
  "originalObjectID": "5BEDD9F2-8C1D-42D9-B370-73A442181AD4",
  "resizingConstraint": 63,
  "resizingType": 0,
  "rotation": 0,
  "shouldBreakMaskChain": false,
  "style": {
    "_class": "style",
    "do_objectID": "3E739486-03BA-47AB-A67C-146D0148D29B",
    "endMarkerType": 0,
    "miterLimit": 10,
    "sharedObjectID": "AE7841E5-E34E-496B-B937-76B742ED84F1",
    "startMarkerType": 0,
    "windingRule": 1
  },
  "userInfo": {
    "com.animaapp.stc-sketch-plugin": {
      "kModelPropertiesKey": {
      }
    }
  },
  "windingRule": 1
}