{
  "_class": "symbolInstance",
  "booleanOperation": 0,
  "do_objectID": "C18370D9-892B-44D5-BA8E-06E854AB9622",
  "exportOptions": {
    "_class": "exportOptions",
    "do_objectID": "7A02A7EC-B041-4537-9B48-0897C72AEBD3",
    "exportFormats": [
    ],
    "includedLayerIds": [
    ],
    "layerOptions": 0,
    "shouldTrim": false
  },
  "frame": {
    "_class": "rect",
    "constrainProportions": false,
    "do_objectID": "9920202E-6E4D-4EA9-A38D-14C2FBDEEFA5",
    "height": 80,
    "width": 768,
    "x": 0,
    "y": 320
  },
  "horizontalSpacing": 0,
  "isFixedToViewport": false,
  "isFlippedHorizontal": false,
  "isFlippedVertical": false,
  "isLocked": false,
  "isVisible": true,
  "layerListExpandedType": 0,
  "name": "25h8/chat/chat-list-item",
  "nameIsFixed": false,
  "overrideValues": [
  ],
  "resizingConstraint": 63,
  "resizingType": 0,
  "rotation": 0,
  "scale": 1,
  "shouldBreakMaskChain": false,
  "style": {
    "_class": "style",
    "do_objectID": "A7CB3B13-CFC9-425D-ADC4-FD340CF2464E",
    "endMarkerType": 0,
    "miterLimit": 10,
    "startMarkerType": 0,
    "windingRule": 1
  },
  "symbolID": "359A9BD0-A10E-45CA-B6B3-22CDD16204F7",
  "verticalSpacing": 0
}