{
  "_class": "group",
  "booleanOperation": 0,
  "do_objectID": "AAAEA39A-69DC-4AF2-8405-BCA21B86377B",
  "exportOptions": {
    "_class": "exportOptions",
    "do_objectID": "4C3F6E38-AFF4-4A68-9F70-DC20C8FCA345",
    "exportFormats": [
    ],
    "includedLayerIds": [
    ],
    "layerOptions": 0,
    "shouldTrim": false
  },
  "frame": {
    "_class": "rect",
    "constrainProportions": false,
    "do_objectID": "17B25379-B5E7-4F03-8617-A454F08F01F9",
    "height": 48,
    "width": 48,
    "x": 0,
    "y": 0
  },
  "hasClickThrough": false,
  "isFixedToViewport": false,
  "isFlippedHorizontal": false,
  "isFlippedVertical": false,
  "isLocked": false,
  "isVisible": true,
  "layerListExpandedType": 0,
  "layers": [
    {
      "class": "group",
      "id": "86EED323-0207-410B-B01F-EBE5A6F3CE45"
    }
  ],
  "name": "25h8/chat/product-icon/trade/trade-default",
  "nameIsFixed": true,
  "originalObjectID": "D6267724-DBE7-46E7-A108-033C4235ADFC",
  "resizingConstraint": 63,
  "resizingType": 0,
  "rotation": 0,
  "shouldBreakMaskChain": false,
  "style": {
    "_class": "style",
    "do_objectID": "63A8C26C-661B-4EA7-B30B-3CD588512CCB",
    "endMarkerType": 0,
    "miterLimit": 10,
    "shadows": [
      {
        "_class": "shadow",
        "blurRadius": 4,
        "color": {
          "_class": "color",
          "alpha": 0.24,
          "blue": 0,
          "green": 0,
          "red": 0
        },
        "contextSettings": {
          "_class": "graphicsContextSettings",
          "blendMode": 0,
          "opacity": 1
        },
        "isEnabled": true,
        "offsetX": 0,
        "offsetY": 2,
        "spread": 0
      }
    ],
    "startMarkerType": 0,
    "windingRule": 1
  }
}