{
  "_class": "symbolMaster",
  "backgroundColor": {
    "_class": "color",
    "alpha": 1,
    "blue": 1,
    "do_objectID": "874807B1-DF6D-4620-B22B-26976F4A86CD",
    "green": 1,
    "red": 1
  },
  "booleanOperation": 0,
  "changeIdentifier": 278,
  "do_objectID": "EFA0A6C2-866C-44BF-9E7C-387D26E51A6B",
  "exportOptions": {
    "_class": "exportOptions",
    "do_objectID": "0FF9B140-C369-4B08-BC59-D45C7AE15EC8",
    "exportFormats": [
      {
        "_class": "exportFormat",
        "absoluteSize": 0,
        "fileFormat": "svg",
        "name": "",
        "namingScheme": 0,
        "scale": 1,
        "visibleScaleType": 0
      }
    ],
    "includedLayerIds": [
    ],
    "layerOptions": 0,
    "shouldTrim": false
  },
  "frame": {
    "_class": "rect",
    "constrainProportions": false,
    "do_objectID": "4BE6AA72-9850-4E31-830E-8777650A3EE5",
    "height": 40,
    "width": 40,
    "x": 2488,
    "y": 75
  },
  "hasBackgroundColor": false,
  "hasClickThrough": false,
  "horizontalRulerData": {
    "_class": "rulerData",
    "base": 0,
    "do_objectID": "4D92DA8E-55A6-491F-8DCA-182CA0E1B058",
    "guides": [
    ]
  },
  "includeBackgroundColorInExport": true,
  "includeBackgroundColorInInstance": false,
  "includeInCloudUpload": true,
  "isFixedToViewport": false,
  "isFlippedHorizontal": false,
  "isFlippedVertical": false,
  "isFlowHome": false,
  "isLocked": false,
  "isVisible": true,
  "layerListExpandedType": 2,
  "layers": [
    {
      "class": "shapeGroup",
      "id": "563B9ADA-962A-4719-AAAA-605892B93D73"
    }
  ],
  "name": "25h8/chat/mat-icon-button/filter-list/filter-list-hover",
  "nameIsFixed": true,
  "resizesContent": false,
  "resizingConstraint": 63,
  "resizingType": 0,
  "rotation": 0,
  "shouldBreakMaskChain": true,
  "style": {
    "_class": "style",
    "do_objectID": "1A35E954-98C3-46E3-AAB7-FBEFDF9B3D08",
    "endMarkerType": 0,
    "miterLimit": 10,
    "startMarkerType": 0,
    "windingRule": 1
  },
  "symbolID": "85D22105-B3C4-4186-923E-BF6BC7071407",
  "verticalRulerData": {
    "_class": "rulerData",
    "base": 0,
    "do_objectID": "0B3E7CE8-DFA8-4D40-B659-F8F7DB1974E2",
    "guides": [
    ]
  }
}