{
  "_class": "group",
  "booleanOperation": 0,
  "do_objectID": "0E60694B-5242-40FB-94B8-A4DA317C6777",
  "exportOptions": {
    "_class": "exportOptions",
    "do_objectID": "BDD1C259-1170-4611-B0B2-6A25B70F9E41",
    "exportFormats": [
    ],
    "includedLayerIds": [
    ],
    "layerOptions": 0,
    "shouldTrim": false
  },
  "frame": {
    "_class": "rect",
    "constrainProportions": false,
    "do_objectID": "EDEBB360-4E32-4FDA-9C03-A4BC58C17669",
    "height": 24,
    "width": 52,
    "x": 0,
    "y": 0
  },
  "hasClickThrough": false,
  "isFixedToViewport": false,
  "isFlippedHorizontal": false,
  "isFlippedVertical": false,
  "isLocked": false,
  "isVisible": true,
  "layerListExpandedType": 0,
  "layers": [
    {
      "class": "shapeGroup",
      "id": "DC5728D9-0CF2-4022-97A3-D3783BB5FEFD"
    },
    {
      "class": "text",
      "id": "32BEEA9C-459B-4DFF-A139-ADA852F22659"
    },
    {
      "class": "group",
      "id": "D9B338F6-A73B-4480-94A3-BC569F2E521A"
    }
  ],
  "name": "Group",
  "nameIsFixed": false,
  "resizingConstraint": 63,
  "resizingType": 0,
  "rotation": 0,
  "shouldBreakMaskChain": false,
  "style": {
    "_class": "style",
    "do_objectID": "F3AB4C26-A4C3-4B08-A5FB-04123123351F",
    "endMarkerType": 0,
    "miterLimit": 10,
    "startMarkerType": 0,
    "windingRule": 1
  }
}