{
  "_class": "symbolInstance",
  "booleanOperation": 0,
  "do_objectID": "4B6C6A3D-CD48-405A-9E92-967D2D11938D",
  "exportOptions": {
    "_class": "exportOptions",
    "do_objectID": "086F9423-264F-416D-9FAF-17C6A25262CB",
    "exportFormats": [
    ],
    "includedLayerIds": [
    ],
    "layerOptions": 0,
    "shouldTrim": false
  },
  "frame": {
    "_class": "rect",
    "constrainProportions": false,
    "do_objectID": "B0CDDDF0-C397-4BB9-8BE5-C2C5C92E868C",
    "height": 80,
    "width": 768,
    "x": 0,
    "y": 80
  },
  "horizontalSpacing": 0,
  "isFixedToViewport": false,
  "isFlippedHorizontal": false,
  "isFlippedVertical": false,
  "isLocked": false,
  "isVisible": true,
  "layerListExpandedType": 0,
  "name": "chat",
  "nameIsFixed": false,
  "overrideValues": [
  ],
  "resizingConstraint": 63,
  "resizingType": 0,
  "rotation": 0,
  "scale": 1,
  "shouldBreakMaskChain": false,
  "style": {
    "_class": "style",
    "do_objectID": "9FCB9703-6092-4019-A58E-3623123A95E1",
    "endMarkerType": 0,
    "miterLimit": 10,
    "startMarkerType": 0,
    "windingRule": 1
  },
  "symbolID": "354FBB6F-1C1B-4750-B4DF-980131E24683",
  "verticalSpacing": 0
}