{
  "_class": "symbolMaster",
  "backgroundColor": {
    "_class": "color",
    "alpha": 1,
    "blue": 1,
    "do_objectID": "43CE4A1F-6D8C-483D-A182-E31584D6B867",
    "green": 1,
    "red": 1
  },
  "booleanOperation": 0,
  "changeIdentifier": 1473,
  "do_objectID": "4E9B07F7-AE02-4408-89BA-40E9CB395613",
  "exportOptions": {
    "_class": "exportOptions",
    "do_objectID": "32F5A2D0-11A1-44D8-A77D-2CF96FD3636C",
    "exportFormats": [
    ],
    "includedLayerIds": [
    ],
    "layerOptions": 0,
    "shouldTrim": false
  },
  "frame": {
    "_class": "rect",
    "constrainProportions": false,
    "do_objectID": "267F4F76-9B58-41E3-8FA9-501D85B171D2",
    "height": 787,
    "width": 320,
    "x": -1559,
    "y": 115
  },
  "hasBackgroundColor": false,
  "hasClickThrough": true,
  "horizontalRulerData": {
    "_class": "rulerData",
    "base": 0,
    "do_objectID": "C2F7DB8B-B965-4A43-B5B8-AF2F4EC34D9B",
    "guides": [
    ]
  },
  "includeBackgroundColorInExport": true,
  "includeBackgroundColorInInstance": false,
  "includeInCloudUpload": true,
  "isFixedToViewport": false,
  "isFlippedHorizontal": false,
  "isFlippedVertical": false,
  "isFlowHome": false,
  "isLocked": false,
  "isVisible": true,
  "layerListExpandedType": 0,
  "layers": [
    {
      "class": "group",
      "id": "E847B818-292F-46F2-B07F-5039C453EBFF"
    }
  ],
  "name": "25h8/chat/mat-sidenav-content/mat-sidenav-content-my-chats-active",
  "nameIsFixed": true,
  "resizesContent": false,
  "resizingConstraint": 63,
  "resizingType": 0,
  "rotation": 0,
  "shouldBreakMaskChain": true,
  "style": {
    "_class": "style",
    "do_objectID": "2AA848B4-A4DB-4187-BC00-02491B58AD81",
    "endMarkerType": 0,
    "miterLimit": 10,
    "startMarkerType": 0,
    "windingRule": 1
  },
  "symbolID": "F14964E3-5B64-434C-89DD-997394847056",
  "verticalRulerData": {
    "_class": "rulerData",
    "base": 0,
    "do_objectID": "FB4E0383-ED95-4C69-B4C3-438FAF219199",
    "guides": [
    ]
  }
}