{
  "_class": "rectangle",
  "booleanOperation": 0,
  "do_objectID": "3CBA8C9D-CA43-487E-86D9-E44CE21D5EA4",
  "edited": true,
  "exportOptions": {
    "_class": "exportOptions",
    "do_objectID": "512D2997-6DCE-41E0-B5D7-F7140F6FC227",
    "exportFormats": [
    ],
    "includedLayerIds": [
    ],
    "layerOptions": 0,
    "shouldTrim": false
  },
  "fixedRadius": 0,
  "frame": {
    "_class": "rect",
    "constrainProportions": false,
    "do_objectID": "66544763-4DF4-4C3A-84DF-D6E63AF9C4D0",
    "height": 6,
    "width": 15.08935546875,
    "x": -0.8685170918213299,
    "y": 10
  },
  "hasConvertedToNewRoundCorners": true,
  "isClosed": true,
  "isFixedToViewport": false,
  "isFlippedHorizontal": false,
  "isFlippedVertical": false,
  "isLocked": false,
  "isVisible": true,
  "layerListExpandedType": 0,
  "name": "Path",
  "nameIsFixed": false,
  "pointRadiusBehaviour": 1,
  "points": [
    {
      "_class": "curvePoint",
      "cornerRadius": 0,
      "curveFrom": "{0.26508753195482637, 0}",
      "curveMode": 1,
      "curveTo": "{0.26508753195482637, 0}",
      "hasCurveFrom": false,
      "hasCurveTo": false,
      "point": "{0.26508753195482637, 0}"
    },
    {
      "_class": "curvePoint",
      "cornerRadius": 0,
      "curveFrom": "{0.72899071287577277, 0}",
      "curveMode": 1,
      "curveTo": "{0.72899071287577277, 0}",
      "hasCurveFrom": false,
      "hasCurveTo": false,
      "point": "{0.72899071287577277, 0}"
    },
    {
      "_class": "curvePoint",
      "cornerRadius": 1,
      "curveFrom": "{1, 1}",
      "curveMode": 1,
      "curveTo": "{1, 1}",
      "hasCurveFrom": false,
      "hasCurveTo": false,
      "point": "{1, 1}"
    },
    {
      "_class": "curvePoint",
      "cornerRadius": 1,
      "curveFrom": "{0, 1}",
      "curveMode": 1,
      "curveTo": "{0, 1}",
      "hasCurveFrom": false,
      "hasCurveTo": false,
      "point": "{0, 1}"
    }
  ],
  "resizingConstraint": 63,
  "resizingType": 0,
  "rotation": 0,
  "shouldBreakMaskChain": false
}