{
  "_class": "shapeGroup",
  "booleanOperation": 0,
  "clippingMaskMode": 0,
  "do_objectID": "14750D18-75B8-4D4F-A8A7-5E760E6D8417",
  "exportOptions": {
    "_class": "exportOptions",
    "do_objectID": "F441790B-D486-463E-8926-E5A2A8B8674D",
    "exportFormats": [
    ],
    "includedLayerIds": [
    ],
    "layerOptions": 0,
    "shouldTrim": false
  },
  "frame": {
    "_class": "rect",
    "constrainProportions": false,
    "do_objectID": "00F17078-C740-4178-AEF9-C95209342CB8",
    "height": 12.00002971999817,
    "width": 7.413989545160602,
    "x": 15.99950933002401,
    "y": 13.99806940011581
  },
  "hasClickThrough": false,
  "hasClippingMask": false,
  "isFixedToViewport": false,
  "isFlippedHorizontal": false,
  "isFlippedVertical": false,
  "isLocked": false,
  "isVisible": true,
  "layerListExpandedType": 0,
  "layers": [
    {
      "class": "shapePath",
      "id": "A759D131-1818-4D3A-90D5-D5F0B7295DDB"
    }
  ],
  "name": "chevron left",
  "nameIsFixed": true,
  "originalObjectID": "B0C8ABEA-5151-4B4C-B801-4F4B23EF1AA5",
  "resizingConstraint": 63,
  "resizingType": 0,
  "rotation": -90,
  "shouldBreakMaskChain": false,
  "style": {
    "_class": "style",
    "do_objectID": "B48E3700-63E8-4251-8552-BA10D89BCE17",
    "endMarkerType": 0,
    "fills": [
      {
        "_class": "fill",
        "color": {
          "_class": "color",
          "alpha": 0.54,
          "blue": 0,
          "green": 0,
          "red": 0
        },
        "fillType": 0,
        "isEnabled": true,
        "noiseIndex": 0,
        "noiseIntensity": 0,
        "patternFillType": 0,
        "patternTileScale": 1
      }
    ],
    "miterLimit": 10,
    "sharedObjectID": "0261879A-372D-491B-8108-FCA089D037C4",
    "startMarkerType": 0,
    "windingRule": 1
  },
  "userInfo": {
    "com.animaapp.stc-sketch-plugin": {
      "kModelPropertiesKey": {
      }
    }
  },
  "windingRule": 1
}