{
  "_class": "symbolInstance",
  "booleanOperation": 0,
  "do_objectID": "6EEB9639-95EC-4B5C-92EA-11A40FCBD2C5",
  "exportOptions": {
    "_class": "exportOptions",
    "do_objectID": "D97A9D6D-F78A-429B-AF8E-C5A96396176F",
    "exportFormats": [
    ],
    "includedLayerIds": [
    ],
    "layerOptions": 0,
    "shouldTrim": false
  },
  "frame": {
    "_class": "rect",
    "constrainProportions": false,
    "do_objectID": "FA6C2F7C-C651-48BA-8490-CB74F84B1C22",
    "height": 40,
    "width": 40,
    "x": 100,
    "y": 4
  },
  "horizontalSpacing": 0,
  "isFixedToViewport": false,
  "isFlippedHorizontal": false,
  "isFlippedVertical": false,
  "isLocked": false,
  "isVisible": true,
  "layerListExpandedType": 0,
  "name": "25h8/chat/mat-icon-button/file/file-defaul-white copy",
  "nameIsFixed": false,
  "overrideValues": [
  ],
  "resizingConstraint": 63,
  "resizingType": 0,
  "rotation": 0,
  "scale": 1,
  "shouldBreakMaskChain": false,
  "style": {
    "_class": "style",
    "do_objectID": "BB69464E-E1D7-4722-B2A4-89FCCAF48090",
    "endMarkerType": 0,
    "miterLimit": 10,
    "startMarkerType": 0,
    "windingRule": 1
  },
  "symbolID": "008A98B7-9D0B-4BBA-9456-5E245389D806",
  "verticalSpacing": 0
}