{
  "_class": "group",
  "booleanOperation": 0,
  "do_objectID": "76559071-5C60-45EF-AB40-20F7719B52E3",
  "exportOptions": {
    "_class": "exportOptions",
    "do_objectID": "C384A825-C5FE-4A3F-9FD6-866D7FEB5D5F",
    "exportFormats": [
    ],
    "includedLayerIds": [
    ],
    "layerOptions": 0,
    "shouldTrim": false
  },
  "frame": {
    "_class": "rect",
    "constrainProportions": false,
    "do_objectID": "2A977B93-5253-42D0-99A0-0A2A8B36930D",
    "height": 215,
    "width": 248,
    "x": 0,
    "y": 0
  },
  "hasClickThrough": false,
  "isFixedToViewport": false,
  "isFlippedHorizontal": false,
  "isFlippedVertical": false,
  "isLocked": false,
  "isVisible": true,
  "layerListExpandedType": 2,
  "layers": [
    {
      "class": "shapeGroup",
      "id": "07488C8E-2069-4377-9081-D48B301705BC"
    }
  ],
  "name": "language-menu",
  "nameIsFixed": true,
  "resizingConstraint": 63,
  "resizingType": 0,
  "rotation": 0,
  "shouldBreakMaskChain": false,
  "style": {
    "_class": "style",
    "do_objectID": "6DAD7513-F81B-408E-AAF1-0FD57F450F52",
    "endMarkerType": 0,
    "miterLimit": 10,
    "startMarkerType": 0,
    "windingRule": 1
  }
}