{
  "_class": "symbolInstance",
  "booleanOperation": 0,
  "do_objectID": "4BF2B281-2190-491F-A578-89EF6545BE23",
  "exportOptions": {
    "_class": "exportOptions",
    "do_objectID": "8EE4EAED-2639-480E-B600-747A97B3622F",
    "exportFormats": [
    ],
    "includedLayerIds": [
    ],
    "layerOptions": 0,
    "shouldTrim": false
  },
  "frame": {
    "_class": "rect",
    "constrainProportions": false,
    "do_objectID": "7DABAA3A-3AE4-4981-876D-17B54EC823C2",
    "height": 30,
    "width": 1280,
    "x": 0,
    "y": 820
  },
  "horizontalSpacing": 0,
  "isFixedToViewport": false,
  "isFlippedHorizontal": false,
  "isFlippedVertical": false,
  "isLocked": false,
  "isVisible": true,
  "layerListExpandedType": 0,
  "name": "25h8/chat/primary-footer",
  "nameIsFixed": false,
  "overrideValues": [
  ],
  "resizingConstraint": 63,
  "resizingType": 0,
  "rotation": 0,
  "scale": 1,
  "shouldBreakMaskChain": false,
  "style": {
    "_class": "style",
    "do_objectID": "DE4D8644-B466-4C98-A53C-3C2F3FED44B2",
    "endMarkerType": 0,
    "miterLimit": 10,
    "startMarkerType": 0,
    "windingRule": 1
  },
  "symbolID": "961ECB26-8895-4CD9-B642-C33CB958259C",
  "verticalSpacing": 0
}