{
  "_class": "artboard",
  "backgroundColor": {
    "_class": "color",
    "alpha": 1,
    "blue": 1,
    "do_objectID": "1D77CCEE-3BD9-4B27-B69D-8A2ADCFF268B",
    "green": 1,
    "red": 1
  },
  "booleanOperation": 0,
  "do_objectID": "1EF0F9E9-8A08-479D-9DDB-7B6E61C4C51F",
  "exportOptions": {
    "_class": "exportOptions",
    "do_objectID": "A5579D90-6DDA-4791-ACA5-15E945863237",
    "exportFormats": [
    ],
    "includedLayerIds": [
    ],
    "layerOptions": 0,
    "shouldTrim": false
  },
  "frame": {
    "_class": "rect",
    "constrainProportions": false,
    "do_objectID": "239B646D-F4DE-46F4-BCDC-20D3B709E1F9",
    "height": 850,
    "width": 1280,
    "x": 1445,
    "y": -1040
  },
  "hasBackgroundColor": false,
  "hasClickThrough": true,
  "horizontalRulerData": {
    "_class": "rulerData",
    "base": 0,
    "do_objectID": "0BEB8D28-9921-42DA-9DDE-B789FEFB088A",
    "guides": [
    ]
  },
  "includeBackgroundColorInExport": true,
  "includeInCloudUpload": true,
  "isFixedToViewport": false,
  "isFlippedHorizontal": false,
  "isFlippedVertical": false,
  "isFlowHome": false,
  "isLocked": false,
  "isVisible": true,
  "layerListExpandedType": 2,
  "layers": [
    {
      "class": "symbolInstance",
      "id": "4BF2B281-2190-491F-A578-89EF6545BE23"
    },
    {
      "class": "symbolInstance",
      "id": "92319372-4626-47B8-A4E2-43B35F4D877A"
    },
    {
      "class": "symbolInstance",
      "id": "3314A57B-AF68-496D-B434-EA6A34009685"
    },
    {
      "class": "symbolInstance",
      "id": "24DC0432-F02E-427A-9130-299773DC542C"
    },
    {
      "class": "symbolInstance",
      "id": "7DA6E404-F4FC-4A72-9487-12B8B9DBB894"
    },
    {
      "class": "symbolInstance",
      "id": "70F9A895-B48A-4AAF-91DF-758AE8356EFA"
    },
    {
      "class": "symbolInstance",
      "id": "FC783803-779C-4CA2-9A72-9B6964A71675"
    }
  ],
  "name": "25h8-chat-mychat-search-result-1280",
  "nameIsFixed": true,
  "resizesContent": false,
  "resizingConstraint": 63,
  "resizingType": 0,
  "rotation": 0,
  "shouldBreakMaskChain": true,
  "style": {
    "_class": "style",
    "do_objectID": "317A2AC1-DC6E-4726-BF20-310150969631",
    "endMarkerType": 0,
    "miterLimit": 10,
    "startMarkerType": 0,
    "windingRule": 1
  },
  "verticalRulerData": {
    "_class": "rulerData",
    "base": 0,
    "do_objectID": "CDC11EB6-448B-4653-863D-86348ABCF65D",
    "guides": [
    ]
  }
}