{
  "_class": "symbolMaster",
  "backgroundColor": {
    "_class": "color",
    "alpha": 1,
    "blue": 1,
    "do_objectID": "AE4888BA-9B6E-45CE-8F72-E97BB3EFB498",
    "green": 1,
    "red": 1
  },
  "booleanOperation": 0,
  "changeIdentifier": 1581,
  "do_objectID": "1A410286-55F4-47D8-915A-C288EB208CF8",
  "exportOptions": {
    "_class": "exportOptions",
    "do_objectID": "EFC086E6-864C-4322-816F-1DB68F8EE713",
    "exportFormats": [
    ],
    "includedLayerIds": [
    ],
    "layerOptions": 0,
    "shouldTrim": false
  },
  "frame": {
    "_class": "rect",
    "constrainProportions": false,
    "do_objectID": "3241838B-2E3A-494A-BA91-6D73C7BA8F73",
    "height": 48,
    "width": 304,
    "x": -931,
    "y": 288
  },
  "hasBackgroundColor": false,
  "hasClickThrough": true,
  "horizontalRulerData": {
    "_class": "rulerData",
    "base": 0,
    "do_objectID": "EA056D76-5F74-49E6-AAED-38F99A700155",
    "guides": [
    ]
  },
  "includeBackgroundColorInExport": true,
  "includeBackgroundColorInInstance": false,
  "includeInCloudUpload": true,
  "isFixedToViewport": false,
  "isFlippedHorizontal": false,
  "isFlippedVertical": false,
  "isFlowHome": false,
  "isLocked": false,
  "isVisible": true,
  "layerListExpandedType": 2,
  "layers": [
    {
      "class": "shapeGroup",
      "id": "E2BFCCE4-0927-457F-8408-7636E86BEEED"
    },
    {
      "class": "shapeGroup",
      "id": "ECC59E75-7C68-4092-900A-CF156EA48567"
    },
    {
      "class": "text",
      "id": "275A5050-4B9F-4DE5-B5E0-A30A5A083CE3"
    },
    {
      "class": "symbolInstance",
      "id": "AFD19677-2C78-4E4C-8152-F75D813C84FE"
    }
  ],
  "name": "25h8/chat/mat-sidenav-content/mat-sidenav-content/mat-menu-item-primary-activated",
  "nameIsFixed": true,
  "resizesContent": true,
  "resizingConstraint": 63,
  "resizingType": 0,
  "rotation": 0,
  "shouldBreakMaskChain": true,
  "style": {
    "_class": "style",
    "do_objectID": "D0A7F448-76AD-4A66-B90A-06E07F95553A",
    "endMarkerType": 0,
    "miterLimit": 10,
    "startMarkerType": 0,
    "windingRule": 1
  },
  "symbolID": "DBF8C1B6-4168-49A4-955D-27D6E08A756E",
  "verticalRulerData": {
    "_class": "rulerData",
    "base": 0,
    "do_objectID": "904887BA-1F5D-486D-AAA5-4A7583A5BF35",
    "guides": [
    ]
  }
}