{
  "_class": "oval",
  "booleanOperation": -1,
  "do_objectID": "BBF523A0-0DF7-4988-8434-3218EE98D5A5",
  "edited": true,
  "exportOptions": {
    "_class": "exportOptions",
    "exportFormats": [
    ],
    "includedLayerIds": [
    ],
    "layerOptions": 0,
    "shouldTrim": false
  },
  "frame": {
    "_class": "rect",
    "constrainProportions": false,
    "height": 37.99999999999952,
    "width": 37.99999999999996,
    "x": 0,
    "y": 0
  },
  "isClosed": true,
  "isFixedToViewport": false,
  "isFlippedHorizontal": false,
  "isFlippedVertical": false,
  "isLocked": false,
  "isVisible": true,
  "layerListExpandedType": 0,
  "name": "Path",
  "nameIsFixed": false,
  "pointRadiusBehaviour": 0,
  "points": [
    {
      "_class": "curvePoint",
      "cornerRadius": 0,
      "curveFrom": "{0.77614237490000093, 1}",
      "curveMode": 2,
      "curveTo": "{0.22385762510000026, 1}",
      "hasCurveFrom": true,
      "hasCurveTo": true,
      "point": "{0.5, 1}"
    },
    {
      "_class": "curvePoint",
      "cornerRadius": 0,
      "curveFrom": "{1, 0.43016472357402713}",
      "curveMode": 3,
      "curveTo": "{1, 0.77614237490000748}",
      "hasCurveFrom": true,
      "hasCurveTo": true,
      "point": "{1, 0.50000000000000533}"
    },
    {
      "_class": "curvePoint",
      "cornerRadius": 0,
      "curveFrom": "{0.994007933458676, -0.022208252659358343}",
      "curveMode": 1,
      "curveTo": "{1.0059920665413242, 0.17552378711948963}",
      "hasCurveFrom": false,
      "hasCurveTo": false,
      "point": "{1, 0.076657767230065649}"
    },
    {
      "_class": "curvePoint",
      "cornerRadius": 0,
      "curveFrom": "{0.95530500352790115, 0.0041580210828710811}",
      "curveMode": 2,
      "curveTo": "{0.99508302326282339, 0.042646045680716546}",
      "hasCurveFrom": true,
      "hasCurveTo": true,
      "point": "{0.97519401339536227, 0.023402033381793811}"
    },
    {
      "_class": "curvePoint",
      "cornerRadius": 0,
      "curveFrom": "{0.98365035929262368, 0}",
      "curveMode": 3,
      "curveTo": "{0.92077291028640307, 0}",
      "hasCurveFrom": true,
      "hasCurveTo": true,
      "point": "{0.92077291028640307, 0}"
    },
    {
      "_class": "curvePoint",
      "cornerRadius": 0,
      "curveFrom": "{0.22385762510000023, -3.0357660829594124e-17}",
      "curveMode": 3,
      "curveTo": "{0.6217179995438884, 6.0715321659188248e-18}",
      "hasCurveFrom": true,
      "hasCurveTo": true,
      "point": "{0.5, 4.3368086899420177e-18}"
    },
    {
      "_class": "curvePoint",
      "cornerRadius": 0,
      "curveFrom": "{0, 0.77614237490000748}",
      "curveMode": 2,
      "curveTo": "{0, 0.22385762510000221}",
      "hasCurveFrom": true,
      "hasCurveTo": true,
      "point": "{0, 0.50000000000000533}"
    }
  ],
  "resizingConstraint": 63,
  "resizingType": 0,
  "rotation": 0,
  "shouldBreakMaskChain": false
}