{
  "_class": "shapePath",
  "booleanOperation": -1,
  "do_objectID": "E9CE808D-F10C-4701-92B5-F8701697BB92",
  "edited": true,
  "exportOptions": {
    "_class": "exportOptions",
    "exportFormats": [
    ],
    "includedLayerIds": [
    ],
    "layerOptions": 0,
    "shouldTrim": false
  },
  "frame": {
    "_class": "rect",
    "constrainProportions": false,
    "height": 4.714285714285697,
    "width": 4.592333333333317,
    "x": 3.066666666666606,
    "y": 0
  },
  "isClosed": true,
  "isFixedToViewport": false,
  "isFlippedHorizontal": false,
  "isFlippedVertical": false,
  "isLocked": false,
  "isVisible": true,
  "layerListExpandedType": 0,
  "name": "Path",
  "nameIsFixed": false,
  "pointRadiusBehaviour": 0,
  "points": [
    {
      "_class": "curvePoint",
      "cornerRadius": 0,
      "curveFrom": "{0.77712854757929872, 1}",
      "curveMode": 2,
      "curveTo": "{0.22454090150250414, 1}",
      "hasCurveFrom": true,
      "hasCurveTo": true,
      "point": "{0.5008347245409015, 1}"
    },
    {
      "_class": "curvePoint",
      "cornerRadius": 0,
      "curveFrom": "{1, 0.22416666666666676}",
      "curveMode": 2,
      "curveTo": "{1, 0.77583333333333326}",
      "hasCurveFrom": true,
      "hasCurveTo": true,
      "point": "{1, 0.5}"
    },
    {
      "_class": "curvePoint",
      "cornerRadius": 0,
      "curveFrom": "{0.22454090150250414, 0}",
      "curveMode": 2,
      "curveTo": "{0.77712854757929895, 0}",
      "hasCurveFrom": true,
      "hasCurveTo": true,
      "point": "{0.5008347245409015, 0}"
    },
    {
      "_class": "curvePoint",
      "cornerRadius": 0,
      "curveFrom": "{0, 0.77583333333333349}",
      "curveMode": 2,
      "curveTo": "{0, 0.22416666666666663}",
      "hasCurveFrom": true,
      "hasCurveTo": true,
      "point": "{0, 0.5}"
    }
  ],
  "resizingConstraint": 63,
  "resizingType": 0,
  "rotation": 0,
  "shouldBreakMaskChain": false
}