{
  "_class": "symbolMaster",
  "backgroundColor": {
    "_class": "color",
    "alpha": 1,
    "blue": 1,
    "do_objectID": "A831EE3B-433A-4B47-8F6F-518A53F30DDF",
    "green": 1,
    "red": 1
  },
  "booleanOperation": 0,
  "changeIdentifier": 995,
  "do_objectID": "15C16408-5722-42A4-90AA-6D4664EF2924",
  "exportOptions": {
    "_class": "exportOptions",
    "do_objectID": "79E57AAD-A08F-40E0-8925-3741221AC287",
    "exportFormats": [
      {
        "_class": "exportFormat",
        "absoluteSize": 0,
        "fileFormat": "svg",
        "name": "",
        "namingScheme": 0,
        "scale": 1,
        "visibleScaleType": 0
      }
    ],
    "includedLayerIds": [
    ],
    "layerOptions": 0,
    "shouldTrim": false
  },
  "frame": {
    "_class": "rect",
    "constrainProportions": false,
    "do_objectID": "671F223E-F999-4AD1-80F7-A9D3080F6E84",
    "height": 40,
    "width": 40,
    "x": 1264,
    "y": -53
  },
  "hasBackgroundColor": false,
  "hasClickThrough": true,
  "horizontalRulerData": {
    "_class": "rulerData",
    "base": 0,
    "do_objectID": "C9860143-35A2-46AF-AC21-308E628676C1",
    "guides": [
    ]
  },
  "includeBackgroundColorInExport": true,
  "includeBackgroundColorInInstance": true,
  "includeInCloudUpload": true,
  "isFixedToViewport": false,
  "isFlippedHorizontal": false,
  "isFlippedVertical": false,
  "isFlowHome": false,
  "isLocked": false,
  "isVisible": true,
  "layerListExpandedType": 2,
  "layers": [
    {
      "class": "shapeGroup",
      "id": "8987F342-57A5-4A59-A7EB-18FF7E10C1E2"
    }
  ],
  "name": "25h8/chat/mat-icon-button/setting/setting-white",
  "nameIsFixed": true,
  "originalObjectID": "022D1CB9-7194-4F32-B8E4-5EDA4295540C",
  "resizesContent": false,
  "resizingConstraint": 63,
  "resizingType": 0,
  "rotation": 0,
  "shouldBreakMaskChain": true,
  "style": {
    "_class": "style",
    "do_objectID": "32B77C59-4C1D-4F9A-98BF-FEC28D867B1C",
    "endMarkerType": 0,
    "miterLimit": 10,
    "startMarkerType": 0,
    "windingRule": 1
  },
  "symbolID": "C753F517-12FC-4639-98EF-D30FE9FDF13D",
  "verticalRulerData": {
    "_class": "rulerData",
    "base": 0,
    "do_objectID": "DC0BBAF1-7B5B-4F1D-8FC5-B358301C1ED4",
    "guides": [
    ]
  }
}