{
  "_class": "symbolInstance",
  "booleanOperation": 0,
  "do_objectID": "2A64E929-7DD4-4F4C-9F13-79F818EF3F48",
  "exportOptions": {
    "_class": "exportOptions",
    "do_objectID": "7300635F-9367-437B-A1D0-8E9EC126E5FF",
    "exportFormats": [
    ],
    "includedLayerIds": [
    ],
    "layerOptions": 0,
    "shouldTrim": false
  },
  "frame": {
    "_class": "rect",
    "constrainProportions": false,
    "do_objectID": "C425BA72-3202-4782-918E-0D3D6E3F9CE4",
    "height": 48,
    "width": 304,
    "x": 848,
    "y": 464
  },
  "horizontalSpacing": 0,
  "isFixedToViewport": false,
  "isFlippedHorizontal": false,
  "isFlippedVertical": false,
  "isLocked": false,
  "isVisible": true,
  "layerListExpandedType": 0,
  "name": "25h8/chat/mat-sidenav-content/mat-sidenav-content/mat-menu-item-secondary-activated",
  "nameIsFixed": false,
  "overrideValues": [
  ],
  "resizingConstraint": 63,
  "resizingType": 0,
  "rotation": 0,
  "scale": 1,
  "shouldBreakMaskChain": false,
  "style": {
    "_class": "style",
    "do_objectID": "026B934C-F7A8-42AD-9277-0D1AD3569E88",
    "endMarkerType": 0,
    "miterLimit": 10,
    "startMarkerType": 0,
    "windingRule": 1
  },
  "symbolID": "7AB0F8FE-8D9C-4463-8FB9-C371EC0C6889",
  "verticalSpacing": 0
}