{
  "_class": "artboard",
  "backgroundColor": {
    "_class": "color",
    "alpha": 1,
    "blue": 1,
    "do_objectID": "C8BDAD9F-29EF-4BDA-A7BF-B53704765FA0",
    "green": 1,
    "red": 1
  },
  "booleanOperation": 0,
  "do_objectID": "26B143EF-30E1-4246-9F19-C198A2E4E4C3",
  "exportOptions": {
    "_class": "exportOptions",
    "do_objectID": "A21FFFE2-944D-4450-B824-2E47209B6B3D",
    "exportFormats": [
    ],
    "includedLayerIds": [
    ],
    "layerOptions": 0,
    "shouldTrim": false
  },
  "frame": {
    "_class": "rect",
    "constrainProportions": false,
    "do_objectID": "85446740-41E2-4748-89C8-290693EF8BEF",
    "height": 2164,
    "width": 1440,
    "x": 11375,
    "y": 12
  },
  "hasBackgroundColor": false,
  "hasClickThrough": false,
  "horizontalRulerData": {
    "_class": "rulerData",
    "base": 0,
    "do_objectID": "FC506982-0D18-48C5-8E99-6AD18D6DF900",
    "guides": [
    ]
  },
  "includeBackgroundColorInExport": true,
  "includeInCloudUpload": true,
  "isFixedToViewport": false,
  "isFlippedHorizontal": false,
  "isFlippedVertical": false,
  "isFlowHome": false,
  "isLocked": false,
  "isVisible": true,
  "layerListExpandedType": 2,
  "layers": [
    {
      "class": "group",
      "id": "7AF31431-803E-4262-967F-831B986810CE"
    },
    {
      "class": "text",
      "id": "CF3A33B6-3F00-4B32-AE4B-3FF58D2792F6"
    },
    {
      "class": "text",
      "id": "30D49A19-748E-4F07-8F45-D189C2FC018B"
    },
    {
      "class": "text",
      "id": "5C08444E-EC8D-4B77-915B-51F5139CA53C"
    },
    {
      "class": "symbolInstance",
      "id": "DAD0C6E5-4D32-4E57-96FA-3461AD0E84D1"
    },
    {
      "class": "symbolInstance",
      "id": "C8EF419E-F66F-4F4B-9772-F951ADB07AE3"
    },
    {
      "class": "shapeGroup",
      "id": "625619F4-22A1-4765-9534-DDE50B1F6C3A"
    },
    {
      "class": "text",
      "id": "EE6BDE40-21C8-4936-917B-EA60BDC6FD23"
    },
    {
      "class": "symbolInstance",
      "id": "AD3C9560-B132-482A-A23C-5AA3565A6D76"
    },
    {
      "class": "symbolInstance",
      "id": "886AC91D-32AF-4B02-B990-DA8CBF54AD76"
    },
    {
      "class": "symbolInstance",
      "id": "06462EDB-F74C-4A77-9B2C-208E9BD31A56"
    },
    {
      "class": "symbolInstance",
      "id": "B301D713-8044-416A-9A10-C53C1371AF09"
    },
    {
      "class": "symbolInstance",
      "id": "378DF41D-A679-4789-8B29-95A1F4EC19D0"
    },
    {
      "class": "symbolInstance",
      "id": "2A64E929-7DD4-4F4C-9F13-79F818EF3F48"
    },
    {
      "class": "text",
      "id": "093D5AF1-9C52-46F4-906F-FA9CF0F89F43"
    },
    {
      "class": "text",
      "id": "ED5FEBD3-0D12-4E86-B535-80A1CB31618E"
    },
    {
      "class": "text",
      "id": "E4ED6A22-25CB-4507-B86B-4B0C8061AFDF"
    },
    {
      "class": "text",
      "id": "BBFAF953-C0AD-4D2C-8502-8CA2E56FD7C3"
    },
    {
      "class": "text",
      "id": "0B565CF6-B22C-4B4D-ADD9-80CA1AE3E2FE"
    },
    {
      "class": "text",
      "id": "E06CEC86-DECE-45AC-8CCD-3191EA8C4C6B"
    },
    {
      "class": "text",
      "id": "45D2F288-C1D4-4B1F-8E00-B6E43B6D04D1"
    },
    {
      "class": "text",
      "id": "5F7EFBE3-0C12-4F07-8366-7FB3088294C7"
    },
    {
      "class": "text",
      "id": "D881348C-7EE5-47F9-A308-62F5D2D7759D"
    },
    {
      "class": "text",
      "id": "354473C5-B4F9-4219-AC76-936692967D07"
    },
    {
      "class": "text",
      "id": "308FB935-596F-4B3E-AF1D-432259447E7A"
    },
    {
      "class": "text",
      "id": "96C0D7C1-196C-4CA6-9E2E-CB16EF0E1D0D"
    },
    {
      "class": "symbolInstance",
      "id": "527A0D74-5527-4D82-BF9C-15F98C17499B"
    },
    {
      "class": "text",
      "id": "A8AB8FA8-2CE1-4BB3-81F4-D28A129B2D09"
    },
    {
      "class": "text",
      "id": "FF5ADF0F-324E-4BB6-9BAE-AF0204C79C8A"
    },
    {
      "class": "text",
      "id": "1D4F7059-0662-4494-A9A7-4DC3142B13B3"
    },
    {
      "class": "text",
      "id": "8081122A-76EC-4DB9-B936-B1A60F2687D7"
    },
    {
      "class": "symbolInstance",
      "id": "1CD2BE89-574D-4F5F-A689-9574285DADBC"
    },
    {
      "class": "symbolInstance",
      "id": "7B7D36C2-BAF2-4042-B3BA-080C4ADC4834"
    },
    {
      "class": "symbolInstance",
      "id": "9B4E10B1-3B75-4A79-9767-6CB275F88934"
    },
    {
      "class": "symbolInstance",
      "id": "A8D10FCC-69BC-4B4E-8680-C0DBA5096FDC"
    },
    {
      "class": "symbolInstance",
      "id": "DC40ED7F-C6FF-482E-BDD5-7E0F90A3EF8D"
    },
    {
      "class": "symbolInstance",
      "id": "8EBE37AA-8A8A-4B8E-ABB9-80F922ADA792"
    },
    {
      "class": "symbolInstance",
      "id": "6D380B9C-ED98-4909-8AC7-34CC1696B8A9"
    },
    {
      "class": "symbolInstance",
      "id": "941806FA-6AEE-44E9-BABC-E5A4DE6855A9"
    }
  ],
  "name": "Lists",
  "nameIsFixed": true,
  "resizesContent": false,
  "resizingConstraint": 63,
  "resizingType": 0,
  "rotation": 0,
  "shouldBreakMaskChain": true,
  "style": {
    "_class": "style",
    "do_objectID": "F8A2FFAC-A4F1-4699-8496-9B77A93A4760",
    "endMarkerType": 0,
    "miterLimit": 10,
    "startMarkerType": 0,
    "windingRule": 1
  },
  "verticalRulerData": {
    "_class": "rulerData",
    "base": 0,
    "do_objectID": "42449DD7-CF5B-4452-B449-676F723EC278",
    "guides": [
    ]
  }
}