{
  "_class": "symbolInstance",
  "booleanOperation": 0,
  "do_objectID": "905F0DB5-1D61-48BC-BADC-9ABA5A8D39D7",
  "exportOptions": {
    "_class": "exportOptions",
    "do_objectID": "32D005D3-B040-4912-99B3-FCD0934AFE74",
    "exportFormats": [
    ],
    "includedLayerIds": [
    ],
    "layerOptions": 0,
    "shouldTrim": false
  },
  "frame": {
    "_class": "rect",
    "constrainProportions": false,
    "do_objectID": "A0901457-7CE0-4114-A5C2-E3D86F56729D",
    "height": 40,
    "width": 40,
    "x": 724,
    "y": 8
  },
  "horizontalSpacing": 0,
  "isFixedToViewport": false,
  "isFlippedHorizontal": false,
  "isFlippedVertical": false,
  "isLocked": false,
  "isVisible": true,
  "layerListExpandedType": 0,
  "name": "25h8/chat/mat-icon-button/more-vert/more-vert-default",
  "nameIsFixed": false,
  "overrideValues": [
  ],
  "resizingConstraint": 63,
  "resizingType": 0,
  "rotation": 0,
  "scale": 1,
  "shouldBreakMaskChain": false,
  "style": {
    "_class": "style",
    "do_objectID": "62EE62C1-AB20-429E-8198-D285737F4326",
    "endMarkerType": 0,
    "miterLimit": 10,
    "startMarkerType": 0,
    "windingRule": 1
  },
  "symbolID": "885C0072-7A72-44AF-A691-C64B14C072C3",
  "verticalSpacing": 0
}