{
  "_class": "shapePath",
  "booleanOperation": 0,
  "do_objectID": "D787A83A-641C-4F78-AA37-EB46D8AC2B21",
  "edited": true,
  "exportOptions": {
    "_class": "exportOptions",
    "do_objectID": "237DA26F-C125-4941-A57F-31176AF4BEA8",
    "exportFormats": [
    ],
    "includedLayerIds": [
    ],
    "layerOptions": 0,
    "shouldTrim": false
  },
  "frame": {
    "_class": "rect",
    "constrainProportions": false,
    "do_objectID": "CEB8B1CD-57E2-4B86-B9D1-D5F617DF712D",
    "height": 9,
    "width": 9,
    "x": 5,
    "y": 5
  },
  "isClosed": true,
  "isFixedToViewport": false,
  "isFlippedHorizontal": false,
  "isFlippedVertical": false,
  "isLocked": false,
  "isVisible": true,
  "layerListExpandedType": 0,
  "name": "Shape",
  "nameIsFixed": false,
  "pointRadiusBehaviour": 0,
  "points": [
    {
      "_class": "curvePoint",
      "cornerRadius": 0,
      "curveFrom": "{1, 0.66666666666666663}",
      "curveMode": 1,
      "curveTo": "{1, 0.66666666666666663}",
      "hasCurveFrom": false,
      "hasCurveTo": false,
      "point": "{1, 0.66666666666666663}"
    },
    {
      "_class": "curvePoint",
      "cornerRadius": 0,
      "curveFrom": "{1, 0.030000000000000013}",
      "curveMode": 4,
      "curveTo": "{1, 0.066666666666666666}",
      "hasCurveFrom": true,
      "hasCurveTo": false,
      "point": "{1, 0.066666666666666666}"
    },
    {
      "_class": "curvePoint",
      "cornerRadius": 0,
      "curveFrom": "{0.93333333333333335, 0}",
      "curveMode": 4,
      "curveTo": "{0.97000000000000008, 0}",
      "hasCurveFrom": false,
      "hasCurveTo": true,
      "point": "{0.93333333333333335, 0}"
    },
    {
      "_class": "curvePoint",
      "cornerRadius": 0,
      "curveFrom": "{0.030000000000000013, 0}",
      "curveMode": 4,
      "curveTo": "{0.066666666666666666, 0}",
      "hasCurveFrom": true,
      "hasCurveTo": false,
      "point": "{0.066666666666666666, 0}"
    },
    {
      "_class": "curvePoint",
      "cornerRadius": 0,
      "curveFrom": "{0, 0.066666666666666666}",
      "curveMode": 4,
      "curveTo": "{0, 0.030000000000000013}",
      "hasCurveFrom": false,
      "hasCurveTo": true,
      "point": "{0, 0.066666666666666666}"
    },
    {
      "_class": "curvePoint",
      "cornerRadius": 0,
      "curveFrom": "{0, 1}",
      "curveMode": 1,
      "curveTo": "{0, 1}",
      "hasCurveFrom": false,
      "hasCurveTo": false,
      "point": "{0, 1}"
    },
    {
      "_class": "curvePoint",
      "cornerRadius": 0,
      "curveFrom": "{0.26666666666666666, 0.73333333333333328}",
      "curveMode": 1,
      "curveTo": "{0.26666666666666666, 0.73333333333333328}",
      "hasCurveFrom": false,
      "hasCurveTo": false,
      "point": "{0.26666666666666666, 0.73333333333333328}"
    },
    {
      "_class": "curvePoint",
      "cornerRadius": 0,
      "curveFrom": "{0.97000000000000008, 0.73333333333333328}",
      "curveMode": 4,
      "curveTo": "{0.93333333333333335, 0.73333333333333328}",
      "hasCurveFrom": true,
      "hasCurveTo": false,
      "point": "{0.93333333333333335, 0.73333333333333328}"
    },
    {
      "_class": "curvePoint",
      "cornerRadius": 0,
      "curveFrom": "{1, 0.66666666666666663}",
      "curveMode": 4,
      "curveTo": "{1, 0.70333333333333337}",
      "hasCurveFrom": false,
      "hasCurveTo": true,
      "point": "{1, 0.66666666666666663}"
    }
  ],
  "resizingConstraint": 63,
  "resizingType": 0,
  "rotation": 0,
  "shouldBreakMaskChain": false
}