{
  "_class": "symbolInstance",
  "booleanOperation": 0,
  "do_objectID": "552E0AF6-7A62-4BE9-A716-23BFAA4ECC56",
  "exportOptions": {
    "_class": "exportOptions",
    "do_objectID": "8807CCE2-4632-498E-965A-B0F6DB12EB3E",
    "exportFormats": [
    ],
    "includedLayerIds": [
    ],
    "layerOptions": 0,
    "shouldTrim": false
  },
  "frame": {
    "_class": "rect",
    "constrainProportions": false,
    "do_objectID": "DEAA2414-F748-45A2-823E-8CCE1F66EB2A",
    "height": 80,
    "width": 767.9999999999998,
    "x": 0,
    "y": 80
  },
  "horizontalSpacing": 0,
  "isFixedToViewport": false,
  "isFlippedHorizontal": false,
  "isFlippedVertical": false,
  "isLocked": false,
  "isVisible": true,
  "layerListExpandedType": 0,
  "name": "chat",
  "nameIsFixed": false,
  "overrideValues": [
  ],
  "resizingConstraint": 63,
  "resizingType": 0,
  "rotation": 0,
  "scale": 1,
  "shouldBreakMaskChain": false,
  "style": {
    "_class": "style",
    "do_objectID": "66F51C8E-A80D-49E9-B7CA-39476A8347ED",
    "endMarkerType": 0,
    "miterLimit": 10,
    "startMarkerType": 0,
    "windingRule": 1
  },
  "symbolID": "354FBB6F-1C1B-4750-B4DF-980131E24683",
  "verticalSpacing": 0
}