{
  "_class": "symbolInstance",
  "booleanOperation": 0,
  "do_objectID": "521ABE71-68FD-40A7-8415-2642D8308BE4",
  "exportOptions": {
    "_class": "exportOptions",
    "do_objectID": "17A8D3D3-DF75-4603-AE4A-E3EC3D61D1E8",
    "exportFormats": [
    ],
    "includedLayerIds": [
    ],
    "layerOptions": 0,
    "shouldTrim": false
  },
  "frame": {
    "_class": "rect",
    "constrainProportions": true,
    "do_objectID": "23B2DE8F-3AF1-4F1F-9E10-806B9B3E83B7",
    "height": 32,
    "width": 32,
    "x": 242,
    "y": 160
  },
  "horizontalSpacing": 0,
  "isFixedToViewport": false,
  "isFlippedHorizontal": false,
  "isFlippedVertical": false,
  "isLocked": false,
  "isVisible": true,
  "layerListExpandedType": 0,
  "name": "25h8/chat/mat-icon-button/black/setting/setting-default",
  "nameIsFixed": false,
  "overrideValues": [
  ],
  "resizingConstraint": 60,
  "resizingType": 0,
  "rotation": 0,
  "scale": 1,
  "shouldBreakMaskChain": false,
  "style": {
    "_class": "style",
    "do_objectID": "40EBD117-2862-4AC5-B244-7B7DD0022AA9",
    "endMarkerType": 0,
    "miterLimit": 10,
    "startMarkerType": 0,
    "windingRule": 1
  },
  "symbolID": "0839DCFD-3D47-47D5-BA29-9A0D7434CF31",
  "verticalSpacing": 0
}