{
  "_class": "group",
  "booleanOperation": 0,
  "do_objectID": "E888AEF0-E1C0-41E4-B772-3A0B1E0F8037",
  "exportOptions": {
    "_class": "exportOptions",
    "do_objectID": "5D0991FA-B766-4214-9D03-39D990C21B8B",
    "exportFormats": [
    ],
    "includedLayerIds": [
    ],
    "layerOptions": 0,
    "shouldTrim": false
  },
  "frame": {
    "_class": "rect",
    "constrainProportions": false,
    "do_objectID": "E501FC11-7A36-4ABB-8415-09F7104F9611",
    "height": 194,
    "width": 276,
    "x": 0,
    "y": 0
  },
  "hasClickThrough": false,
  "isFixedToViewport": false,
  "isFlippedHorizontal": false,
  "isFlippedVertical": false,
  "isLocked": false,
  "isVisible": true,
  "layerListExpandedType": 2,
  "layers": [
    {
      "class": "shapeGroup",
      "id": "1DF94438-588A-4CBC-AAE5-BBB2A4DC3FE3"
    },
    {
      "class": "group",
      "id": "41588DA4-9716-4DFA-BF43-756BF7C4842B"
    },
    {
      "class": "shapeGroup",
      "id": "34E793F6-7207-45D7-8FDD-415C4559A7A9"
    },
    {
      "class": "text",
      "id": "C21E0470-9823-4404-9D1F-96AF552633DF"
    },
    {
      "class": "text",
      "id": "3876A17A-A32F-4743-8E3D-C86EF719D64E"
    },
    {
      "class": "text",
      "id": "6B61A025-B75A-492E-97A3-7F63ED27528B"
    },
    {
      "class": "symbolInstance",
      "id": "97D93948-8A2D-4799-935E-DDC4B4FFAFF2"
    },
    {
      "class": "text",
      "id": "26BE12D7-A6B3-4060-9C89-2F6EB00B5A31"
    },
    {
      "class": "symbolInstance",
      "id": "521ABE71-68FD-40A7-8415-2642D8308BE4"
    }
  ],
  "name": "card copy",
  "nameIsFixed": true,
  "resizingConstraint": 63,
  "resizingType": 0,
  "rotation": 0,
  "shouldBreakMaskChain": false,
  "style": {
    "_class": "style",
    "do_objectID": "CC1E69DE-A18E-4B58-AEBC-C98599FEB88C",
    "endMarkerType": 0,
    "miterLimit": 10,
    "startMarkerType": 0,
    "windingRule": 1
  },
  "userInfo": {
    "com.animaapp.stc-sketch-plugin": {
      "kModelPropertiesKey": {
      }
    }
  }
}