{
  "_class": "symbolMaster",
  "backgroundColor": {
    "_class": "color",
    "alpha": 1,
    "blue": 1,
    "do_objectID": "40B85855-BAA2-40F2-B7D6-3A881A347D04",
    "green": 1,
    "red": 1
  },
  "booleanOperation": 0,
  "changeIdentifier": 217,
  "do_objectID": "4CBBD851-E822-4C58-9758-B7F312EDA8D7",
  "exportOptions": {
    "_class": "exportOptions",
    "do_objectID": "B1955615-51F5-4544-8BAB-6BC83FCB6A1D",
    "exportFormats": [
      {
        "_class": "exportFormat",
        "absoluteSize": 0,
        "fileFormat": "svg",
        "name": "",
        "namingScheme": 0,
        "scale": 1,
        "visibleScaleType": 0
      }
    ],
    "includedLayerIds": [
    ],
    "layerOptions": 0,
    "shouldTrim": false
  },
  "frame": {
    "_class": "rect",
    "constrainProportions": false,
    "do_objectID": "D74034C4-E623-47D0-A62A-D17D6E9B3FE0",
    "height": 40,
    "width": 40,
    "x": 2776,
    "y": 75
  },
  "hasBackgroundColor": false,
  "hasClickThrough": false,
  "horizontalRulerData": {
    "_class": "rulerData",
    "base": 0,
    "do_objectID": "A2F7BB01-07B4-4A67-90AA-D04479C5C73C",
    "guides": [
    ]
  },
  "includeBackgroundColorInExport": true,
  "includeBackgroundColorInInstance": true,
  "includeInCloudUpload": true,
  "isFixedToViewport": false,
  "isFlippedHorizontal": false,
  "isFlippedVertical": false,
  "isFlowHome": false,
  "isLocked": false,
  "isVisible": true,
  "layerListExpandedType": 2,
  "layers": [
    {
      "class": "shapeGroup",
      "id": "37EFB966-BD6B-4FAC-8484-0812AEA7188C"
    }
  ],
  "name": "25h8/chat/mat-icon-button/view/view-hover",
  "nameIsFixed": true,
  "resizesContent": false,
  "resizingConstraint": 63,
  "resizingType": 0,
  "rotation": 0,
  "shouldBreakMaskChain": true,
  "style": {
    "_class": "style",
    "do_objectID": "09D563DD-5746-4BFF-AA54-FA224C13524F",
    "endMarkerType": 0,
    "miterLimit": 10,
    "startMarkerType": 0,
    "windingRule": 1
  },
  "symbolID": "739529AA-622B-452B-AEED-5724F2A6A043",
  "verticalRulerData": {
    "_class": "rulerData",
    "base": 0,
    "do_objectID": "C6A50331-E877-4F96-B2EB-32BAE757E810",
    "guides": [
    ]
  }
}