{
  "_class": "group",
  "booleanOperation": 0,
  "do_objectID": "041A9B1C-3BA5-4B47-9937-D2CAE43931CE",
  "exportOptions": {
    "_class": "exportOptions",
    "do_objectID": "FBACC0D7-15E9-4BEF-A8EA-98D049814655",
    "exportFormats": [
      {
        "_class": "exportFormat",
        "absoluteSize": 0,
        "fileFormat": "png",
        "name": "",
        "namingScheme": 0,
        "scale": 1,
        "visibleScaleType": 0
      }
    ],
    "includedLayerIds": [
    ],
    "layerOptions": 0,
    "shouldTrim": false
  },
  "frame": {
    "_class": "rect",
    "constrainProportions": false,
    "do_objectID": "F3FEB80A-000D-4A02-B1DE-3BC22216FFA4",
    "height": 48,
    "width": 48,
    "x": 0,
    "y": 0
  },
  "hasClickThrough": false,
  "isFixedToViewport": false,
  "isFlippedHorizontal": false,
  "isFlippedVertical": false,
  "isLocked": false,
  "isVisible": true,
  "layerListExpandedType": 1,
  "layers": [
    {
      "class": "shapeGroup",
      "id": "0C8A88CD-AA64-4E56-A1DE-93775D51C1E9"
    },
    {
      "class": "shapeGroup",
      "id": "701165B7-5AAA-49C0-8BEC-6D3FCC38FCBD"
    },
    {
      "class": "shapeGroup",
      "id": "B89D0927-E8C2-4DDE-8C10-8777DD2C741F"
    },
    {
      "class": "shapeGroup",
      "id": "B4928554-8B5E-439B-8E98-19B71DA56688"
    },
    {
      "class": "shapeGroup",
      "id": "BBD3EBA2-BF8C-4770-B7E4-6B4E29170379"
    },
    {
      "class": "shapeGroup",
      "id": "6D57DF03-BDDA-4D2C-94F9-EC52AB51C4D3"
    }
  ],
  "name": "25h8/chat/product-icon/social/social-default",
  "nameIsFixed": true,
  "resizingConstraint": 63,
  "resizingType": 0,
  "rotation": 0,
  "shouldBreakMaskChain": false,
  "style": {
    "_class": "style",
    "do_objectID": "EC490AB7-F226-4A5F-AC09-70E99D4DE875",
    "endMarkerType": 0,
    "miterLimit": 10,
    "shadows": [
      {
        "_class": "shadow",
        "blurRadius": 4,
        "color": {
          "_class": "color",
          "alpha": 0.24,
          "blue": 0,
          "green": 0,
          "red": 0
        },
        "contextSettings": {
          "_class": "graphicsContextSettings",
          "blendMode": 0,
          "opacity": 1
        },
        "isEnabled": true,
        "offsetX": 0,
        "offsetY": 2,
        "spread": 0
      }
    ],
    "startMarkerType": 0,
    "windingRule": 1
  },
  "userInfo": {
    "com.animaapp.stc-sketch-plugin": {
      "kModelPropertiesKey": {
      }
    }
  }
}