{
  "_class": "shapePath",
  "booleanOperation": -1,
  "do_objectID": "0C1B15AE-E9C4-43AF-B589-8686E9FF8845",
  "edited": true,
  "exportOptions": {
    "_class": "exportOptions",
    "do_objectID": "A3393ADA-6838-4768-8743-D0574B725E6A",
    "exportFormats": [
    ],
    "includedLayerIds": [
    ],
    "layerOptions": 0,
    "shouldTrim": false
  },
  "frame": {
    "_class": "rect",
    "constrainProportions": false,
    "do_objectID": "0EE33365-98D9-4F3C-9E81-5F62D6145A17",
    "height": 3.600000000000001,
    "width": 4.299999999999999,
    "x": 12.60000000000036,
    "y": 14
  },
  "isClosed": true,
  "isFixedToViewport": false,
  "isFlippedHorizontal": false,
  "isFlippedVertical": false,
  "isLocked": false,
  "isVisible": true,
  "layerListExpandedType": 0,
  "name": "Path",
  "nameIsFixed": false,
  "pointRadiusBehaviour": 0,
  "points": [
    {
      "_class": "curvePoint",
      "cornerRadius": 0,
      "curveFrom": "{0.13953488372093018, 0.6944444444444442}",
      "curveMode": 4,
      "curveTo": "{0, 1}",
      "hasCurveFrom": true,
      "hasCurveTo": false,
      "point": "{0, 1}"
    },
    {
      "_class": "curvePoint",
      "cornerRadius": 0,
      "curveFrom": "{0.3255813953488374, 0}",
      "curveMode": 4,
      "curveTo": "{0.25581395348837205, 0.36111111111111116}",
      "hasCurveFrom": false,
      "hasCurveTo": true,
      "point": "{0.3255813953488374, 0}"
    },
    {
      "_class": "curvePoint",
      "cornerRadius": 0,
      "curveFrom": "{0.79069767441860495, 0.47222222222222182}",
      "curveMode": 4,
      "curveTo": "{1, 0}",
      "hasCurveFrom": true,
      "hasCurveTo": false,
      "point": "{1, 0}"
    },
    {
      "_class": "curvePoint",
      "cornerRadius": 0,
      "curveFrom": "{0, 1}",
      "curveMode": 4,
      "curveTo": "{0.41860465116279055, 0.8055555555555548}",
      "hasCurveFrom": false,
      "hasCurveTo": true,
      "point": "{0, 1}"
    }
  ],
  "resizingConstraint": 63,
  "resizingType": 0,
  "rotation": 0,
  "shouldBreakMaskChain": false
}