{
  "_class": "shapeGroup",
  "booleanOperation": 0,
  "clippingMaskMode": 0,
  "do_objectID": "540A8B29-0FD9-4BC9-8C33-D847BB96789C",
  "exportOptions": {
    "_class": "exportOptions",
    "do_objectID": "AC91481B-35C7-4BEF-90D2-DC8F484D80E3",
    "exportFormats": [
    ],
    "includedLayerIds": [
    ],
    "layerOptions": 0,
    "shouldTrim": false
  },
  "frame": {
    "_class": "rect",
    "constrainProportions": false,
    "do_objectID": "4F95E85A-AEDA-4C8B-93E7-1ACDF5C2ECAA",
    "height": 20,
    "width": 20,
    "x": 10,
    "y": 10
  },
  "hasClickThrough": false,
  "hasClippingMask": false,
  "isFixedToViewport": false,
  "isFlippedHorizontal": false,
  "isFlippedVertical": false,
  "isLocked": false,
  "isVisible": true,
  "layerListExpandedType": 0,
  "layers": [
    {
      "class": "shapePath",
      "id": "3BD648B9-309C-453A-97E7-11DA913EDA71"
    },
    {
      "class": "shapePath",
      "id": "E6363BC2-260C-4E64-8969-AF431CB31EFC"
    },
    {
      "class": "shapePath",
      "id": "D5B519E8-4BA1-432C-A2A7-2C160DD255EC"
    },
    {
      "class": "shapePath",
      "id": "75413CA1-16AF-457F-BE0B-70E33E17A73A"
    },
    {
      "class": "shapePath",
      "id": "162362EB-5331-496A-99CC-BCDA0B541359"
    },
    {
      "class": "shapePath",
      "id": "FE0C9923-C367-4AC8-8C89-173AF9F3D099"
    },
    {
      "class": "shapePath",
      "id": "802C9CF7-6A09-4AF5-8C0F-2EC713173677"
    },
    {
      "class": "shapePath",
      "id": "D101D734-26BB-4238-B489-FA79AC3A0C00"
    },
    {
      "class": "shapePath",
      "id": "0C1B15AE-E9C4-43AF-B589-8686E9FF8845"
    },
    {
      "class": "shapePath",
      "id": "55D364CE-3A2A-44AE-8C2D-FFFDA17B8405"
    }
  ],
  "name": "language",
  "nameIsFixed": true,
  "originalObjectID": "AE921A11-C6C1-47E6-9D6E-100422E1F1DD",
  "resizingConstraint": 63,
  "resizingType": 0,
  "rotation": 0,
  "shouldBreakMaskChain": false,
  "style": {
    "_class": "style",
    "endMarkerType": 0,
    "fills": [
      {
        "_class": "fill",
        "color": {
          "_class": "color",
          "alpha": 0.54,
          "blue": 0,
          "green": 0,
          "red": 0
        },
        "fillType": 0,
        "isEnabled": true,
        "noiseIndex": 0,
        "noiseIntensity": 0,
        "patternFillType": 0,
        "patternTileScale": 1
      },
      {
        "_class": "fill",
        "color": {
          "_class": "color",
          "alpha": 0.16,
          "blue": 1,
          "green": 1,
          "red": 1
        },
        "fillType": 0,
        "gradient": {
          "_class": "gradient",
          "elipseLength": 0,
          "from": "{0.5, 0}",
          "gradientType": 0,
          "stops": [
            {
              "_class": "gradientStop",
              "color": {
                "_class": "color",
                "alpha": 0.16,
                "blue": 1,
                "green": 1,
                "red": 1
              },
              "position": 0
            },
            {
              "_class": "gradientStop",
              "color": {
                "_class": "color",
                "alpha": 0.5,
                "blue": 0,
                "green": 0,
                "red": 0
              },
              "position": 1
            }
          ],
          "to": "{0.5, 1}"
        },
        "isEnabled": true,
        "noiseIndex": 0,
        "noiseIntensity": 0,
        "patternFillType": 1,
        "patternTileScale": 1
      }
    ],
    "miterLimit": 10,
    "sharedObjectID": "0261879A-372D-491B-8108-FCA089D037C4",
    "startMarkerType": 0,
    "windingRule": 1
  },
  "windingRule": 1
}