{
  "_class": "symbolInstance",
  "booleanOperation": 0,
  "do_objectID": "BF1B1748-BBA4-4A48-9A1D-183D25966A98",
  "exportOptions": {
    "_class": "exportOptions",
    "do_objectID": "83DEC89B-62F6-430C-8F18-48BA904D2BF4",
    "exportFormats": [
    ],
    "includedLayerIds": [
    ],
    "layerOptions": 0,
    "shouldTrim": false
  },
  "frame": {
    "_class": "rect",
    "constrainProportions": false,
    "do_objectID": "E72B6929-ABE0-420E-82DA-95777C0BEE50",
    "height": 40,
    "width": 40,
    "x": 0,
    "y": 0
  },
  "horizontalSpacing": 0,
  "isFixedToViewport": false,
  "isFlippedHorizontal": false,
  "isFlippedVertical": false,
  "isLocked": false,
  "isVisible": true,
  "layerListExpandedType": 0,
  "name": "Material/Icons/Black/Inactive/send",
  "nameIsFixed": false,
  "overrideValues": [
  ],
  "resizingConstraint": 63,
  "resizingType": 0,
  "rotation": 0,
  "scale": 1,
  "shouldBreakMaskChain": false,
  "style": {
    "_class": "style",
    "do_objectID": "074B54CF-2EF3-4E9A-A0B3-AB1A7A46460C",
    "endMarkerType": 0,
    "miterLimit": 10,
    "startMarkerType": 0,
    "windingRule": 1
  },
  "symbolID": "45BCAA88-6E8C-4CF1-91DF-5E18B737E01B",
  "verticalSpacing": 0
}