{
  "_class": "symbolInstance",
  "booleanOperation": 0,
  "do_objectID": "60D85DA5-0585-45F5-88F5-F7BD3F86428D",
  "exportOptions": {
    "_class": "exportOptions",
    "do_objectID": "508ED5FD-6CF3-46F7-A766-4801FD3B0D37",
    "exportFormats": [
    ],
    "includedLayerIds": [
    ],
    "layerOptions": 0,
    "shouldTrim": false
  },
  "frame": {
    "_class": "rect",
    "constrainProportions": false,
    "do_objectID": "1443FAE2-7330-48B2-BD25-DFD722D1BDAA",
    "height": 72,
    "width": 72,
    "x": 0,
    "y": 175
  },
  "horizontalSpacing": 0,
  "isFixedToViewport": false,
  "isFlippedHorizontal": false,
  "isFlippedVertical": false,
  "isLocked": false,
  "isVisible": true,
  "layerListExpandedType": 0,
  "name": "25h8/chat/product-icon-name/trade/trade-default",
  "nameIsFixed": false,
  "overrideValues": [
    {
      "_class": "overrideValue",
      "do_objectID": "745922BC-7254-4E15-903C-D493DD88ABA9",
      "overrideName": "B8202CC0-F21F-4B07-A07E-25229AE83155_stringValue",
      "value": "Бізнес"
    }
  ],
  "resizingConstraint": 63,
  "resizingType": 0,
  "rotation": 0,
  "scale": 1,
  "shouldBreakMaskChain": false,
  "style": {
    "_class": "style",
    "do_objectID": "B86F95DF-F41E-4B6B-9585-88B1848311D3",
    "endMarkerType": 0,
    "miterLimit": 10,
    "startMarkerType": 0,
    "windingRule": 1
  },
  "symbolID": "39009F97-4725-4DE1-A51E-0E905BC491C9",
  "verticalSpacing": 0
}