{
  "_class": "shapePath",
  "booleanOperation": -1,
  "do_objectID": "C9712448-5551-4FFA-BAD8-6EB7650AE80A",
  "edited": true,
  "exportOptions": {
    "_class": "exportOptions",
    "do_objectID": "1536E45C-EAAC-45F9-89D1-DB1326A44786",
    "exportFormats": [
    ],
    "includedLayerIds": [
    ],
    "layerOptions": 0,
    "shouldTrim": false
  },
  "frame": {
    "_class": "rect",
    "constrainProportions": false,
    "do_objectID": "C6EA76CB-52E8-45A6-978F-8254BB6D7CF4",
    "height": 22,
    "width": 22,
    "x": 0,
    "y": 0
  },
  "isClosed": true,
  "isFixedToViewport": false,
  "isFlippedHorizontal": false,
  "isFlippedVertical": false,
  "isLocked": false,
  "isVisible": true,
  "layerListExpandedType": 0,
  "name": "Path",
  "nameIsFixed": false,
  "pointRadiusBehaviour": 0,
  "points": [
    {
      "_class": "curvePoint",
      "cornerRadius": 0,
      "curveFrom": "{1, 0.77615414457519727}",
      "curveMode": 2,
      "curveTo": "{1, 0.22386740807793454}",
      "hasCurveFrom": true,
      "hasCurveTo": true,
      "point": "{1, 0.50000000000000011}"
    },
    {
      "_class": "curvePoint",
      "cornerRadius": 0,
      "curveFrom": "{0.2238674080779344, 1}",
      "curveMode": 2,
      "curveTo": "{0.77615414457519716, 1}",
      "hasCurveFrom": true,
      "hasCurveTo": true,
      "point": "{0.5, 1}"
    },
    {
      "_class": "curvePoint",
      "cornerRadius": 0,
      "curveFrom": "{0, 0.22386740807793454}",
      "curveMode": 2,
      "curveTo": "{0, 0.77615414457519727}",
      "hasCurveFrom": true,
      "hasCurveTo": true,
      "point": "{0, 0.50000000000000011}"
    },
    {
      "_class": "curvePoint",
      "cornerRadius": 0,
      "curveFrom": "{0.77615414457519716, 0}",
      "curveMode": 2,
      "curveTo": "{0.2238674080779344, 0}",
      "hasCurveFrom": true,
      "hasCurveTo": true,
      "point": "{0.5, 0}"
    }
  ],
  "resizingConstraint": 63,
  "resizingType": 0,
  "rotation": 0,
  "shouldBreakMaskChain": false
}