{
  "_class": "symbolInstance",
  "booleanOperation": 0,
  "do_objectID": "A27347D8-4549-49C4-9132-BE81E4740A0E",
  "exportOptions": {
    "_class": "exportOptions",
    "do_objectID": "337EF293-4DD4-402F-9FCF-C42CCCA35E76",
    "exportFormats": [
    ],
    "includedLayerIds": [
    ],
    "layerOptions": 0,
    "shouldTrim": false
  },
  "frame": {
    "_class": "rect",
    "constrainProportions": false,
    "do_objectID": "2B5C5A5E-93DC-4EE6-BB8F-FF936DBF4A55",
    "height": 64,
    "width": 1209,
    "x": 72,
    "y": -1
  },
  "horizontalSpacing": 0,
  "isFixedToViewport": false,
  "isFlippedHorizontal": false,
  "isFlippedVertical": false,
  "isLocked": false,
  "isVisible": true,
  "layerListExpandedType": 0,
  "name": "25h8/chat/mat-toolbar/mat-toolbar-default",
  "nameIsFixed": false,
  "overrideValues": [
  ],
  "resizingConstraint": 63,
  "resizingType": 0,
  "rotation": 0,
  "scale": 1,
  "shouldBreakMaskChain": false,
  "style": {
    "_class": "style",
    "do_objectID": "A21C0BCA-D517-4419-BCA3-45569D45C0B0",
    "endMarkerType": 0,
    "miterLimit": 10,
    "startMarkerType": 0,
    "windingRule": 1
  },
  "symbolID": "3408C285-2551-4D94-9EE2-BCCE07B43FA8",
  "verticalSpacing": 0
}