{
  "_class": "group",
  "booleanOperation": 0,
  "do_objectID": "BF6106D9-1623-4F50-9D64-E509CA7D8D7E",
  "exportOptions": {
    "_class": "exportOptions",
    "exportFormats": [
    ],
    "includedLayerIds": [
    ],
    "layerOptions": 0,
    "shouldTrim": false
  },
  "frame": {
    "_class": "rect",
    "constrainProportions": false,
    "height": 24,
    "width": 24,
    "x": 0,
    "y": 0
  },
  "hasClickThrough": false,
  "isFixedToViewport": false,
  "isFlippedHorizontal": false,
  "isFlippedVertical": false,
  "isLocked": false,
  "isVisible": true,
  "layerListExpandedType": 2,
  "layers": [
    {
      "class": "shapeGroup",
      "id": "3E32517A-E885-436F-B6E7-DE2801E35E5D"
    },
    {
      "class": "shapeGroup",
      "id": "2A660E62-412D-4F1E-B618-86AB7C0A92CB"
    }
  ],
  "name": "25h8/chat/icon/black/chat-active-unfocused",
  "nameIsFixed": true,
  "resizingConstraint": 63,
  "resizingType": 0,
  "rotation": 0,
  "shouldBreakMaskChain": false,
  "style": {
    "_class": "style",
    "endMarkerType": 0,
    "miterLimit": 10,
    "startMarkerType": 0,
    "windingRule": 1
  }
}