{
  "_class": "symbolInstance",
  "booleanOperation": 0,
  "do_objectID": "673C772F-F394-4614-AF96-1F97DAE4C322",
  "exportOptions": {
    "_class": "exportOptions",
    "do_objectID": "49C0D57D-50F8-421F-B087-0C42691302DC",
    "exportFormats": [
    ],
    "includedLayerIds": [
    ],
    "layerOptions": 0,
    "shouldTrim": false
  },
  "frame": {
    "_class": "rect",
    "constrainProportions": false,
    "do_objectID": "BCFD616C-B95F-48EC-9698-1F88684FD945",
    "height": 36,
    "width": 56,
    "x": 1129,
    "y": 14
  },
  "horizontalSpacing": 0,
  "isFixedToViewport": false,
  "isFlippedHorizontal": false,
  "isFlippedVertical": false,
  "isLocked": false,
  "isVisible": true,
  "layerListExpandedType": 0,
  "name": "mat-basic-button",
  "nameIsFixed": false,
  "overrideValues": [
  ],
  "resizingConstraint": 63,
  "resizingType": 0,
  "rotation": 0,
  "scale": 1,
  "shouldBreakMaskChain": false,
  "style": {
    "_class": "style",
    "do_objectID": "8D52A0CE-6048-4D53-A962-487F3ECBF1CF",
    "endMarkerType": 0,
    "miterLimit": 10,
    "startMarkerType": 0,
    "windingRule": 1
  },
  "symbolID": "206373D6-BBFA-490B-BA84-27C558D3A0F1",
  "verticalSpacing": 0
}