{
  "_class": "shapePath",
  "booleanOperation": -1,
  "do_objectID": "27D86FF6-2BCE-4357-9956-5B659BFB5932",
  "edited": true,
  "exportOptions": {
    "_class": "exportOptions",
    "exportFormats": [
    ],
    "includedLayerIds": [
    ],
    "layerOptions": 0,
    "shouldTrim": false
  },
  "frame": {
    "_class": "rect",
    "constrainProportions": false,
    "height": 17.5,
    "width": 17.5,
    "x": 0,
    "y": 0
  },
  "isClosed": true,
  "isFixedToViewport": false,
  "isFlippedHorizontal": false,
  "isFlippedVertical": false,
  "isLocked": false,
  "isVisible": true,
  "layerListExpandedType": 0,
  "name": "Path",
  "nameIsFixed": false,
  "pointRadiusBehaviour": 0,
  "points": [
    {
      "_class": "curvePoint",
      "cornerRadius": 0,
      "curveFrom": "{0.7142857142857143, 0.62857142857142856}",
      "curveMode": 1,
      "curveTo": "{0.7142857142857143, 0.62857142857142856}",
      "hasCurveFrom": false,
      "hasCurveTo": false,
      "point": "{0.7142857142857143, 0.62857142857142856}"
    },
    {
      "_class": "curvePoint",
      "cornerRadius": 0,
      "curveFrom": "{0.66857142857142848, 0.62857142857142856}",
      "curveMode": 1,
      "curveTo": "{0.66857142857142848, 0.62857142857142856}",
      "hasCurveFrom": false,
      "hasCurveTo": false,
      "point": "{0.66857142857142848, 0.62857142857142856}"
    },
    {
      "_class": "curvePoint",
      "cornerRadius": 0,
      "curveFrom": "{0.70857142857142852, 0.5485714285714286}",
      "curveMode": 4,
      "curveTo": "{0.65142857142857136, 0.61142857142857143}",
      "hasCurveFrom": true,
      "hasCurveTo": false,
      "point": "{0.65142857142857136, 0.61142857142857143}"
    },
    {
      "_class": "curvePoint",
      "cornerRadius": 0,
      "curveFrom": "{0.74285714285714288, 0.16571428571428573}",
      "curveMode": 3,
      "curveTo": "{0.74285714285714277, 0.46285714285714286}",
      "hasCurveFrom": true,
      "hasCurveTo": true,
      "point": "{0.74285714285714277, 0.37142857142857144}"
    },
    {
      "_class": "curvePoint",
      "cornerRadius": 0,
      "curveFrom": "{0.16571428571428573, 0}",
      "curveMode": 2,
      "curveTo": "{0.57714285714285707, 0}",
      "hasCurveFrom": true,
      "hasCurveTo": true,
      "point": "{0.37142857142857144, 0}"
    },
    {
      "_class": "curvePoint",
      "cornerRadius": 0,
      "curveFrom": "{0, 0.57714285714285707}",
      "curveMode": 2,
      "curveTo": "{0, 0.16571428571428573}",
      "hasCurveFrom": true,
      "hasCurveTo": true,
      "point": "{0, 0.37142857142857144}"
    },
    {
      "_class": "curvePoint",
      "cornerRadius": 0,
      "curveFrom": "{0.46285714285714286, 0.74285714285714288}",
      "curveMode": 3,
      "curveTo": "{0.16571428571428573, 0.74285714285714288}",
      "hasCurveFrom": true,
      "hasCurveTo": true,
      "point": "{0.37142857142857144, 0.74285714285714288}"
    },
    {
      "_class": "curvePoint",
      "cornerRadius": 0,
      "curveFrom": "{0.61142857142857143, 0.65142857142857147}",
      "curveMode": 4,
      "curveTo": "{0.5485714285714286, 0.70857142857142863}",
      "hasCurveFrom": false,
      "hasCurveTo": true,
      "point": "{0.61142857142857143, 0.65142857142857147}"
    },
    {
      "_class": "curvePoint",
      "cornerRadius": 0,
      "curveFrom": "{0.62857142857142856, 0.66857142857142859}",
      "curveMode": 1,
      "curveTo": "{0.62857142857142856, 0.66857142857142859}",
      "hasCurveFrom": false,
      "hasCurveTo": false,
      "point": "{0.62857142857142856, 0.66857142857142859}"
    },
    {
      "_class": "curvePoint",
      "cornerRadius": 0,
      "curveFrom": "{0.62857142857142856, 0.71428571428571441}",
      "curveMode": 1,
      "curveTo": "{0.62857142857142856, 0.71428571428571441}",
      "hasCurveFrom": false,
      "hasCurveTo": false,
      "point": "{0.62857142857142856, 0.71428571428571441}"
    },
    {
      "_class": "curvePoint",
      "cornerRadius": 0,
      "curveFrom": "{0.91428571428571426, 1}",
      "curveMode": 1,
      "curveTo": "{0.91428571428571426, 1}",
      "hasCurveFrom": false,
      "hasCurveTo": false,
      "point": "{0.91428571428571426, 1}"
    },
    {
      "_class": "curvePoint",
      "cornerRadius": 0,
      "curveFrom": "{1, 0.91428571428571426}",
      "curveMode": 1,
      "curveTo": "{1, 0.91428571428571426}",
      "hasCurveFrom": false,
      "hasCurveTo": false,
      "point": "{1, 0.91428571428571426}"
    },
    {
      "_class": "curvePoint",
      "cornerRadius": 0,
      "curveFrom": "{0.7142857142857143, 0.62857142857142856}",
      "curveMode": 1,
      "curveTo": "{0.7142857142857143, 0.62857142857142856}",
      "hasCurveFrom": false,
      "hasCurveTo": false,
      "point": "{0.7142857142857143, 0.62857142857142856}"
    }
  ],
  "resizingConstraint": 63,
  "resizingType": 0,
  "rotation": 0,
  "shouldBreakMaskChain": false
}