{
  "_class": "shapePath",
  "booleanOperation": -1,
  "do_objectID": "731D5979-2EF3-46EA-B422-7D8AC96F3443",
  "edited": true,
  "exportOptions": {
    "_class": "exportOptions",
    "exportFormats": [
    ],
    "includedLayerIds": [
    ],
    "layerOptions": 0,
    "shouldTrim": false
  },
  "frame": {
    "_class": "rect",
    "constrainProportions": false,
    "height": 34.25,
    "width": 33.75,
    "x": 0,
    "y": 0
  },
  "isClosed": true,
  "isFixedToViewport": false,
  "isFlippedHorizontal": false,
  "isFlippedVertical": false,
  "isLocked": false,
  "isVisible": true,
  "layerListExpandedType": 0,
  "name": "Shape-path",
  "nameIsFixed": false,
  "pointRadiusBehaviour": 0,
  "points": [
    {
      "_class": "curvePoint",
      "cornerRadius": 0,
      "curveFrom": "{0.70153504868111571, 0.38177977746585423}",
      "curveMode": 1,
      "curveTo": "{0.70153504868111571, 0.38177977746585423}",
      "hasCurveFrom": false,
      "hasCurveTo": false,
      "point": "{0.70153504868111571, 0.38177977746585423}"
    },
    {
      "_class": "curvePoint",
      "cornerRadius": 0,
      "curveFrom": "{0.68908746291226941, 0.37044555717470035}",
      "curveMode": 1,
      "curveTo": "{0.68908746291226941, 0.37044555717470035}",
      "hasCurveFrom": false,
      "hasCurveTo": false,
      "point": "{0.68908746291226941, 0.37044555717470035}"
    },
    {
      "_class": "curvePoint",
      "cornerRadius": 0,
      "curveFrom": "{0.55280796318161884, 0.50657947525461566}",
      "curveMode": 4,
      "curveTo": "{0.55784816382597291, 0.50150644847820203}",
      "hasCurveFrom": true,
      "hasCurveTo": false,
      "point": "{0.55784816382597291, 0.50150644847820203}"
    },
    {
      "_class": "curvePoint",
      "cornerRadius": 0,
      "curveFrom": "{0.53161904805923688, 0.50943353568246774}",
      "curveMode": 2,
      "curveTo": "{0.54594305770939033, 0.50943353568246774}",
      "hasCurveFrom": true,
      "hasCurveTo": true,
      "point": "{0.53878105288431366, 0.50943353568246774}"
    },
    {
      "_class": "curvePoint",
      "cornerRadius": 0,
      "curveFrom": "{0.51971393895622098, 0.50150644847820203}",
      "curveMode": 4,
      "curveTo": "{0.52475414258700837, 0.50657947525461566}",
      "hasCurveFrom": false,
      "hasCurveTo": true,
      "point": "{0.51971393895622098, 0.50150644847820203}"
    },
    {
      "_class": "curvePoint",
      "cornerRadius": 0,
      "curveFrom": "{0.46463825982460411, 0.44640677224145742}",
      "curveMode": 4,
      "curveTo": "{0.47517604234615329, 0.45695865794067886}",
      "hasCurveFrom": true,
      "hasCurveTo": false,
      "point": "{0.47517604234615329, 0.45695865794067886}"
    },
    {
      "_class": "curvePoint",
      "cornerRadius": 0,
      "curveFrom": "{0.47517604234615329, 0.41879533252904788}",
      "curveMode": 4,
      "curveTo": "{0.46463825982460411, 0.4293472152533529}",
      "hasCurveFrom": false,
      "hasCurveTo": true,
      "point": "{0.47517604234615329, 0.41879533252904788}"
    },
    {
      "_class": "curvePoint",
      "cornerRadius": 0,
      "curveFrom": "{0.60634338630637297, 0.28773444033307116}",
      "curveMode": 1,
      "curveTo": "{0.60634338630637297, 0.28773444033307116}",
      "hasCurveFrom": false,
      "hasCurveTo": false,
      "point": "{0.60634338630637297, 0.28773444033307116}"
    },
    {
      "_class": "curvePoint",
      "cornerRadius": 0,
      "curveFrom": "{0.32025818794265004, 0.0014208821326828886}",
      "curveMode": 4,
      "curveTo": "{0.32278304117356582, 0.003948513907957008}",
      "hasCurveFrom": true,
      "hasCurveTo": false,
      "point": "{0.32278304117356582, 0.003948513907957008}"
    },
    {
      "_class": "curvePoint",
      "cornerRadius": 0,
      "curveFrom": "{0.30967145479142005, 0}",
      "curveMode": 2,
      "curveTo": "{0.31682751661405234, 0}",
      "hasCurveFrom": true,
      "hasCurveTo": true,
      "point": "{0.3132494857027362, 0}"
    },
    {
      "_class": "curvePoint",
      "cornerRadius": 0,
      "curveFrom": "{0.30371593023190652, 0.003948513907957008}",
      "curveMode": 4,
      "curveTo": "{0.3062407834628223, 0.0014208821326828886}",
      "hasCurveFrom": false,
      "hasCurveTo": true,
      "point": "{0.30371593023190652, 0.003948513907957008}"
    },
    {
      "_class": "curvePoint",
      "cornerRadius": 0,
      "curveFrom": "{0.001426933791002901, 0.30640448706001444}",
      "curveMode": 4,
      "curveTo": "{0.0039665265041819329, 0.30387494538840709}",
      "hasCurveFrom": true,
      "hasCurveTo": false,
      "point": "{0.0039665265041819329, 0.30387494538840709}"
    },
    {
      "_class": "curvePoint",
      "cornerRadius": 0,
      "curveFrom": "{0, 0.31699480867921276}",
      "curveMode": 2,
      "curveTo": "{0, 0.3098367403410423}",
      "hasCurveFrom": true,
      "hasCurveTo": true,
      "point": "{0, 0.3134157759975858}"
    },
    {
      "_class": "curvePoint",
      "cornerRadius": 0,
      "curveFrom": "{0.0039665265041819329, 0.32295660660676445}",
      "curveMode": 4,
      "curveTo": "{0.001426933791002901, 0.3204270649351571}",
      "hasCurveFrom": false,
      "hasCurveTo": true,
      "point": "{0.0039665265041819329, 0.32295660660676445}"
    },
    {
      "_class": "curvePoint",
      "cornerRadius": 0,
      "curveFrom": "{0.37358070823109502, 0.6928969577356594}",
      "curveMode": 1,
      "curveTo": "{0.37358070823109502, 0.6928969577356594}",
      "hasCurveFrom": false,
      "hasCurveTo": false,
      "point": "{0.37358070823109502, 0.6928969577356594}"
    },
    {
      "_class": "curvePoint",
      "cornerRadius": 0,
      "curveFrom": "{0.67909277524826195, 0.99857912042574537}",
      "curveMode": 4,
      "curveTo": "{0.67656792201734617, 0.99605148865047111}",
      "hasCurveFrom": true,
      "hasCurveTo": false,
      "point": "{0.67656792201734617, 0.99605148865047111}"
    },
    {
      "_class": "curvePoint",
      "cornerRadius": 0,
      "curveFrom": "{0.68967951138592531, 1}",
      "curveMode": 2,
      "curveTo": "{0.68252344956329314, 1}",
      "hasCurveFrom": true,
      "hasCurveTo": true,
      "point": "{0.68610148047460917, 1}"
    },
    {
      "_class": "curvePoint",
      "cornerRadius": 0,
      "curveFrom": "{0.69563503594543896, 0.99605148865047111}",
      "curveMode": 4,
      "curveTo": "{0.69311018271452307, 0.99857912042574537}",
      "hasCurveFrom": false,
      "hasCurveTo": true,
      "point": "{0.69563503594543896, 0.99605148865047111}"
    },
    {
      "_class": "curvePoint",
      "cornerRadius": 0,
      "curveFrom": "{0.74933205199444386, 0.94230274575342265}",
      "curveMode": 4,
      "curveTo": "{0.7467924607147528, 0.94483228742502989}",
      "hasCurveFrom": true,
      "hasCurveTo": false,
      "point": "{0.7467924607147528, 0.94483228742502989}"
    },
    {
      "_class": "curvePoint",
      "cornerRadius": 0,
      "curveFrom": "{0.75075898479992376, 0.93171242413422428}",
      "curveMode": 2,
      "curveTo": "{0.75075898479992376, 0.93887049247239474}",
      "hasCurveFrom": true,
      "hasCurveTo": true,
      "point": "{0.75075898479992376, 0.93529145681585113}"
    },
    {
      "_class": "curvePoint",
      "cornerRadius": 0,
      "curveFrom": "{0.7467924607147528, 0.9257506262066727}",
      "curveMode": 4,
      "curveTo": "{0.74933205199444386, 0.92828016787827994}",
      "hasCurveFrom": false,
      "hasCurveTo": true,
      "point": "{0.7467924607147528, 0.9257506262066727}"
    },
    {
      "_class": "curvePoint",
      "cornerRadius": 0,
      "curveFrom": "{0.46486662044013516, 0.64234502133553262}",
      "curveMode": 4,
      "curveTo": "{0.46754919617762969, 0.64598189234194225}",
      "hasCurveFrom": true,
      "hasCurveTo": false,
      "point": "{0.46754919617762969, 0.64598189234194225}"
    },
    {
      "_class": "curvePoint",
      "cornerRadius": 0,
      "curveFrom": "{0.4717804735556112, 0.63099915722156219}",
      "curveMode": 2,
      "curveTo": "{0.46528687134664959, 0.63729244115958339}",
      "hasCurveFrom": true,
      "hasCurveTo": true,
      "point": "{0.46853367394434708, 0.63414579770311452}"
    },
    {
      "_class": "curvePoint",
      "cornerRadius": 0,
      "curveFrom": "{0.48042849179790437, 0.63349990170235093}",
      "curveMode": 4,
      "curveTo": "{0.47685812407466455, 0.6307234360191396}",
      "hasCurveFrom": false,
      "hasCurveTo": true,
      "point": "{0.48042849179790437, 0.63349990170235093}"
    },
    {
      "_class": "curvePoint",
      "cornerRadius": 0,
      "curveFrom": "{0.76219660657950994, 0.91579626734235553}",
      "curveMode": 4,
      "curveTo": "{0.75967175334859416, 0.91326863556708116}",
      "hasCurveFrom": true,
      "hasCurveTo": false,
      "point": "{0.75967175334859416, 0.91326863556708116}"
    },
    {
      "_class": "curvePoint",
      "cornerRadius": 0,
      "curveFrom": "{0.7727833427171733, 0.9172171498915267}",
      "curveMode": 2,
      "curveTo": "{0.76562728089454102, 0.9172171498915267}",
      "hasCurveFrom": true,
      "hasCurveTo": true,
      "point": "{0.76920531180585716, 0.9172171498915267}"
    },
    {
      "_class": "curvePoint",
      "cornerRadius": 0,
      "curveFrom": "{0.77873886727668684, 0.91326863556708116}",
      "curveMode": 4,
      "curveTo": "{0.77621401404577106, 0.91579626734235553}",
      "hasCurveFrom": false,
      "hasCurveTo": true,
      "point": "{0.77873886727668684, 0.91326863556708116}"
    },
    {
      "_class": "curvePoint",
      "cornerRadius": 0,
      "curveFrom": "{0.83243588332569174, 0.85951989564494924}",
      "curveMode": 4,
      "curveTo": "{0.82989629204600068, 0.86204943731655648}",
      "hasCurveFrom": true,
      "hasCurveTo": false,
      "point": "{0.82989629204600068, 0.86204943731655648}"
    },
    {
      "_class": "curvePoint",
      "cornerRadius": 0,
      "curveFrom": "{0.83386281613117175, 0.84892957105083444}",
      "curveMode": 2,
      "curveTo": "{0.83386281613117175, 0.8560876393890049}",
      "hasCurveFrom": true,
      "hasCurveTo": true,
      "point": "{0.83386281613117175, 0.85250860670737805}"
    },
    {
      "_class": "curvePoint",
      "cornerRadius": 0,
      "curveFrom": "{0.82989629204600068, 0.84296777609819928}",
      "curveMode": 4,
      "curveTo": "{0.83243588332569174, 0.84549731776980686}",
      "hasCurveFrom": false,
      "hasCurveTo": true,
      "point": "{0.82989629204600068, 0.84296777609819928}"
    },
    {
      "_class": "curvePoint",
      "cornerRadius": 0,
      "curveFrom": "{0.54709650787726305, 0.55967299578796481}",
      "curveMode": 4,
      "curveTo": "{0.55065302750887757, 0.56319903925855253}",
      "hasCurveFrom": true,
      "hasCurveTo": false,
      "point": "{0.55065302750887757, 0.56319903925855253}"
    },
    {
      "_class": "curvePoint",
      "cornerRadius": 0,
      "curveFrom": "{0.55415370382254914, 0.54684838997562579}",
      "curveMode": 2,
      "curveTo": "{0.54708040204199571, 0.55394009387859156}",
      "hasCurveFrom": true,
      "hasCurveTo": true,
      "point": "{0.55061705293227248, 0.55039424043965046}"
    },
    {
      "_class": "curvePoint",
      "cornerRadius": 0,
      "curveFrom": "{0.56346037098950863, 0.55035837187253278}",
      "curveMode": 4,
      "curveTo": "{0.55990385135789422, 0.54683233137686149}",
      "hasCurveFrom": false,
      "hasCurveTo": true,
      "point": "{0.56346037098950863, 0.55035837187253278}"
    },
    {
      "_class": "curvePoint",
      "cornerRadius": 0,
      "curveFrom": "{0.84522848875754775, 0.83265474048745358}",
      "curveMode": 4,
      "curveTo": "{0.84270363552663186, 0.83012710871217954}",
      "hasCurveFrom": true,
      "hasCurveTo": false,
      "point": "{0.84270363552663186, 0.83012710871217954}"
    },
    {
      "_class": "curvePoint",
      "cornerRadius": 0,
      "curveFrom": "{0.85581522190877779, 0.83407562006170843}",
      "curveMode": 2,
      "curveTo": "{0.84865916008614539, 0.83407562006170843}",
      "hasCurveFrom": true,
      "hasCurveTo": true,
      "point": "{0.85223719099746154, 0.83407562006170843}"
    },
    {
      "_class": "curvePoint",
      "cornerRadius": 0,
      "curveFrom": "{0.86177074646829122, 0.83012710871217954}",
      "curveMode": 4,
      "curveTo": "{0.85924589323737521, 0.83265474048745358}",
      "hasCurveFrom": false,
      "hasCurveTo": true,
      "point": "{0.86177074646829122, 0.83012710871217954}"
    },
    {
      "_class": "curvePoint",
      "cornerRadius": 0,
      "curveFrom": "{0.91546776251729611, 0.77637836581513109}",
      "curveMode": 4,
      "curveTo": "{0.91292817123760517, 0.77890790748673844}",
      "hasCurveFrom": true,
      "hasCurveTo": false,
      "point": "{0.91292817123760517, 0.77890790748673844}"
    },
    {
      "_class": "curvePoint",
      "cornerRadius": 0,
      "curveFrom": "{0.91689469830920933, 0.76578804419593272}",
      "curveMode": 2,
      "curveTo": "{0.91689469830920933, 0.77294610955918674}",
      "hasCurveFrom": true,
      "hasCurveTo": true,
      "point": "{0.91689469830920933, 0.76936707687755967}"
    },
    {
      "_class": "curvePoint",
      "cornerRadius": 0,
      "curveFrom": "{0.91292817123760517, 0.75982624626838102}",
      "curveMode": 4,
      "curveTo": "{0.91546776251729611, 0.76235578793998848}",
      "hasCurveFrom": false,
      "hasCurveTo": true,
      "point": "{0.91292817123760517, 0.75982624626838102}"
    },
    {
      "_class": "curvePoint",
      "cornerRadius": 0,
      "curveFrom": "{0.63005643791565724, 0.4764597317988275}",
      "curveMode": 4,
      "curveTo": "{0.63361295754727165, 0.47998577526941516}",
      "hasCurveFrom": true,
      "hasCurveTo": false,
      "point": "{0.63361295754727165, 0.47998577526941516}"
    },
    {
      "_class": "curvePoint",
      "cornerRadius": 0,
      "curveFrom": "{0.6371136308745099, 0.46363512301157206}",
      "curveMode": 2,
      "curveTo": "{0.63004033208038979, 0.47072682988945419}",
      "hasCurveFrom": true,
      "hasCurveTo": true,
      "point": "{0.63357697998423312, 0.4671809764505131}"
    },
    {
      "_class": "curvePoint",
      "cornerRadius": 0,
      "curveFrom": "{0.64642030102790271, 0.46714510788339542}",
      "curveMode": 4,
      "curveTo": "{0.64286378139628819, 0.4636190644128077}",
      "hasCurveFrom": false,
      "hasCurveTo": true,
      "point": "{0.64642030102790271, 0.46714510788339542}"
    },
    {
      "_class": "curvePoint",
      "cornerRadius": 0,
      "curveFrom": "{0.92818841580950839, 0.74944147352339985}",
      "curveMode": 4,
      "curveTo": "{0.92566356257859239, 0.7469138417481257}",
      "hasCurveFrom": true,
      "hasCurveTo": false,
      "point": "{0.92566356257859239, 0.7469138417481257}"
    },
    {
      "_class": "curvePoint",
      "cornerRadius": 0,
      "curveFrom": "{0.93877514896073833, 0.75086235607257101}",
      "curveMode": 2,
      "curveTo": "{0.93161909012453936, 0.75086235607257101}",
      "hasCurveFrom": true,
      "hasCurveTo": true,
      "point": "{0.93519711804942207, 0.75086235607257101}"
    },
    {
      "_class": "curvePoint",
      "cornerRadius": 0,
      "curveFrom": "{0.9447306765066853, 0.7469138417481257}",
      "curveMode": 4,
      "curveTo": "{0.94220582327576941, 0.74944147352339985}",
      "hasCurveFrom": false,
      "hasCurveTo": true,
      "point": "{0.9447306765066853, 0.7469138417481257}"
    },
    {
      "_class": "curvePoint",
      "cornerRadius": 0,
      "curveFrom": "{0.99850391828151364, 0.69316658928419717}",
      "curveMode": 4,
      "curveTo": "{0.99588809828956582, 0.69569464349760102}",
      "hasCurveFrom": true,
      "hasCurveTo": false,
      "point": "{0.99588809828956582, 0.69569464349760102}"
    },
    {
      "_class": "curvePoint",
      "cornerRadius": 0,
      "curveFrom": "{1.0000134498616693, 0.68242918184800982}",
      "curveMode": 2,
      "curveTo": "{0.9999863629108301, 0.68969344875207306}",
      "hasCurveFrom": true,
      "hasCurveTo": true,
      "point": "{0.9999999063862498, 0.6860613167874996}"
    },
    {
      "_class": "curvePoint",
      "cornerRadius": 0,
      "curveFrom": "{0.99596005042920954, 0.6763977738514535}",
      "curveMode": 4,
      "curveTo": "{0.99855694539277062, 0.67894514717200372}",
      "hasCurveFrom": false,
      "hasCurveTo": true,
      "point": "{0.99596005042920954, 0.6763977738514535}"
    }
  ],
  "resizingConstraint": 63,
  "resizingType": 0,
  "rotation": 0,
  "shouldBreakMaskChain": false
}