{
  "_class": "shapePath",
  "booleanOperation": -1,
  "do_objectID": "4D1B87B3-7095-4496-9736-31E8859CA84E",
  "edited": true,
  "exportOptions": {
    "_class": "exportOptions",
    "do_objectID": "2D2A03FC-1189-4004-AF18-416BF16B2B2E",
    "exportFormats": [
    ],
    "includedLayerIds": [
    ],
    "layerOptions": 0,
    "shouldTrim": false
  },
  "frame": {
    "_class": "rect",
    "constrainProportions": false,
    "do_objectID": "B669BAE8-373F-4D8B-AC58-A4C02C100B0C",
    "height": 4,
    "width": 3.799999999999999,
    "x": 8.100000000000364,
    "y": 14
  },
  "isClosed": true,
  "isFixedToViewport": false,
  "isFlippedHorizontal": false,
  "isFlippedVertical": false,
  "isLocked": false,
  "isVisible": true,
  "layerListExpandedType": 0,
  "name": "Path",
  "nameIsFixed": false,
  "pointRadiusBehaviour": 0,
  "points": [
    {
      "_class": "curvePoint",
      "cornerRadius": 0,
      "curveFrom": "{0.28947368421052633, 0.70000000000000018}",
      "curveMode": 4,
      "curveTo": "{0.50000000000000022, 1}",
      "hasCurveFrom": true,
      "hasCurveTo": false,
      "point": "{0.50000000000000022, 1}"
    },
    {
      "_class": "curvePoint",
      "cornerRadius": 0,
      "curveFrom": "{0, 0}",
      "curveMode": 4,
      "curveTo": "{0.10526315789473696, 0.375}",
      "hasCurveFrom": false,
      "hasCurveTo": true,
      "point": "{0, 0}"
    },
    {
      "_class": "curvePoint",
      "cornerRadius": 0,
      "curveFrom": "{0.8947368421052635, 0.34999999999999964}",
      "curveMode": 4,
      "curveTo": "{1, 0}",
      "hasCurveFrom": true,
      "hasCurveTo": false,
      "point": "{1, 0}"
    },
    {
      "_class": "curvePoint",
      "cornerRadius": 0,
      "curveFrom": "{0.50000000000000022, 1}",
      "curveMode": 4,
      "curveTo": "{0.71052631578947412, 0.70000000000000018}",
      "hasCurveFrom": false,
      "hasCurveTo": true,
      "point": "{0.50000000000000022, 1}"
    }
  ],
  "resizingConstraint": 63,
  "resizingType": 0,
  "rotation": 0,
  "shouldBreakMaskChain": false
}