{
  "_class": "symbolMaster",
  "backgroundColor": {
    "_class": "color",
    "alpha": 1,
    "blue": 1,
    "do_objectID": "44CD8591-43BD-40A8-9803-6B697C835554",
    "green": 1,
    "red": 1
  },
  "booleanOperation": 0,
  "changeIdentifier": 1163,
  "do_objectID": "ED8E4406-AC3D-4165-9A14-DC8BF1B7159C",
  "exportOptions": {
    "_class": "exportOptions",
    "do_objectID": "E16A169C-6B2F-490E-9A60-F33C1ABBF095",
    "exportFormats": [
      {
        "_class": "exportFormat",
        "absoluteSize": 0,
        "fileFormat": "svg",
        "name": "",
        "namingScheme": 0,
        "scale": 1,
        "visibleScaleType": 0
      }
    ],
    "includedLayerIds": [
    ],
    "layerOptions": 0,
    "shouldTrim": false
  },
  "frame": {
    "_class": "rect",
    "constrainProportions": false,
    "do_objectID": "766C7D8B-D23C-448F-B306-2F2ADB1D166A",
    "height": 40,
    "width": 40,
    "x": 1408,
    "y": 139
  },
  "hasBackgroundColor": false,
  "hasClickThrough": false,
  "horizontalRulerData": {
    "_class": "rulerData",
    "base": 0,
    "do_objectID": "5F960CEB-27F2-4DEC-A215-66B8DC4B7D28",
    "guides": [
    ]
  },
  "includeBackgroundColorInExport": true,
  "includeBackgroundColorInInstance": true,
  "includeInCloudUpload": true,
  "isFixedToViewport": false,
  "isFlippedHorizontal": false,
  "isFlippedVertical": false,
  "isFlowHome": false,
  "isLocked": false,
  "isVisible": true,
  "layerListExpandedType": 1,
  "layers": [
    {
      "class": "shapeGroup",
      "id": "35169E07-CE82-4720-9B92-256EB57DE73B"
    },
    {
      "class": "shapeGroup",
      "id": "E8AF8A46-1B9C-4AA7-AB39-FC9460A091FF"
    }
  ],
  "name": "25h8/chat/mat-icon-button/auction/auction-press",
  "nameIsFixed": true,
  "originalObjectID": "2366EDF3-C6ED-4D24-84A8-EE78CD596A46",
  "resizesContent": false,
  "resizingConstraint": 63,
  "resizingType": 0,
  "rotation": 0,
  "shouldBreakMaskChain": true,
  "style": {
    "_class": "style",
    "do_objectID": "8F2529A2-B53F-4A17-BEFF-7E4A2E378511",
    "endMarkerType": 0,
    "miterLimit": 10,
    "startMarkerType": 0,
    "windingRule": 1
  },
  "symbolID": "C60F6ADA-CD97-4467-9BB3-A0B1ADF37277",
  "verticalRulerData": {
    "_class": "rulerData",
    "base": 0,
    "do_objectID": "6F2203AA-C9E1-4EB0-815B-4BCCA1B126BC",
    "guides": [
    ]
  }
}