{
  "_class": "symbolMaster",
  "backgroundColor": {
    "_class": "color",
    "alpha": 1,
    "blue": 1,
    "do_objectID": "CBC3504D-47C3-4ACA-B4BA-AB7A4CCB7B05",
    "green": 1,
    "red": 1
  },
  "booleanOperation": 0,
  "changeIdentifier": 647,
  "do_objectID": "3D4B296D-826A-49BD-AEB7-6E4C8FA25561",
  "exportOptions": {
    "_class": "exportOptions",
    "do_objectID": "7F943B58-55AF-4628-A4E5-5A2C45892324",
    "exportFormats": [
      {
        "_class": "exportFormat",
        "absoluteSize": 0,
        "fileFormat": "svg",
        "name": "",
        "namingScheme": 0,
        "scale": 1,
        "visibleScaleType": 0
      }
    ],
    "includedLayerIds": [
    ],
    "layerOptions": 0,
    "shouldTrim": false
  },
  "frame": {
    "_class": "rect",
    "constrainProportions": false,
    "do_objectID": "9F3D7815-8F7D-4E8E-924C-B8644882565A",
    "height": 40,
    "width": 40,
    "x": 2992,
    "y": 203
  },
  "hasBackgroundColor": false,
  "hasClickThrough": true,
  "horizontalRulerData": {
    "_class": "rulerData",
    "base": 0,
    "do_objectID": "C1774492-9743-4E2B-BFFF-90ED49FF86D4",
    "guides": [
    ]
  },
  "includeBackgroundColorInExport": true,
  "includeBackgroundColorInInstance": true,
  "includeInCloudUpload": true,
  "isFixedToViewport": false,
  "isFlippedHorizontal": false,
  "isFlippedVertical": false,
  "isFlowHome": false,
  "isLocked": false,
  "isVisible": true,
  "layerListExpandedType": 2,
  "layers": [
    {
      "class": "shapeGroup",
      "id": "ADD3F22A-4B35-47E8-9805-3820F97F013A"
    }
  ],
  "name": "25h8/chat/mat-icon-button/selected/selected-active",
  "nameIsFixed": true,
  "originalObjectID": "94181E18-2C17-4785-B3EE-09DDFD9A27BC",
  "resizesContent": false,
  "resizingConstraint": 63,
  "resizingType": 0,
  "rotation": 0,
  "shouldBreakMaskChain": true,
  "style": {
    "_class": "style",
    "do_objectID": "F62F7FED-98C0-4F7F-B542-E25DDA70F65E",
    "endMarkerType": 0,
    "miterLimit": 10,
    "startMarkerType": 0,
    "windingRule": 1
  },
  "symbolID": "DA38446A-FFD1-4770-A796-84F5A3DFDE00",
  "verticalRulerData": {
    "_class": "rulerData",
    "base": 0,
    "do_objectID": "60EB3F0B-0B14-4F1C-B5F7-70C7167174D8",
    "guides": [
    ]
  }
}