{
  "_class": "shapePath",
  "booleanOperation": -1,
  "do_objectID": "9089AAE2-F98D-4C9A-8F70-4647D35920FC",
  "edited": true,
  "exportOptions": {
    "_class": "exportOptions",
    "do_objectID": "7A70B3A6-5718-4478-8D15-9D4152578E76",
    "exportFormats": [
    ],
    "includedLayerIds": [
    ],
    "layerOptions": 0,
    "shouldTrim": false
  },
  "frame": {
    "_class": "rect",
    "constrainProportions": false,
    "do_objectID": "93064DC8-BA9C-432A-9814-FC79A436F542",
    "height": 12.00002971999817,
    "width": 7.413989545160602,
    "x": 0,
    "y": 0
  },
  "isClosed": true,
  "isFixedToViewport": false,
  "isFlippedHorizontal": false,
  "isFlippedVertical": false,
  "isLocked": false,
  "isVisible": true,
  "layerListExpandedType": 0,
  "name": "Path",
  "nameIsFixed": false,
  "pointRadiusBehaviour": 0,
  "points": [
    {
      "_class": "curvePoint",
      "cornerRadius": 0,
      "curveFrom": "{1, 0.88216700723635855}",
      "curveMode": 1,
      "curveTo": "{1, 0.88216700723635855}",
      "hasCurveFrom": false,
      "hasCurveTo": false,
      "point": "{1, 0.88216700723635855}"
    },
    {
      "_class": "curvePoint",
      "cornerRadius": 0,
      "curveFrom": "{0.38143975023090104, 0.50000126833011604}",
      "curveMode": 1,
      "curveTo": "{0.38143975023090104, 0.50000126833011604}",
      "hasCurveFrom": false,
      "hasCurveTo": false,
      "point": "{0.38143975023090104, 0.50000126833011604}"
    },
    {
      "_class": "curvePoint",
      "cornerRadius": 0,
      "curveFrom": "{1, 0.11783303693019651}",
      "curveMode": 1,
      "curveTo": "{1, 0.11783303693019651}",
      "hasCurveFrom": false,
      "hasCurveTo": false,
      "point": "{1, 0.11783303693019651}"
    },
    {
      "_class": "curvePoint",
      "cornerRadius": 0,
      "curveFrom": "{0.80927953748154424, 0}",
      "curveMode": 1,
      "curveTo": "{0.80927953748154424, 0}",
      "hasCurveFrom": false,
      "hasCurveTo": false,
      "point": "{0.80927953748154424, 0}"
    },
    {
      "_class": "curvePoint",
      "cornerRadius": 0,
      "curveFrom": "{0, 0.50000126833011604}",
      "curveMode": 1,
      "curveTo": "{0, 0.50000126833011604}",
      "hasCurveFrom": false,
      "hasCurveTo": false,
      "point": "{0, 0.50000126833011604}"
    },
    {
      "_class": "curvePoint",
      "cornerRadius": 0,
      "curveFrom": "{0.80927953748154424, 1}",
      "curveMode": 1,
      "curveTo": "{0.80927953748154424, 1}",
      "hasCurveFrom": false,
      "hasCurveTo": false,
      "point": "{0.80927953748154424, 1}"
    }
  ],
  "resizingConstraint": 63,
  "resizingType": 0,
  "rotation": 0,
  "shouldBreakMaskChain": false
}