{
  "_class": "symbolInstance",
  "booleanOperation": 0,
  "do_objectID": "4E87A1D5-7602-46CC-B336-9870B8D9AEB8",
  "exportOptions": {
    "_class": "exportOptions",
    "do_objectID": "C5826D23-0A40-46AB-A43C-52828323EF38",
    "exportFormats": [
    ],
    "includedLayerIds": [
    ],
    "layerOptions": 0,
    "shouldTrim": false
  },
  "frame": {
    "_class": "rect",
    "constrainProportions": false,
    "do_objectID": "D8BBA4DB-7B64-4C5C-BD7F-75F1E069DBB0",
    "height": 194,
    "width": 276,
    "x": 584,
    "y": 210
  },
  "horizontalSpacing": 0,
  "isFixedToViewport": false,
  "isFlippedHorizontal": false,
  "isFlippedVertical": false,
  "isLocked": false,
  "isVisible": true,
  "layerListExpandedType": 0,
  "name": "25h8/chat/chat-layout/chat-card-item-v3 copy",
  "nameIsFixed": false,
  "overrideValues": [
  ],
  "resizingConstraint": 63,
  "resizingType": 0,
  "rotation": 0,
  "scale": 1,
  "shouldBreakMaskChain": false,
  "style": {
    "_class": "style",
    "do_objectID": "9F1BF947-6587-46B1-98DC-FB4E777C3E0E",
    "endMarkerType": 0,
    "miterLimit": 10,
    "startMarkerType": 0,
    "windingRule": 1
  },
  "symbolID": "407AD6DF-EF70-4841-A97C-BD89D96E1D23",
  "verticalSpacing": 0
}