{
  "_class": "group",
  "booleanOperation": 0,
  "do_objectID": "A7229591-D599-4C86-8E59-B320E20B7496",
  "exportOptions": {
    "_class": "exportOptions",
    "do_objectID": "54E8C42A-BA78-45E9-8F31-5C644031BF86",
    "exportFormats": [
    ],
    "includedLayerIds": [
    ],
    "layerOptions": 0,
    "shouldTrim": false
  },
  "frame": {
    "_class": "rect",
    "constrainProportions": false,
    "do_objectID": "B3FC3DF6-5C76-43BE-BCCC-0D16BCE06C1B",
    "height": 445,
    "width": 560,
    "x": 696,
    "y": 9058
  },
  "hasClickThrough": false,
  "isFixedToViewport": false,
  "isFlippedHorizontal": false,
  "isFlippedVertical": false,
  "isLocked": false,
  "isVisible": true,
  "layerListExpandedType": 2,
  "layers": [
    {
      "class": "text",
      "id": "DF74426C-D81C-434F-A050-2F3F34462884"
    },
    {
      "class": "text",
      "id": "DCF1586A-F042-4292-8C69-F1D3DFD524F0"
    },
    {
      "class": "text",
      "id": "F5118F2E-9316-43A3-BC64-66AEAD697852"
    },
    {
      "class": "text",
      "id": "CD82426B-0AC7-4B70-8476-2570E25BF61D"
    },
    {
      "class": "text",
      "id": "35289E6C-FE83-4116-8C46-1516C269D9B0"
    },
    {
      "class": "text",
      "id": "87477D55-4FF5-4522-B588-6BAC5B3B7AA2"
    }
  ],
  "name": "Medium-emphasis Light background Left aligment ",
  "nameIsFixed": true,
  "resizingConstraint": 63,
  "resizingType": 0,
  "rotation": 0,
  "shouldBreakMaskChain": false,
  "style": {
    "_class": "style",
    "do_objectID": "239A98A8-B3F6-40C9-8037-9BC87F44BEEB",
    "endMarkerType": 0,
    "miterLimit": 10,
    "startMarkerType": 0,
    "windingRule": 1
  }
}