{
  "_class": "shapeGroup",
  "booleanOperation": 0,
  "clippingMaskMode": 0,
  "do_objectID": "5FF0272C-378E-463D-A9ED-34DF0F9547DF",
  "exportOptions": {
    "_class": "exportOptions",
    "do_objectID": "F0491760-9D31-4202-B3E0-0FE24D3C09F3",
    "exportFormats": [
    ],
    "includedLayerIds": [
    ],
    "layerOptions": 0,
    "shouldTrim": false
  },
  "frame": {
    "_class": "rect",
    "constrainProportions": false,
    "do_objectID": "C601C44F-F395-44D8-88E8-4584A6A2E6B5",
    "height": 72,
    "width": 72,
    "x": 0,
    "y": 0
  },
  "hasClickThrough": false,
  "hasClippingMask": false,
  "isFixedToViewport": false,
  "isFlippedHorizontal": false,
  "isFlippedVertical": false,
  "isLocked": false,
  "isVisible": true,
  "layerListExpandedType": 0,
  "layers": [
    {
      "class": "rectangle",
      "id": "EC525AB7-76AF-415C-99C1-D04F4201914E"
    }
  ],
  "name": "bg",
  "nameIsFixed": true,
  "originalObjectID": "9C9DE224-B687-452C-ACC3-6E914996D8FF",
  "resizingConstraint": 63,
  "resizingType": 0,
  "rotation": 0,
  "shouldBreakMaskChain": false,
  "style": {
    "_class": "style",
    "do_objectID": "1BCBC540-3971-4ECC-BC6E-7CEE1E59582B",
    "endMarkerType": 0,
    "miterLimit": 10,
    "sharedObjectID": "AE7841E5-E34E-496B-B937-76B742ED84F1",
    "startMarkerType": 0,
    "windingRule": 1
  },
  "windingRule": 1
}