{
  "_class": "shapePath",
  "booleanOperation": -1,
  "do_objectID": "6462A0CF-81B3-4524-8643-EE063147BF42",
  "edited": true,
  "exportOptions": {
    "_class": "exportOptions",
    "exportFormats": [
    ],
    "includedLayerIds": [
    ],
    "layerOptions": 0,
    "shouldTrim": false
  },
  "frame": {
    "_class": "rect",
    "constrainProportions": false,
    "height": 14,
    "width": 14,
    "x": 0,
    "y": 0
  },
  "isClosed": true,
  "isFixedToViewport": false,
  "isFlippedHorizontal": false,
  "isFlippedVertical": false,
  "isLocked": false,
  "isVisible": true,
  "layerListExpandedType": 0,
  "name": "Path",
  "nameIsFixed": false,
  "pointRadiusBehaviour": 0,
  "points": [
    {
      "_class": "curvePoint",
      "cornerRadius": 0,
      "curveFrom": "{1, 0.10071428571428573}",
      "curveMode": 1,
      "curveTo": "{1, 0.10071428571428573}",
      "hasCurveFrom": false,
      "hasCurveTo": false,
      "point": "{1, 0.10071428571428573}"
    },
    {
      "_class": "curvePoint",
      "cornerRadius": 0,
      "curveFrom": "{0.89928571428571424, 0}",
      "curveMode": 1,
      "curveTo": "{0.89928571428571424, 0}",
      "hasCurveFrom": false,
      "hasCurveTo": false,
      "point": "{0.89928571428571424, 0}"
    },
    {
      "_class": "curvePoint",
      "cornerRadius": 0,
      "curveFrom": "{0.5, 0.3992857142857143}",
      "curveMode": 1,
      "curveTo": "{0.5, 0.3992857142857143}",
      "hasCurveFrom": false,
      "hasCurveTo": false,
      "point": "{0.5, 0.3992857142857143}"
    },
    {
      "_class": "curvePoint",
      "cornerRadius": 0,
      "curveFrom": "{0.10071428571428573, 0}",
      "curveMode": 1,
      "curveTo": "{0.10071428571428573, 0}",
      "hasCurveFrom": false,
      "hasCurveTo": false,
      "point": "{0.10071428571428573, 0}"
    },
    {
      "_class": "curvePoint",
      "cornerRadius": 0,
      "curveFrom": "{0, 0.10071428571428573}",
      "curveMode": 1,
      "curveTo": "{0, 0.10071428571428573}",
      "hasCurveFrom": false,
      "hasCurveTo": false,
      "point": "{0, 0.10071428571428573}"
    },
    {
      "_class": "curvePoint",
      "cornerRadius": 0,
      "curveFrom": "{0.3992857142857143, 0.5}",
      "curveMode": 1,
      "curveTo": "{0.3992857142857143, 0.5}",
      "hasCurveFrom": false,
      "hasCurveTo": false,
      "point": "{0.3992857142857143, 0.5}"
    },
    {
      "_class": "curvePoint",
      "cornerRadius": 0,
      "curveFrom": "{0, 0.89928571428571424}",
      "curveMode": 1,
      "curveTo": "{0, 0.89928571428571424}",
      "hasCurveFrom": false,
      "hasCurveTo": false,
      "point": "{0, 0.89928571428571424}"
    },
    {
      "_class": "curvePoint",
      "cornerRadius": 0,
      "curveFrom": "{0.10071428571428573, 1}",
      "curveMode": 1,
      "curveTo": "{0.10071428571428573, 1}",
      "hasCurveFrom": false,
      "hasCurveTo": false,
      "point": "{0.10071428571428573, 1}"
    },
    {
      "_class": "curvePoint",
      "cornerRadius": 0,
      "curveFrom": "{0.5, 0.60071428571428576}",
      "curveMode": 1,
      "curveTo": "{0.5, 0.60071428571428576}",
      "hasCurveFrom": false,
      "hasCurveTo": false,
      "point": "{0.5, 0.60071428571428576}"
    },
    {
      "_class": "curvePoint",
      "cornerRadius": 0,
      "curveFrom": "{0.89928571428571424, 1}",
      "curveMode": 1,
      "curveTo": "{0.89928571428571424, 1}",
      "hasCurveFrom": false,
      "hasCurveTo": false,
      "point": "{0.89928571428571424, 1}"
    },
    {
      "_class": "curvePoint",
      "cornerRadius": 0,
      "curveFrom": "{1, 0.89928571428571424}",
      "curveMode": 1,
      "curveTo": "{1, 0.89928571428571424}",
      "hasCurveFrom": false,
      "hasCurveTo": false,
      "point": "{1, 0.89928571428571424}"
    },
    {
      "_class": "curvePoint",
      "cornerRadius": 0,
      "curveFrom": "{0.60071428571428576, 0.5}",
      "curveMode": 1,
      "curveTo": "{0.60071428571428576, 0.5}",
      "hasCurveFrom": false,
      "hasCurveTo": false,
      "point": "{0.60071428571428576, 0.5}"
    },
    {
      "_class": "curvePoint",
      "cornerRadius": 0,
      "curveFrom": "{1, 0.10071428571428573}",
      "curveMode": 1,
      "curveTo": "{1, 0.10071428571428573}",
      "hasCurveFrom": false,
      "hasCurveTo": false,
      "point": "{1, 0.10071428571428573}"
    }
  ],
  "resizingConstraint": 63,
  "resizingType": 0,
  "rotation": 0,
  "shouldBreakMaskChain": false
}