{
  "_class": "symbolInstance",
  "booleanOperation": 0,
  "do_objectID": "D15C7A9D-631B-4A75-8CAE-A67EDCC5DCF1",
  "exportOptions": {
    "_class": "exportOptions",
    "do_objectID": "149CC9D1-6344-4722-8764-7D790EB0C84D",
    "exportFormats": [
    ],
    "includedLayerIds": [
    ],
    "layerOptions": 0,
    "shouldTrim": false
  },
  "frame": {
    "_class": "rect",
    "constrainProportions": false,
    "do_objectID": "86D4545F-8513-4088-81EF-5642F9E4039B",
    "height": 48,
    "width": 48,
    "x": 224,
    "y": 6
  },
  "horizontalSpacing": 0,
  "isFixedToViewport": false,
  "isFlippedHorizontal": false,
  "isFlippedVertical": false,
  "isLocked": false,
  "isVisible": true,
  "layerListExpandedType": 0,
  "name": "avatar",
  "nameIsFixed": true,
  "overrideValues": [
  ],
  "resizingConstraint": 57,
  "resizingType": 0,
  "rotation": 0,
  "scale": 1,
  "shouldBreakMaskChain": false,
  "style": {
    "_class": "style",
    "do_objectID": "98299491-46FA-47BB-B729-C347FE25041A",
    "endMarkerType": 0,
    "miterLimit": 10,
    "startMarkerType": 0,
    "windingRule": 1
  },
  "symbolID": "AB2CCBC2-163B-4B1C-9103-792719EF3B27",
  "verticalSpacing": 0
}