{
  "_class": "shapeGroup",
  "booleanOperation": 0,
  "clippingMaskMode": 0,
  "do_objectID": "1781D1D1-0B51-4B6D-98E2-122C7E01335B",
  "exportOptions": {
    "_class": "exportOptions",
    "do_objectID": "0BFDD252-743F-4A4D-A21F-CF19C123C32E",
    "exportFormats": [
    ],
    "includedLayerIds": [
    ],
    "layerOptions": 0,
    "shouldTrim": false
  },
  "frame": {
    "_class": "rect",
    "constrainProportions": false,
    "do_objectID": "7D14C32A-D840-44CC-91D6-FDD7A050E913",
    "height": 48,
    "width": 48,
    "x": 0,
    "y": 0
  },
  "hasClickThrough": false,
  "hasClippingMask": false,
  "isFixedToViewport": false,
  "isFlippedHorizontal": false,
  "isFlippedVertical": false,
  "isLocked": false,
  "isVisible": true,
  "layerListExpandedType": 0,
  "layers": [
    {
      "class": "rectangle",
      "id": "AC4F1B17-FBE7-4B51-8387-074F5A3DD6C7"
    }
  ],
  "name": "Rectangle",
  "nameIsFixed": false,
  "originalObjectID": "A41958D4-C331-4498-BB34-A8057EB3E4B4",
  "resizingConstraint": 63,
  "resizingType": 0,
  "rotation": 0,
  "shouldBreakMaskChain": false,
  "style": {
    "_class": "style",
    "do_objectID": "1262DFAE-EBF5-4EE0-91B3-2468ACAE5759",
    "endMarkerType": 0,
    "miterLimit": 10,
    "startMarkerType": 0,
    "windingRule": 1
  },
  "windingRule": 1
}