{
  "_class": "symbolMaster",
  "backgroundColor": {
    "_class": "color",
    "alpha": 1,
    "blue": 1,
    "do_objectID": "16DB804A-29E9-4FFD-A932-C6FED56F04CF",
    "green": 1,
    "red": 1
  },
  "booleanOperation": 0,
  "changeIdentifier": 710,
  "do_objectID": "FB78AE09-F494-43BC-A454-B964C5B3ED93",
  "exportOptions": {
    "_class": "exportOptions",
    "do_objectID": "7A4B455D-4222-4D22-AEA2-358C6411F32F",
    "exportFormats": [
      {
        "_class": "exportFormat",
        "absoluteSize": 0,
        "fileFormat": "svg",
        "name": "",
        "namingScheme": 0,
        "scale": 1,
        "visibleScaleType": 0
      }
    ],
    "includedLayerIds": [
    ],
    "layerOptions": 0,
    "shouldTrim": false
  },
  "frame": {
    "_class": "rect",
    "constrainProportions": false,
    "do_objectID": "E169D01B-D791-4291-B7CC-27625A7FC7D2",
    "height": 40,
    "width": 40,
    "x": 616,
    "y": -53
  },
  "hasBackgroundColor": false,
  "hasClickThrough": true,
  "horizontalRulerData": {
    "_class": "rulerData",
    "base": 0,
    "do_objectID": "C2017889-8DE6-40CB-8063-7501FFA9CF79",
    "guides": [
    ]
  },
  "includeBackgroundColorInExport": true,
  "includeBackgroundColorInInstance": true,
  "includeInCloudUpload": true,
  "isFixedToViewport": false,
  "isFlippedHorizontal": false,
  "isFlippedVertical": false,
  "isFlowHome": false,
  "isLocked": false,
  "isVisible": true,
  "layerListExpandedType": 2,
  "layers": [
    {
      "class": "shapeGroup",
      "id": "0522ADC6-7B98-4739-8C01-E9523E9433D6"
    }
  ],
  "name": "25h8/chat/mat-icon-button/search/search-white",
  "nameIsFixed": true,
  "originalObjectID": "27408BBF-09BB-4D42-90EE-E09CC48AC951",
  "resizesContent": false,
  "resizingConstraint": 63,
  "resizingType": 0,
  "rotation": 0,
  "shouldBreakMaskChain": true,
  "style": {
    "_class": "style",
    "do_objectID": "92B04131-AE1C-4782-BD3D-84FEBAFCC3AD",
    "endMarkerType": 0,
    "miterLimit": 10,
    "startMarkerType": 0,
    "windingRule": 1
  },
  "symbolID": "2F84868F-1C85-405B-89EB-E352894986AF",
  "userInfo": {
    "com.animaapp.stc-sketch-plugin": {
      "kModelPropertiesKey": {
      }
    }
  },
  "verticalRulerData": {
    "_class": "rulerData",
    "base": 0,
    "do_objectID": "DA68F591-47DA-471E-A161-8CFE79C3C817",
    "guides": [
    ]
  }
}