{
  "_class": "shapeGroup",
  "booleanOperation": 0,
  "clippingMaskMode": 0,
  "do_objectID": "E8C813F2-886A-4953-AB36-564FD87A6EC4",
  "exportOptions": {
    "_class": "exportOptions",
    "do_objectID": "CA70BED5-4CA7-4A08-A65D-1D057BDEEFD2",
    "exportFormats": [
    ],
    "includedLayerIds": [
    ],
    "layerOptions": 0,
    "shouldTrim": false
  },
  "frame": {
    "_class": "rect",
    "constrainProportions": false,
    "do_objectID": "10F2D738-5C1A-480C-9482-740217012A33",
    "height": 72,
    "width": 72,
    "x": 0,
    "y": 0
  },
  "hasClickThrough": false,
  "hasClippingMask": false,
  "isFixedToViewport": false,
  "isFlippedHorizontal": false,
  "isFlippedVertical": false,
  "isLocked": false,
  "isVisible": true,
  "layerListExpandedType": 0,
  "layers": [
    {
      "class": "rectangle",
      "id": "5CFF47D3-AF52-428B-B871-E200AC668F38"
    }
  ],
  "name": "bg",
  "nameIsFixed": true,
  "originalObjectID": "9C9DE224-B687-452C-ACC3-6E914996D8FF",
  "resizingConstraint": 63,
  "resizingType": 0,
  "rotation": 0,
  "shouldBreakMaskChain": false,
  "style": {
    "_class": "style",
    "do_objectID": "80A428D1-204A-4ED5-BBF0-B7AA0B36F796",
    "endMarkerType": 0,
    "miterLimit": 10,
    "sharedObjectID": "AE7841E5-E34E-496B-B937-76B742ED84F1",
    "startMarkerType": 0,
    "windingRule": 1
  },
  "windingRule": 1
}