{
  "_class": "shapeGroup",
  "booleanOperation": 0,
  "clippingMaskMode": 0,
  "do_objectID": "DF74E763-0749-4F26-9B1D-4E3EA0592C27",
  "exportOptions": {
    "_class": "exportOptions",
    "do_objectID": "D34969CA-B84D-43D3-BD75-9642DD92EB52",
    "exportFormats": [
    ],
    "includedLayerIds": [
    ],
    "layerOptions": 0,
    "shouldTrim": false
  },
  "frame": {
    "_class": "rect",
    "constrainProportions": false,
    "do_objectID": "52C950FE-F54F-4DB5-8F2C-E8FD8563C1D8",
    "height": 14,
    "width": 34,
    "x": 0,
    "y": 3
  },
  "hasClickThrough": false,
  "hasClippingMask": false,
  "isFixedToViewport": false,
  "isFlippedHorizontal": false,
  "isFlippedVertical": false,
  "isLocked": false,
  "isVisible": true,
  "layerListExpandedType": 0,
  "layers": [
    {
      "class": "shapePath",
      "id": "01BBDF71-87B4-4E4B-837D-8D5462ED7527"
    }
  ],
  "name": "track",
  "nameIsFixed": false,
  "originalObjectID": "A8CA5CC4-28A4-43ED-B1D7-B88D7FB848A9",
  "resizingConstraint": 63,
  "resizingType": 0,
  "rotation": 0,
  "shouldBreakMaskChain": false,
  "style": {
    "_class": "style",
    "contextSettings": {
      "_class": "graphicsContextSettings",
      "blendMode": 0,
      "do_objectID": "5FA96A11-9936-4947-BB48-0C438B646AF7",
      "opacity": 0.5
    },
    "do_objectID": "69A75153-828B-4677-89AE-647323CCF0F2",
    "endMarkerType": 0,
    "fills": [
      {
        "_class": "fill",
        "color": {
          "_class": "color",
          "alpha": 0.24,
          "blue": 0,
          "green": 0,
          "red": 0
        },
        "fillType": 0,
        "isEnabled": true,
        "noiseIndex": 0,
        "noiseIntensity": 0,
        "patternFillType": 0,
        "patternTileScale": 1
      }
    ],
    "miterLimit": 10,
    "startMarkerType": 0,
    "windingRule": 1
  },
  "userInfo": {
    "com.animaapp.stc-sketch-plugin": {
      "kModelPropertiesKey": {
      }
    }
  },
  "windingRule": 1
}