{
  "_class": "symbolInstance",
  "booleanOperation": 0,
  "do_objectID": "7C19C122-D7D3-4D88-BF42-4305D8912ABF",
  "exportOptions": {
    "_class": "exportOptions",
    "do_objectID": "BFC5D594-D730-4A3C-9F7E-436AA54468A9",
    "exportFormats": [
    ],
    "includedLayerIds": [
    ],
    "layerOptions": 0,
    "shouldTrim": false
  },
  "frame": {
    "_class": "rect",
    "constrainProportions": false,
    "do_objectID": "E43BC17D-1740-4F5D-A353-59BEFFB84702",
    "height": 400,
    "width": 320,
    "x": 0,
    "y": 48
  },
  "horizontalSpacing": 0,
  "isFixedToViewport": false,
  "isFlippedHorizontal": false,
  "isFlippedVertical": false,
  "isLocked": false,
  "isVisible": true,
  "layerListExpandedType": 0,
  "name": "mat-expansion-panel",
  "nameIsFixed": false,
  "overrideValues": [
  ],
  "resizingConstraint": 63,
  "resizingType": 0,
  "rotation": 0,
  "scale": 1,
  "shouldBreakMaskChain": false,
  "style": {
    "_class": "style",
    "do_objectID": "EB9AEE64-A1E3-4E56-A368-7029E21E00E8",
    "endMarkerType": 0,
    "miterLimit": 10,
    "startMarkerType": 0,
    "windingRule": 1
  },
  "symbolID": "C88E3512-33C8-46D5-8418-644322F42CDD",
  "verticalSpacing": 0
}