{
  "_class": "symbolInstance",
  "booleanOperation": -1,
  "do_objectID": "B5768CDE-3483-4D08-8DFC-DDAD195A6A47",
  "exportOptions": {
    "_class": "exportOptions",
    "do_objectID": "948909AB-FBA4-4AE1-9793-8E110116AF67",
    "exportFormats": [
    ],
    "includedLayerIds": [
    ],
    "layerOptions": 0,
    "shouldTrim": false
  },
  "frame": {
    "_class": "rect",
    "constrainProportions": false,
    "do_objectID": "9CCE9618-5B4A-4E74-89E5-3A5C180218D1",
    "height": 14,
    "width": 22,
    "x": 294,
    "y": 39
  },
  "horizontalSpacing": 0,
  "isFixedToViewport": false,
  "isFlippedHorizontal": false,
  "isFlippedVertical": false,
  "isLocked": false,
  "isVisible": true,
  "layerListExpandedType": 0,
  "name": "25h8/chat/notification-bubble-3-digit-normal",
  "nameIsFixed": false,
  "overrideValues": [
  ],
  "resizingConstraint": 12,
  "resizingType": 0,
  "rotation": 0,
  "scale": 1,
  "shouldBreakMaskChain": false,
  "style": {
    "_class": "style",
    "do_objectID": "FF63667D-2DB4-4F21-A10D-C128C722B877",
    "endMarkerType": 0,
    "miterLimit": 10,
    "startMarkerType": 0,
    "windingRule": 1
  },
  "symbolID": "3F668D78-AD18-407A-A5B8-94E350E6E6D3",
  "verticalSpacing": 0
}