{
  "_class": "symbolInstance",
  "booleanOperation": 0,
  "do_objectID": "1FBDB7F5-2391-42DA-A7C7-4CE98E04ECA5",
  "exportOptions": {
    "_class": "exportOptions",
    "do_objectID": "899A1A6C-6D63-4C1A-87C1-B65B45FA4AD8",
    "exportFormats": [
    ],
    "includedLayerIds": [
    ],
    "layerOptions": 0,
    "shouldTrim": false
  },
  "frame": {
    "_class": "rect",
    "constrainProportions": false,
    "do_objectID": "0FE682F1-4398-4F6A-8A7D-8961A926AD5B",
    "height": 64,
    "width": 320,
    "x": 0,
    "y": 0
  },
  "horizontalSpacing": 0,
  "isFixedToViewport": false,
  "isFlippedHorizontal": false,
  "isFlippedVertical": false,
  "isLocked": false,
  "isVisible": true,
  "layerListExpandedType": 0,
  "name": "25h8/chat/mat-toolbar/mat-toolbar-default-320",
  "nameIsFixed": false,
  "overrideValues": [
    {
      "_class": "overrideValue",
      "do_objectID": "5AEB5CB3-EA9B-4D36-81D0-33DA6F8A0CCC",
      "overrideName": "898826A1-B5C1-4C64-A9E5-D9A8E563C82C_symbolID",
      "value": "7AAD022B-99EC-44EC-8066-EEB858840E6B"
    }
  ],
  "resizingConstraint": 63,
  "resizingType": 0,
  "rotation": 0,
  "scale": 1,
  "shouldBreakMaskChain": false,
  "style": {
    "_class": "style",
    "do_objectID": "3F990DC5-AF73-4C1B-8487-80751806D1BE",
    "endMarkerType": 0,
    "miterLimit": 10,
    "startMarkerType": 0,
    "windingRule": 1
  },
  "symbolID": "2FCD5106-3214-4634-A6EB-2287387B062F",
  "verticalSpacing": 0
}