{
  "_class": "symbolInstance",
  "booleanOperation": 0,
  "do_objectID": "899F6825-0B97-4FF2-AEBE-231B47EA38D6",
  "exportOptions": {
    "_class": "exportOptions",
    "do_objectID": "F0D7AFB6-4180-4F99-B357-E9CE6C46ED87",
    "exportFormats": [
    ],
    "includedLayerIds": [
    ],
    "layerOptions": 0,
    "shouldTrim": false
  },
  "frame": {
    "_class": "rect",
    "constrainProportions": false,
    "do_objectID": "DCC81DBB-F8D3-40ED-8FE0-77DC7B6D00A4",
    "height": 48,
    "width": 320,
    "x": 0,
    "y": 193
  },
  "horizontalSpacing": 0,
  "isFixedToViewport": false,
  "isFlippedHorizontal": false,
  "isFlippedVertical": false,
  "isLocked": false,
  "isVisible": true,
  "layerListExpandedType": 0,
  "name": "mat-accordion copy",
  "nameIsFixed": false,
  "overrideValues": [
    {
      "_class": "overrideValue",
      "do_objectID": "4AD36F41-B53B-4BE3-8AB8-3793512CA88F",
      "overrideName": "DF97EA2A-EC5A-4F06-B699-CC072313CE2E_stringValue",
      "value": "Останні чати"
    }
  ],
  "resizingConstraint": 63,
  "resizingType": 0,
  "rotation": 0,
  "scale": 1,
  "shouldBreakMaskChain": false,
  "style": {
    "_class": "style",
    "do_objectID": "69EB42DB-B723-4370-8E71-E7468C03F0B0",
    "endMarkerType": 0,
    "miterLimit": 10,
    "startMarkerType": 0,
    "windingRule": 1
  },
  "symbolID": "9590D2A0-0633-4A33-84C6-480DA5032CEA",
  "verticalSpacing": 0
}