{
  "_class": "symbolMaster",
  "backgroundColor": {
    "_class": "color",
    "alpha": 1,
    "blue": 1,
    "do_objectID": "723EF6D8-D6C5-4D56-9F01-B34097BFC347",
    "green": 1,
    "red": 1
  },
  "booleanOperation": 0,
  "changeIdentifier": 1667,
  "do_objectID": "2975495C-0F5F-41CE-B4F0-B16429DE13DA",
  "exportOptions": {
    "_class": "exportOptions",
    "do_objectID": "D9FBAF9F-D544-4F4F-A8A8-E3BFB8B7F300",
    "exportFormats": [
    ],
    "includedLayerIds": [
    ],
    "layerOptions": 0,
    "shouldTrim": false
  },
  "frame": {
    "_class": "rect",
    "constrainProportions": false,
    "do_objectID": "E3BDA8BA-8B59-4AC6-A38A-FC2FFB6E58DD",
    "height": 787,
    "width": 320,
    "x": -2947,
    "y": 115
  },
  "hasBackgroundColor": false,
  "hasClickThrough": true,
  "horizontalRulerData": {
    "_class": "rulerData",
    "base": 0,
    "do_objectID": "369D5017-8AC1-4FB3-A880-40271D46E502",
    "guides": [
    ]
  },
  "includeBackgroundColorInExport": true,
  "includeBackgroundColorInInstance": false,
  "includeInCloudUpload": true,
  "isFixedToViewport": false,
  "isFlippedHorizontal": false,
  "isFlippedVertical": false,
  "isFlowHome": false,
  "isLocked": false,
  "isVisible": true,
  "layerListExpandedType": 2,
  "layers": [
    {
      "class": "group",
      "id": "8BE30277-F75A-43A1-B430-5F5E5B600B81"
    }
  ],
  "name": "25h8/chat/mat-sidenav-content/mat-sidenav-chat-active",
  "nameIsFixed": true,
  "resizesContent": false,
  "resizingConstraint": 63,
  "resizingType": 0,
  "rotation": 0,
  "shouldBreakMaskChain": true,
  "style": {
    "_class": "style",
    "do_objectID": "2DC1B8A8-2BB1-4A89-B837-E36FE86E549F",
    "endMarkerType": 0,
    "miterLimit": 10,
    "startMarkerType": 0,
    "windingRule": 1
  },
  "symbolID": "054F37F0-E653-46A5-AEBB-9A410F4B4452",
  "verticalRulerData": {
    "_class": "rulerData",
    "base": 0,
    "do_objectID": "80E45F9D-B8B9-4998-AD08-158230CFA1A0",
    "guides": [
    ]
  }
}