{
  "_class": "group",
  "booleanOperation": -1,
  "do_objectID": "151E488D-A2AF-4856-881D-024A6615D081",
  "exportOptions": {
    "_class": "exportOptions",
    "do_objectID": "7C2F4EAB-105C-43ED-983A-9D045E763130",
    "exportFormats": [
    ],
    "includedLayerIds": [
    ],
    "layerOptions": 0,
    "shouldTrim": false
  },
  "frame": {
    "_class": "rect",
    "constrainProportions": false,
    "do_objectID": "0C22B576-8F69-480A-A2DE-BA7E098BAE44",
    "height": 80,
    "width": 320,
    "x": 0,
    "y": 0
  },
  "hasClickThrough": false,
  "isFixedToViewport": false,
  "isFlippedHorizontal": false,
  "isFlippedVertical": false,
  "isLocked": false,
  "isVisible": true,
  "layerListExpandedType": 2,
  "layers": [
    {
      "class": "shapeGroup",
      "id": "5E20F322-E439-417E-BBDC-4663E7C87297"
    },
    {
      "class": "text",
      "id": "CB8941EF-0307-4361-A37D-7CAE81A7F518"
    },
    {
      "class": "text",
      "id": "66E1A71C-4FB5-427A-955D-362F2180C650"
    },
    {
      "class": "shapeGroup",
      "id": "DF02401C-D735-47CE-8DA6-8E70B155B1AF"
    },
    {
      "class": "symbolInstance",
      "id": "C8D501A4-2377-4611-95EE-BBB2DD286739"
    },
    {
      "class": "text",
      "id": "CA71464E-7FFE-4FDF-9C64-7004D1C663E0"
    },
    {
      "class": "text",
      "id": "D86A4315-C9D5-482B-8F66-1DEFAFAD82B8"
    },
    {
      "class": "symbolInstance",
      "id": "A1149F11-14A0-4748-890D-E1AE03871EDC"
    },
    {
      "class": "symbolInstance",
      "id": "34930682-FEA8-400C-ABE3-7F70D8F46C77"
    }
  ],
  "name": "25h8/Chat/Chat List/Hover/Long Title/chat-list-item+entity",
  "nameIsFixed": true,
  "resizingConstraint": 63,
  "resizingType": 0,
  "rotation": 0,
  "shouldBreakMaskChain": false,
  "style": {
    "_class": "style",
    "do_objectID": "71983205-DF50-42AB-9DEA-B66AB0FB3478",
    "endMarkerType": 0,
    "miterLimit": 10,
    "startMarkerType": 0,
    "windingRule": 1
  }
}