{
  "_class": "symbolInstance",
  "booleanOperation": 0,
  "do_objectID": "2B09F8BF-195C-4335-8897-37A14D977501",
  "exportOptions": {
    "_class": "exportOptions",
    "do_objectID": "70B51981-59B8-4565-AD25-9454A366E1A6",
    "exportFormats": [
    ],
    "includedLayerIds": [
    ],
    "layerOptions": 0,
    "shouldTrim": false
  },
  "frame": {
    "_class": "rect",
    "constrainProportions": false,
    "do_objectID": "C4783C00-2809-42B9-87C8-E6AB18548E09",
    "height": 40,
    "width": 40,
    "x": 840,
    "y": 10
  },
  "horizontalSpacing": 0,
  "isFixedToViewport": false,
  "isFlippedHorizontal": false,
  "isFlippedVertical": false,
  "isLocked": false,
  "isVisible": true,
  "layerListExpandedType": 0,
  "name": "settings",
  "nameIsFixed": true,
  "overrideValues": [
  ],
  "resizingConstraint": 60,
  "resizingType": 0,
  "rotation": 0,
  "scale": 1,
  "shouldBreakMaskChain": false,
  "style": {
    "_class": "style",
    "do_objectID": "6675AC80-B834-4F6F-B7F3-9127E27CFF2D",
    "endMarkerType": 0,
    "miterLimit": 10,
    "startMarkerType": 0,
    "windingRule": 1
  },
  "symbolID": "0839DCFD-3D47-47D5-BA29-9A0D7434CF31",
  "userInfo": {
    "com.animaapp.stc-sketch-plugin": {
      "kModelPropertiesKey": {
      }
    }
  },
  "verticalSpacing": 0
}