{
  "_class": "group",
  "booleanOperation": 0,
  "do_objectID": "D5C3E59E-F892-4C4C-ABB4-827E77C08ED4",
  "exportOptions": {
    "_class": "exportOptions",
    "do_objectID": "D94C9D0B-D9FF-4420-9A02-E7B3578E90DE",
    "exportFormats": [
    ],
    "includedLayerIds": [
    ],
    "layerOptions": 0,
    "shouldTrim": false
  },
  "frame": {
    "_class": "rect",
    "constrainProportions": false,
    "do_objectID": "ECCB8030-E712-4268-A430-18F5AC363E2E",
    "height": 24,
    "width": 154,
    "x": 75,
    "y": 20
  },
  "hasClickThrough": false,
  "isFixedToViewport": false,
  "isFlippedHorizontal": false,
  "isFlippedVertical": false,
  "isLocked": false,
  "isVisible": true,
  "layerListExpandedType": 1,
  "layers": [
    {
      "class": "text",
      "id": "40F363B2-624C-4690-AD49-B0AC12BA033D"
    },
    {
      "class": "symbolInstance",
      "id": "1AC8A6AF-80CC-4C01-BBB6-24EE57118958"
    }
  ],
  "name": "12:75",
  "nameIsFixed": true,
  "resizingConstraint": 61,
  "resizingType": 0,
  "rotation": 0,
  "shouldBreakMaskChain": false,
  "style": {
    "_class": "style",
    "do_objectID": "C2777BA5-AA03-4EA8-9EA7-8CCC32D2BFE9",
    "endMarkerType": 0,
    "miterLimit": 10,
    "startMarkerType": 0,
    "windingRule": 1
  }
}