{
  "_class": "shapeGroup",
  "booleanOperation": 0,
  "clippingMaskMode": 0,
  "do_objectID": "E24A32A1-A672-43F0-AC8C-9A39ED9FF6B9",
  "exportOptions": {
    "_class": "exportOptions",
    "do_objectID": "C3FFA5E6-5E9B-47E2-8C0A-D5187C729765",
    "exportFormats": [
    ],
    "includedLayerIds": [
    ],
    "layerOptions": 0,
    "shouldTrim": false
  },
  "frame": {
    "_class": "rect",
    "constrainProportions": false,
    "do_objectID": "ACD5255B-FCFF-47F1-811F-B436BF103D1F",
    "height": 19.9999988,
    "width": 19.9999988,
    "x": 9.999999880004907,
    "y": 9.999999880000018
  },
  "hasClickThrough": false,
  "hasClippingMask": false,
  "isFixedToViewport": false,
  "isFlippedHorizontal": false,
  "isFlippedVertical": false,
  "isLocked": false,
  "isVisible": true,
  "layerListExpandedType": 0,
  "layers": [
    {
      "class": "shapePath",
      "id": "FA26F95D-3C6E-4D83-B5DA-D8A2544A0863"
    },
    {
      "class": "shapePath",
      "id": "7AA418CA-F096-4797-85B8-B1EA7FDE2674"
    },
    {
      "class": "shapePath",
      "id": "41FA9628-C431-4268-915C-9A10F7D8E164"
    },
    {
      "class": "shapePath",
      "id": "2CC1701C-EF34-4F98-A48D-FF7031784021"
    }
  ],
  "name": "info outline",
  "nameIsFixed": true,
  "originalObjectID": "BD2B3EC8-D77C-48D3-861A-4A9AB9824BCC",
  "resizingConstraint": 63,
  "resizingType": 0,
  "rotation": 0,
  "shouldBreakMaskChain": false,
  "style": {
    "_class": "style",
    "endMarkerType": 0,
    "fills": [
      {
        "_class": "fill",
        "color": {
          "_class": "color",
          "alpha": 0.54,
          "blue": 0,
          "green": 0,
          "red": 0
        },
        "fillType": 0,
        "isEnabled": true,
        "noiseIndex": 0,
        "noiseIntensity": 0,
        "patternFillType": 0,
        "patternTileScale": 1
      },
      {
        "_class": "fill",
        "color": {
          "_class": "color",
          "alpha": 0.16,
          "blue": 1,
          "green": 1,
          "red": 1
        },
        "fillType": 0,
        "gradient": {
          "_class": "gradient",
          "elipseLength": 0,
          "from": "{0.5, 0}",
          "gradientType": 0,
          "stops": [
            {
              "_class": "gradientStop",
              "color": {
                "_class": "color",
                "alpha": 0.16,
                "blue": 1,
                "green": 1,
                "red": 1
              },
              "position": 0
            },
            {
              "_class": "gradientStop",
              "color": {
                "_class": "color",
                "alpha": 0.5,
                "blue": 0,
                "green": 0,
                "red": 0
              },
              "position": 1
            }
          ],
          "to": "{0.5, 1}"
        },
        "isEnabled": true,
        "noiseIndex": 0,
        "noiseIntensity": 0,
        "patternFillType": 1,
        "patternTileScale": 1
      }
    ],
    "miterLimit": 10,
    "sharedObjectID": "0261879A-372D-491B-8108-FCA089D037C4",
    "startMarkerType": 0,
    "windingRule": 1
  },
  "windingRule": 1
}