{
  "_class": "symbolInstance",
  "booleanOperation": 0,
  "do_objectID": "370DA1C1-E128-4E15-934E-B83ADC235F41",
  "exportOptions": {
    "_class": "exportOptions",
    "do_objectID": "B977F96E-1D5D-4512-BC28-408B413705DB",
    "exportFormats": [
    ],
    "includedLayerIds": [
    ],
    "layerOptions": 0,
    "shouldTrim": false
  },
  "frame": {
    "_class": "rect",
    "constrainProportions": true,
    "do_objectID": "AFFC5FD0-37DA-433B-9F70-90F9FE7DAB0B",
    "height": 12,
    "width": 12,
    "x": 304,
    "y": 4
  },
  "horizontalSpacing": 0,
  "isFixedToViewport": false,
  "isFlippedHorizontal": false,
  "isFlippedVertical": false,
  "isLocked": false,
  "isVisible": true,
  "layerListExpandedType": 0,
  "name": "Black/icon-active-unfocused",
  "nameIsFixed": false,
  "overrideValues": [
  ],
  "resizingConstraint": 12,
  "resizingType": 0,
  "rotation": 0,
  "scale": 1,
  "shouldBreakMaskChain": false,
  "style": {
    "_class": "style",
    "do_objectID": "FA1280D7-33A5-442E-8512-59138AA5D4FA",
    "endMarkerType": 0,
    "miterLimit": 10,
    "startMarkerType": 0,
    "windingRule": 1
  },
  "symbolID": "39FA8BF2-9336-4B2B-AE56-6B5E13045A31",
  "verticalSpacing": 0
}