{
  "_class": "group",
  "booleanOperation": 0,
  "do_objectID": "157A7D84-E762-47D9-90CB-D91DEC105390",
  "exportOptions": {
    "_class": "exportOptions",
    "do_objectID": "DCB4852F-920A-469B-8A25-D1FB73FE2F72",
    "exportFormats": [
    ],
    "includedLayerIds": [
    ],
    "layerOptions": 0,
    "shouldTrim": false
  },
  "frame": {
    "_class": "rect",
    "constrainProportions": false,
    "do_objectID": "7FC8DB7B-482A-4C06-B05D-A8B3064E9C3B",
    "height": 60,
    "width": 276,
    "x": 0,
    "y": 134
  },
  "hasClickThrough": false,
  "isFixedToViewport": false,
  "isFlippedHorizontal": false,
  "isFlippedVertical": false,
  "isLocked": false,
  "isVisible": true,
  "layerListExpandedType": 0,
  "layers": [
    {
      "class": "shapeGroup",
      "id": "1B041CAE-8F8A-46D9-843C-DFEF1ACF7092"
    },
    {
      "class": "text",
      "id": "04FFC2D4-1E4F-4041-819F-92A0129E6717"
    },
    {
      "class": "text",
      "id": "F4D8A439-08F0-4455-8B58-CCC124441BA5"
    },
    {
      "class": "text",
      "id": "39DFF233-F4E7-4292-9AC5-C4F306725276"
    },
    {
      "class": "shapeGroup",
      "id": "20A93A77-F9A9-496C-ADBC-5F8BF083AFCF"
    },
    {
      "class": "shapeGroup",
      "id": "AD548252-A557-4ECD-98C1-28C29A9BA8E2"
    }
  ],
  "name": "Dense two-line list with double avatar/normal",
  "nameIsFixed": true,
  "resizingConstraint": 63,
  "resizingType": 0,
  "rotation": 0,
  "shouldBreakMaskChain": false,
  "style": {
    "_class": "style",
    "do_objectID": "B51370FC-194C-4A81-BD67-FFE1B4749055",
    "endMarkerType": 0,
    "miterLimit": 10,
    "startMarkerType": 0,
    "windingRule": 1
  },
  "userInfo": {
    "com.animaapp.stc-sketch-plugin": {
      "kModelPropertiesKey": {
      }
    }
  }
}