{
  "_class": "shapeGroup",
  "booleanOperation": 0,
  "clippingMaskMode": 0,
  "do_objectID": "4356AECC-C9A9-466B-801E-FEF912809298",
  "exportOptions": {
    "_class": "exportOptions",
    "do_objectID": "9F5E9D2F-B767-4031-AD62-FE1EFB0A0ADF",
    "exportFormats": [
    ],
    "includedLayerIds": [
    ],
    "layerOptions": 0,
    "shouldTrim": false
  },
  "frame": {
    "_class": "rect",
    "constrainProportions": false,
    "do_objectID": "7DA53475-7271-4A26-9649-8451D6B086E0",
    "height": 72,
    "width": 72,
    "x": 0,
    "y": 0
  },
  "hasClickThrough": false,
  "hasClippingMask": false,
  "isFixedToViewport": false,
  "isFlippedHorizontal": false,
  "isFlippedVertical": false,
  "isLocked": false,
  "isVisible": true,
  "layerListExpandedType": 0,
  "layers": [
    {
      "class": "rectangle",
      "id": "7547FD6E-ADCD-4C4B-9AD7-84D1736D6BB6"
    }
  ],
  "name": "bg",
  "nameIsFixed": true,
  "originalObjectID": "9C9DE224-B687-452C-ACC3-6E914996D8FF",
  "resizingConstraint": 63,
  "resizingType": 0,
  "rotation": 0,
  "shouldBreakMaskChain": false,
  "style": {
    "_class": "style",
    "do_objectID": "49BCFEDE-09F8-4D2B-BFC7-4C13E83A0151",
    "endMarkerType": 0,
    "miterLimit": 10,
    "sharedObjectID": "AE7841E5-E34E-496B-B937-76B742ED84F1",
    "startMarkerType": 0,
    "windingRule": 1
  },
  "windingRule": 1
}