{
  "_class": "symbolInstance",
  "booleanOperation": 0,
  "do_objectID": "B48009E0-8A7D-4B3E-BD53-C4CB6F32362A",
  "exportOptions": {
    "_class": "exportOptions",
    "do_objectID": "B66ADEEB-5FC4-4F63-88A8-FD16B7E945CB",
    "exportFormats": [
    ],
    "includedLayerIds": [
    ],
    "layerOptions": 0,
    "shouldTrim": false
  },
  "frame": {
    "_class": "rect",
    "constrainProportions": false,
    "do_objectID": "9F758067-29E7-49C2-B911-8081934E358F",
    "height": 80,
    "width": 423,
    "x": 408,
    "y": 179
  },
  "horizontalSpacing": 0,
  "isFixedToViewport": false,
  "isFlippedHorizontal": false,
  "isFlippedVertical": false,
  "isLocked": false,
  "isVisible": true,
  "layerListExpandedType": 0,
  "name": "25h8/chat/chat-area/chat-message-area/chat-message-emotion-dSig-pin",
  "nameIsFixed": false,
  "overrideValues": [
  ],
  "resizingConstraint": 63,
  "resizingType": 0,
  "rotation": 0,
  "scale": 1,
  "shouldBreakMaskChain": false,
  "style": {
    "_class": "style",
    "do_objectID": "7C85A179-06FC-4AA1-8313-643314928239",
    "endMarkerType": 0,
    "miterLimit": 10,
    "startMarkerType": 0,
    "windingRule": 1
  },
  "symbolID": "31FCCECD-B1C3-4425-9F6A-8ED31FB9D099",
  "verticalSpacing": 0
}