{
  "_class": "shapeGroup",
  "booleanOperation": 0,
  "clippingMaskMode": 0,
  "do_objectID": "6280E1CF-350C-41EE-BAEC-D37131561CF6",
  "exportOptions": {
    "_class": "exportOptions",
    "exportFormats": [
    ],
    "includedLayerIds": [
    ],
    "layerOptions": 0,
    "shouldTrim": false
  },
  "frame": {
    "_class": "rect",
    "constrainProportions": false,
    "height": 13.99999916,
    "width": 16.99999898,
    "x": 3.999999760009814,
    "y": 4.999999699999989
  },
  "hasClickThrough": false,
  "hasClippingMask": false,
  "isFixedToViewport": false,
  "isFlippedHorizontal": false,
  "isFlippedVertical": false,
  "isLocked": false,
  "isVisible": true,
  "layerListExpandedType": 0,
  "layers": [
    {
      "class": "shapePath",
      "id": "2BBBF683-108F-4A1D-8209-348ADC63853C"
    },
    {
      "class": "shapePath",
      "id": "407DE746-8D98-4F90-B4CA-B150747B0C57"
    },
    {
      "class": "shapePath",
      "id": "F1067830-49BF-4F18-BDB3-8A3FADB8252A"
    },
    {
      "class": "shapePath",
      "id": "115E7B9D-FC25-42D0-95AB-77BB8D28B14F"
    },
    {
      "class": "shapePath",
      "id": "6270BBA7-FF07-41C7-8271-D3325AAB9AA2"
    },
    {
      "class": "shapePath",
      "id": "CCAFC496-CC17-4CE4-A742-8AB21D1B56A3"
    }
  ],
  "name": "Fill 2",
  "nameIsFixed": false,
  "originalObjectID": "6280E1CF-350C-41EE-BAEC-D37131561CF6",
  "resizingConstraint": 63,
  "resizingType": 0,
  "rotation": 0,
  "shouldBreakMaskChain": false,
  "style": {
    "_class": "style",
    "endMarkerType": 0,
    "fills": [
      {
        "_class": "fill",
        "color": {
          "_class": "color",
          "alpha": 0.54,
          "blue": 0,
          "green": 0,
          "red": 0
        },
        "fillType": 0,
        "isEnabled": true,
        "noiseIndex": 0,
        "noiseIntensity": 0,
        "patternFillType": 0,
        "patternTileScale": 1
      }
    ],
    "miterLimit": 10,
    "sharedObjectID": "98DD68E8-45CF-463C-9696-66B612DA4440",
    "startMarkerType": 0,
    "windingRule": 1
  },
  "userInfo": {
    "com.animaapp.stc-sketch-plugin": {
      "kModelPropertiesKey": {
      }
    }
  },
  "windingRule": 1
}