{
  "_class": "shapePath",
  "booleanOperation": -1,
  "do_objectID": "455FEE89-58D4-4E7E-A102-225AA152E2EA",
  "edited": true,
  "exportOptions": {
    "_class": "exportOptions",
    "do_objectID": "5237E593-E269-4B7E-AFA3-4BC9451EE708",
    "exportFormats": [
    ],
    "includedLayerIds": [
    ],
    "layerOptions": 0,
    "shouldTrim": false
  },
  "frame": {
    "_class": "rect",
    "constrainProportions": false,
    "do_objectID": "098A842F-1A3A-42C2-88F3-7FF2FA40F654",
    "height": 7.999999519999999,
    "width": 7.999999519999999,
    "x": 0,
    "y": 2.999999819999999
  },
  "isClosed": true,
  "isFixedToViewport": false,
  "isFlippedHorizontal": false,
  "isFlippedVertical": false,
  "isLocked": false,
  "isVisible": true,
  "layerListExpandedType": 0,
  "name": "Path",
  "nameIsFixed": false,
  "pointRadiusBehaviour": 0,
  "points": [
    {
      "_class": "curvePoint",
      "cornerRadius": 0,
      "curveFrom": "{0.62500000000000011, 0.37499999999999994}",
      "curveMode": 1,
      "curveTo": "{0.62500000000000011, 0.37499999999999994}",
      "hasCurveFrom": false,
      "hasCurveTo": false,
      "point": "{0.62500000000000011, 0.37499999999999994}"
    },
    {
      "_class": "curvePoint",
      "cornerRadius": 0,
      "curveFrom": "{0.62500000000000011, 0}",
      "curveMode": 1,
      "curveTo": "{0.62500000000000011, 0}",
      "hasCurveFrom": false,
      "hasCurveTo": false,
      "point": "{0.62500000000000011, 0}"
    },
    {
      "_class": "curvePoint",
      "cornerRadius": 0,
      "curveFrom": "{0.37500000000000006, 0}",
      "curveMode": 1,
      "curveTo": "{0.37500000000000006, 0}",
      "hasCurveFrom": false,
      "hasCurveTo": false,
      "point": "{0.37500000000000006, 0}"
    },
    {
      "_class": "curvePoint",
      "cornerRadius": 0,
      "curveFrom": "{0.37500000000000006, 0.37499999999999994}",
      "curveMode": 1,
      "curveTo": "{0.37500000000000006, 0.37499999999999994}",
      "hasCurveFrom": false,
      "hasCurveTo": false,
      "point": "{0.37500000000000006, 0.37499999999999994}"
    },
    {
      "_class": "curvePoint",
      "cornerRadius": 0,
      "curveFrom": "{0, 0.37499999999999994}",
      "curveMode": 1,
      "curveTo": "{0, 0.37499999999999994}",
      "hasCurveFrom": false,
      "hasCurveTo": false,
      "point": "{0, 0.37499999999999994}"
    },
    {
      "_class": "curvePoint",
      "cornerRadius": 0,
      "curveFrom": "{0, 0.62500000000000011}",
      "curveMode": 1,
      "curveTo": "{0, 0.62500000000000011}",
      "hasCurveFrom": false,
      "hasCurveTo": false,
      "point": "{0, 0.62500000000000011}"
    },
    {
      "_class": "curvePoint",
      "cornerRadius": 0,
      "curveFrom": "{0.37500000000000006, 0.62500000000000011}",
      "curveMode": 1,
      "curveTo": "{0.37500000000000006, 0.62500000000000011}",
      "hasCurveFrom": false,
      "hasCurveTo": false,
      "point": "{0.37500000000000006, 0.62500000000000011}"
    },
    {
      "_class": "curvePoint",
      "cornerRadius": 0,
      "curveFrom": "{0.37500000000000006, 1}",
      "curveMode": 1,
      "curveTo": "{0.37500000000000006, 1}",
      "hasCurveFrom": false,
      "hasCurveTo": false,
      "point": "{0.37500000000000006, 1}"
    },
    {
      "_class": "curvePoint",
      "cornerRadius": 0,
      "curveFrom": "{0.62500000000000011, 1}",
      "curveMode": 1,
      "curveTo": "{0.62500000000000011, 1}",
      "hasCurveFrom": false,
      "hasCurveTo": false,
      "point": "{0.62500000000000011, 1}"
    },
    {
      "_class": "curvePoint",
      "cornerRadius": 0,
      "curveFrom": "{0.62500000000000011, 0.62500000000000011}",
      "curveMode": 1,
      "curveTo": "{0.62500000000000011, 0.62500000000000011}",
      "hasCurveFrom": false,
      "hasCurveTo": false,
      "point": "{0.62500000000000011, 0.62500000000000011}"
    },
    {
      "_class": "curvePoint",
      "cornerRadius": 0,
      "curveFrom": "{1, 0.62500000000000011}",
      "curveMode": 1,
      "curveTo": "{1, 0.62500000000000011}",
      "hasCurveFrom": false,
      "hasCurveTo": false,
      "point": "{1, 0.62500000000000011}"
    },
    {
      "_class": "curvePoint",
      "cornerRadius": 0,
      "curveFrom": "{1, 0.37499999999999994}",
      "curveMode": 1,
      "curveTo": "{1, 0.37499999999999994}",
      "hasCurveFrom": false,
      "hasCurveTo": false,
      "point": "{1, 0.37499999999999994}"
    }
  ],
  "resizingConstraint": 63,
  "resizingType": 0,
  "rotation": 0,
  "shouldBreakMaskChain": false
}