{
  "_class": "rectangle",
  "booleanOperation": -1,
  "do_objectID": "620D745A-8E66-4410-B5C8-EF82E8D28521",
  "edited": true,
  "exportOptions": {
    "_class": "exportOptions",
    "exportFormats": [
    ],
    "includedLayerIds": [
    ],
    "layerOptions": 0,
    "shouldTrim": false
  },
  "fixedRadius": 3,
  "frame": {
    "_class": "rect",
    "constrainProportions": false,
    "height": 38.09782078445824,
    "width": 23.44700197415401,
    "x": 0,
    "y": 0
  },
  "hasConvertedToNewRoundCorners": true,
  "isClosed": true,
  "isFixedToViewport": false,
  "isFlippedHorizontal": false,
  "isFlippedVertical": false,
  "isLocked": false,
  "isVisible": true,
  "layerListExpandedType": 0,
  "name": "Path",
  "nameIsFixed": false,
  "pointRadiusBehaviour": 0,
  "points": [
    {
      "_class": "curvePoint",
      "cornerRadius": 3,
      "curveFrom": "{0, -3.2321390132525994e-05}",
      "curveMode": 1,
      "curveTo": "{0, -3.2321390132525994e-05}",
      "hasCurveFrom": false,
      "hasCurveTo": false,
      "point": "{0, -3.2321390132525994e-05}"
    },
    {
      "_class": "curvePoint",
      "cornerRadius": 0,
      "curveFrom": "{1, 0.24613898658520234}",
      "curveMode": 1,
      "curveTo": "{1, 0.00022090211892406825}",
      "hasCurveFrom": false,
      "hasCurveTo": false,
      "point": "{1, 0.00022090211892406825}"
    },
    {
      "_class": "curvePoint",
      "cornerRadius": 0,
      "curveFrom": "{1, 0.8260033546327451}",
      "curveMode": 1,
      "curveTo": "{1, 0.49205707105148067}",
      "hasCurveFrom": false,
      "hasCurveTo": false,
      "point": "{1, 0.73797515551775883}"
    },
    {
      "_class": "curvePoint",
      "cornerRadius": 0,
      "curveFrom": "{0.4145315328296062, 0.99933164792192153}",
      "curveMode": 1,
      "curveTo": "{0.7053093930389519, 1.0006865842875725}",
      "hasCurveFrom": false,
      "hasCurveTo": false,
      "point": "{0.55796408955842791, 1}"
    },
    {
      "_class": "curvePoint",
      "cornerRadius": 3,
      "curveFrom": "{0, 0.99740005709125934}",
      "curveMode": 1,
      "curveTo": "{0.27109897610078432, 0.99866329584384284}",
      "hasCurveFrom": false,
      "hasCurveTo": false,
      "point": "{0, 0.99740005709125934}"
    }
  ],
  "resizingConstraint": 63,
  "resizingType": 0,
  "rotation": 0,
  "shouldBreakMaskChain": false
}