{
  "_class": "group",
  "booleanOperation": -1,
  "do_objectID": "EE65F3C9-C92C-4A91-B259-D1D7AF9B3E61",
  "exportOptions": {
    "_class": "exportOptions",
    "do_objectID": "D6301F40-655E-4434-A5F2-A095DD7A8FE4",
    "exportFormats": [
    ],
    "includedLayerIds": [
    ],
    "layerOptions": 0,
    "shouldTrim": false
  },
  "frame": {
    "_class": "rect",
    "constrainProportions": false,
    "do_objectID": "57D840B6-8297-4C8B-BC9F-DDA4DBEDDC8B",
    "height": 80,
    "width": 320,
    "x": 0,
    "y": 0
  },
  "hasClickThrough": false,
  "isFixedToViewport": false,
  "isFlippedHorizontal": false,
  "isFlippedVertical": false,
  "isLocked": false,
  "isVisible": true,
  "layerListExpandedType": 2,
  "layers": [
    {
      "class": "shapeGroup",
      "id": "3C49E61C-D329-4B79-8CA5-20EDCB51FF22"
    },
    {
      "class": "text",
      "id": "D0874448-A007-4AE6-8F92-E3F365637E02"
    },
    {
      "class": "text",
      "id": "18736989-635F-4656-BD45-C3B5C43016E7"
    },
    {
      "class": "shapeGroup",
      "id": "DF3928E5-B197-4B04-8813-5E2547D32C8F"
    },
    {
      "class": "symbolInstance",
      "id": "7EE76FCF-2B80-462F-A540-8FBB45086ED7"
    },
    {
      "class": "text",
      "id": "0CAB50FB-2E76-40B1-B514-C0770364C08E"
    },
    {
      "class": "text",
      "id": "2F069211-46B3-4AF7-BAAE-F2CF921D9CFF"
    },
    {
      "class": "symbolInstance",
      "id": "FA26B8D8-5180-439E-BFF1-BED53A7E3B03"
    },
    {
      "class": "symbolInstance",
      "id": "ACF57C6A-8915-4937-BE3B-6FF802950A89"
    },
    {
      "class": "symbolInstance",
      "id": "20EC755A-483C-48DB-A48A-6AC9FD3752B2"
    }
  ],
  "name": "25h8/Chat/Chat List/Focused/Short Title/chat-list-item+entity+state-icon",
  "nameIsFixed": true,
  "resizingConstraint": 63,
  "resizingType": 0,
  "rotation": 0,
  "shouldBreakMaskChain": false,
  "style": {
    "_class": "style",
    "do_objectID": "6FBFCBCB-C90F-43CC-8ECD-37780E2C91A8",
    "endMarkerType": 0,
    "miterLimit": 10,
    "startMarkerType": 0,
    "windingRule": 1
  }
}