{
  "_class": "symbolInstance",
  "booleanOperation": 0,
  "do_objectID": "34C0228D-04D1-4BEA-A07C-D70832E6E20D",
  "exportOptions": {
    "_class": "exportOptions",
    "do_objectID": "CD9BEE69-2AB6-457A-B2EB-0648B024E517",
    "exportFormats": [
    ],
    "includedLayerIds": [
    ],
    "layerOptions": 0,
    "shouldTrim": false
  },
  "frame": {
    "_class": "rect",
    "constrainProportions": false,
    "do_objectID": "972FDE3A-0ECE-4DCD-B498-F91DA456CF48",
    "height": 80,
    "width": 423,
    "x": 0,
    "y": 601
  },
  "horizontalSpacing": 0,
  "isFixedToViewport": false,
  "isFlippedHorizontal": false,
  "isFlippedVertical": false,
  "isLocked": false,
  "isVisible": true,
  "layerListExpandedType": 0,
  "name": "25h8/chat/chat-area/chat-message-area/chat-message-emotion-dSig-pin",
  "nameIsFixed": false,
  "overrideValues": [
  ],
  "resizingConstraint": 63,
  "resizingType": 0,
  "rotation": 0,
  "scale": 1,
  "shouldBreakMaskChain": false,
  "style": {
    "_class": "style",
    "do_objectID": "3741C447-AC4D-4E8D-A2F2-622B4E2C616C",
    "endMarkerType": 0,
    "miterLimit": 10,
    "startMarkerType": 0,
    "windingRule": 1
  },
  "symbolID": "31FCCECD-B1C3-4425-9F6A-8ED31FB9D099",
  "verticalSpacing": 0
}