{
  "_class": "shapePath",
  "booleanOperation": -1,
  "do_objectID": "548EEBAF-3519-4EC3-8E16-3714C2EA18C2",
  "edited": true,
  "exportOptions": {
    "_class": "exportOptions",
    "do_objectID": "3BBBA4A7-63E0-401A-A244-2A0614AABA9D",
    "exportFormats": [
    ],
    "includedLayerIds": [
    ],
    "layerOptions": 0,
    "shouldTrim": false
  },
  "frame": {
    "_class": "rect",
    "constrainProportions": false,
    "do_objectID": "7B487057-BEFE-4AC1-B860-8A6730ADB864",
    "height": 13.00003,
    "width": 14,
    "x": 8.999999999999998e-16,
    "y": 4e-16
  },
  "isClosed": true,
  "isFixedToViewport": false,
  "isFlippedHorizontal": false,
  "isFlippedVertical": false,
  "isLocked": false,
  "isVisible": true,
  "layerListExpandedType": 0,
  "name": "Path",
  "nameIsFixed": false,
  "pointRadiusBehaviour": 0,
  "points": [
    {
      "_class": "curvePoint",
      "cornerRadius": 0,
      "curveFrom": "{1, 0.46153739645216202}",
      "curveMode": 1,
      "curveTo": "{1, 0.46153739645216202}",
      "hasCurveFrom": false,
      "hasCurveTo": false,
      "point": "{1, 0.46153739645216202}"
    },
    {
      "_class": "curvePoint",
      "cornerRadius": 0,
      "curveFrom": "{0.71428571428571419, 0.46153739645216202}",
      "curveMode": 1,
      "curveTo": "{0.71428571428571419, 0.46153739645216202}",
      "hasCurveFrom": false,
      "hasCurveTo": false,
      "point": "{0.71428571428571419, 0.46153739645216202}"
    },
    {
      "_class": "curvePoint",
      "cornerRadius": 0,
      "curveFrom": "{0.71428571428571419, 0}",
      "curveMode": 1,
      "curveTo": "{0.71428571428571419, 0}",
      "hasCurveFrom": false,
      "hasCurveTo": false,
      "point": "{0.71428571428571419, 0}"
    },
    {
      "_class": "curvePoint",
      "cornerRadius": 0,
      "curveFrom": "{0.2857142857142857, 0}",
      "curveMode": 1,
      "curveTo": "{0.2857142857142857, 0}",
      "hasCurveFrom": false,
      "hasCurveTo": false,
      "point": "{0.2857142857142857, 0}"
    },
    {
      "_class": "curvePoint",
      "cornerRadius": 0,
      "curveFrom": "{0.2857142857142857, 0.46153739645216202}",
      "curveMode": 1,
      "curveTo": "{0.2857142857142857, 0.46153739645216202}",
      "hasCurveFrom": false,
      "hasCurveTo": false,
      "point": "{0.2857142857142857, 0.46153739645216202}"
    },
    {
      "_class": "curvePoint",
      "cornerRadius": 0,
      "curveFrom": "{0, 0.46153739645216202}",
      "curveMode": 1,
      "curveTo": "{0, 0.46153739645216202}",
      "hasCurveFrom": false,
      "hasCurveTo": false,
      "point": "{0, 0.46153739645216202}"
    },
    {
      "_class": "curvePoint",
      "cornerRadius": 0,
      "curveFrom": "{0.49999999999999994, 1}",
      "curveMode": 1,
      "curveTo": "{0.49999999999999994, 1}",
      "hasCurveFrom": false,
      "hasCurveTo": false,
      "point": "{0.49999999999999994, 1}"
    },
    {
      "_class": "curvePoint",
      "cornerRadius": 0,
      "curveFrom": "{1, 0.46153739645216202}",
      "curveMode": 1,
      "curveTo": "{1, 0.46153739645216202}",
      "hasCurveFrom": false,
      "hasCurveTo": false,
      "point": "{1, 0.46153739645216202}"
    }
  ],
  "resizingConstraint": 63,
  "resizingType": 0,
  "rotation": 0,
  "shouldBreakMaskChain": false
}