{
  "_class": "symbolInstance",
  "booleanOperation": 0,
  "do_objectID": "E783EB3D-DCD8-4727-A7C2-4EB4E4B8B9BC",
  "exportOptions": {
    "_class": "exportOptions",
    "do_objectID": "57E9C548-055D-49D3-B925-8B4A7EE4CF30",
    "exportFormats": [
    ],
    "includedLayerIds": [
    ],
    "layerOptions": 0,
    "shouldTrim": false
  },
  "frame": {
    "_class": "rect",
    "constrainProportions": false,
    "do_objectID": "A8D69A70-3A7B-4820-8058-D21F9272EA75",
    "height": 72,
    "width": 72,
    "x": 0,
    "y": 495
  },
  "horizontalSpacing": 0,
  "isFixedToViewport": false,
  "isFlippedHorizontal": false,
  "isFlippedVertical": false,
  "isLocked": false,
  "isVisible": true,
  "layerListExpandedType": 0,
  "name": "product-logo-button copy",
  "nameIsFixed": true,
  "originalObjectID": "4DA53197-7BA7-435C-8748-21FB1B337C7E",
  "overrideValues": [
    {
      "_class": "overrideValue",
      "do_objectID": "054302C3-17EE-4395-909E-B3125BCB64A0",
      "overrideName": "26F1404E-F3C0-419B-B8F4-622C5BC90554_symbolID",
      "value": "6B03D044-74B5-40AA-9690-C9713B2F04FA"
    },
    {
      "_class": "overrideValue",
      "do_objectID": "62212219-8F3F-48C3-8CBD-F07E87300F72",
      "overrideName": "25381E17-CBB5-430B-A192-934362D8229F_stringValue",
      "value": "Чати"
    }
  ],
  "resizingConstraint": 63,
  "resizingType": 0,
  "rotation": 0,
  "scale": 1,
  "shouldBreakMaskChain": false,
  "style": {
    "_class": "style",
    "do_objectID": "11B0FCE4-6382-4714-8356-C181309D55EF",
    "endMarkerType": 0,
    "miterLimit": 10,
    "startMarkerType": 0,
    "windingRule": 1
  },
  "symbolID": "B3CB454D-5E02-4633-89B9-F6DDCB2ED198",
  "verticalSpacing": 0
}