{
  "_class": "symbolInstance",
  "booleanOperation": 0,
  "do_objectID": "81DF2FF7-1AE6-420A-ADD8-7E1AF5C06EC6",
  "exportOptions": {
    "_class": "exportOptions",
    "do_objectID": "FA4F056A-41A0-430B-A9D3-C7E400593463",
    "exportFormats": [
    ],
    "includedLayerIds": [
    ],
    "layerOptions": 0,
    "shouldTrim": false
  },
  "frame": {
    "_class": "rect",
    "constrainProportions": false,
    "do_objectID": "772E3F21-4A76-4884-A9B8-B45F90098652",
    "height": 40,
    "width": 40,
    "x": 981,
    "y": 12
  },
  "horizontalSpacing": 0,
  "isFixedToViewport": false,
  "isFlippedHorizontal": false,
  "isFlippedVertical": false,
  "isLocked": false,
  "isVisible": true,
  "layerListExpandedType": 0,
  "name": "mat-badge",
  "nameIsFixed": false,
  "overrideValues": [
  ],
  "resizingConstraint": 63,
  "resizingType": 0,
  "rotation": 0,
  "scale": 1,
  "shouldBreakMaskChain": false,
  "style": {
    "_class": "style",
    "do_objectID": "90F7E3EF-6233-4EB0-8676-5F75A056CE96",
    "endMarkerType": 0,
    "miterLimit": 10,
    "startMarkerType": 0,
    "windingRule": 1
  },
  "symbolID": "62381AFC-B8E3-4AED-9294-379BF8BC5F92",
  "verticalSpacing": 0
}