{
  "_class": "shapePath",
  "booleanOperation": -1,
  "do_objectID": "1C2AA9BE-5B3D-4DAE-82BD-5598007511C3",
  "edited": true,
  "exportOptions": {
    "_class": "exportOptions",
    "exportFormats": [
    ],
    "includedLayerIds": [
    ],
    "layerOptions": 0,
    "shouldTrim": false
  },
  "frame": {
    "_class": "rect",
    "constrainProportions": false,
    "height": 14,
    "width": 34,
    "x": 0,
    "y": 0
  },
  "isClosed": true,
  "isFixedToViewport": false,
  "isFlippedHorizontal": false,
  "isFlippedVertical": false,
  "isLocked": false,
  "isVisible": true,
  "layerListExpandedType": 0,
  "name": "Path",
  "nameIsFixed": false,
  "pointRadiusBehaviour": 0,
  "points": [
    {
      "_class": "curvePoint",
      "cornerRadius": 0,
      "curveFrom": "{1, 0.77857142857142903}",
      "curveMode": 4,
      "curveTo": "{1, 0.5}",
      "hasCurveFrom": true,
      "hasCurveTo": false,
      "point": "{1, 0.5}"
    },
    {
      "_class": "curvePoint",
      "cornerRadius": 0,
      "curveFrom": "{0.79411764705882348, 1}",
      "curveMode": 4,
      "curveTo": "{0.90882352941176492, 1}",
      "hasCurveFrom": false,
      "hasCurveTo": true,
      "point": "{0.79411764705882348, 1}"
    },
    {
      "_class": "curvePoint",
      "cornerRadius": 0,
      "curveFrom": "{0.091176470588235123, 1}",
      "curveMode": 4,
      "curveTo": "{0.20588235294117646, 1}",
      "hasCurveFrom": true,
      "hasCurveTo": false,
      "point": "{0.20588235294117646, 1}"
    },
    {
      "_class": "curvePoint",
      "cornerRadius": 0,
      "curveFrom": "{0, 0.5}",
      "curveMode": 4,
      "curveTo": "{0, 0.77857142857142903}",
      "hasCurveFrom": false,
      "hasCurveTo": true,
      "point": "{0, 0.5}"
    },
    {
      "_class": "curvePoint",
      "cornerRadius": 0,
      "curveFrom": "{0, 0.22142857142857103}",
      "curveMode": 4,
      "curveTo": "{0, 0.5}",
      "hasCurveFrom": true,
      "hasCurveTo": false,
      "point": "{0, 0.5}"
    },
    {
      "_class": "curvePoint",
      "cornerRadius": 0,
      "curveFrom": "{0.20588235294117646, 0}",
      "curveMode": 4,
      "curveTo": "{0.091176470588235123, 0}",
      "hasCurveFrom": false,
      "hasCurveTo": true,
      "point": "{0.20588235294117646, 0}"
    },
    {
      "_class": "curvePoint",
      "cornerRadius": 0,
      "curveFrom": "{0.90882352941176492, 0}",
      "curveMode": 4,
      "curveTo": "{0.79411764705882348, 0}",
      "hasCurveFrom": true,
      "hasCurveTo": false,
      "point": "{0.79411764705882348, 0}"
    },
    {
      "_class": "curvePoint",
      "cornerRadius": 0,
      "curveFrom": "{1, 0.5}",
      "curveMode": 4,
      "curveTo": "{1, 0.22142857142857103}",
      "hasCurveFrom": false,
      "hasCurveTo": true,
      "point": "{1, 0.5}"
    },
    {
      "_class": "curvePoint",
      "cornerRadius": 0,
      "curveFrom": "{1, 0.5}",
      "curveMode": 1,
      "curveTo": "{1, 0.5}",
      "hasCurveFrom": false,
      "hasCurveTo": false,
      "point": "{1, 0.5}"
    }
  ],
  "resizingConstraint": 63,
  "resizingType": 0,
  "rotation": 0,
  "shouldBreakMaskChain": false
}