{
  "_class": "group",
  "booleanOperation": 0,
  "do_objectID": "2EEB4704-5973-41F4-89D8-08EDB4C58145",
  "exportOptions": {
    "_class": "exportOptions",
    "exportFormats": [
      {
        "_class": "exportFormat",
        "absoluteSize": 0,
        "fileFormat": "png",
        "name": "",
        "namingScheme": 0,
        "scale": 1,
        "visibleScaleType": 0
      }
    ],
    "includedLayerIds": [
    ],
    "layerOptions": 0,
    "shouldTrim": false
  },
  "frame": {
    "_class": "rect",
    "constrainProportions": false,
    "height": 64,
    "width": 64,
    "x": 0,
    "y": 0
  },
  "hasClickThrough": false,
  "isFixedToViewport": false,
  "isFlippedHorizontal": false,
  "isFlippedVertical": false,
  "isLocked": false,
  "isVisible": true,
  "layerListExpandedType": 1,
  "layers": [
    {
      "class": "shapeGroup",
      "id": "0D9C4D60-7EDC-493B-9AAB-23ED5A8EA4FC"
    },
    {
      "class": "shapeGroup",
      "id": "3F301FE7-946E-4FAA-819B-632CC8A2CF0E"
    },
    {
      "class": "shapeGroup",
      "id": "3ADB6D64-EE74-4B8D-9894-64B26C02F1A9"
    },
    {
      "class": "shapeGroup",
      "id": "B6C4C269-6F6A-4D36-A8D9-5BA1B4F6A77F"
    }
  ],
  "name": "Material/Icons/Black/Active/filter variant",
  "nameIsFixed": false,
  "resizingConstraint": 63,
  "resizingType": 0,
  "rotation": 0,
  "shouldBreakMaskChain": false,
  "style": {
    "_class": "style",
    "endMarkerType": 0,
    "miterLimit": 10,
    "startMarkerType": 0,
    "windingRule": 1
  },
  "userInfo": {
    "com.animaapp.stc-sketch-plugin": {
      "kModelPropertiesKey": {
      }
    }
  }
}