{
  "_class": "symbolInstance",
  "booleanOperation": 0,
  "do_objectID": "C8FC7733-E9BE-47F6-9B7F-3EF982D2CFDB",
  "exportOptions": {
    "_class": "exportOptions",
    "do_objectID": "0394A6CB-7E6F-4CA3-89A7-CA7F3CB52195",
    "exportFormats": [
    ],
    "includedLayerIds": [
    ],
    "layerOptions": 0,
    "shouldTrim": false
  },
  "frame": {
    "_class": "rect",
    "constrainProportions": false,
    "do_objectID": "27C26238-90D1-4494-B6A1-DBEE8AE19035",
    "height": 40,
    "width": 224,
    "x": 48,
    "y": 4
  },
  "horizontalSpacing": 0,
  "isFixedToViewport": false,
  "isFlippedHorizontal": false,
  "isFlippedVertical": false,
  "isLocked": false,
  "isVisible": true,
  "layerListExpandedType": 0,
  "name": "25h8/chat/txt/search-input",
  "nameIsFixed": false,
  "overrideValues": [
  ],
  "resizingConstraint": 63,
  "resizingType": 0,
  "rotation": 0,
  "scale": 1,
  "shouldBreakMaskChain": false,
  "style": {
    "_class": "style",
    "do_objectID": "4C7881EB-8A4E-431F-B146-C3F8A19F0772",
    "endMarkerType": 0,
    "miterLimit": 10,
    "startMarkerType": 0,
    "windingRule": 1
  },
  "symbolID": "B7D015F4-D305-4993-B906-60A6D7F71BC6",
  "verticalSpacing": 0
}