{
  "_class": "symbolInstance",
  "booleanOperation": 0,
  "do_objectID": "E4385006-15EF-4CEF-AF1B-83FDF0E28717",
  "exportOptions": {
    "_class": "exportOptions",
    "do_objectID": "47FAA30F-03A3-4EF3-86F7-9553A516CEB7",
    "exportFormats": [
    ],
    "includedLayerIds": [
    ],
    "layerOptions": 0,
    "shouldTrim": false
  },
  "frame": {
    "_class": "rect",
    "constrainProportions": false,
    "do_objectID": "24A40942-81F2-46A8-8033-5C165E17C365",
    "height": 40,
    "width": 40,
    "x": 4,
    "y": 4
  },
  "horizontalSpacing": 0,
  "isFixedToViewport": false,
  "isFlippedHorizontal": false,
  "isFlippedVertical": false,
  "isLocked": false,
  "isVisible": true,
  "layerListExpandedType": 0,
  "name": "25h8/chat/mat-icon-button/arrow/arrow-down-defaul-white copy",
  "nameIsFixed": false,
  "overrideValues": [
  ],
  "resizingConstraint": 57,
  "resizingType": 0,
  "rotation": 0,
  "scale": 1,
  "shouldBreakMaskChain": false,
  "style": {
    "_class": "style",
    "do_objectID": "449C6D12-53B9-422B-A064-8D4C39C159B0",
    "endMarkerType": 0,
    "miterLimit": 10,
    "startMarkerType": 0,
    "windingRule": 1
  },
  "symbolID": "C80409A1-8421-46F7-ACFA-2585674622E9",
  "verticalSpacing": 0
}