{
  "_class": "group",
  "booleanOperation": 0,
  "do_objectID": "37003FDC-C316-4979-A7A4-33C5CA5AE231",
  "exportOptions": {
    "_class": "exportOptions",
    "do_objectID": "E599A9E5-46E3-4D29-B31B-59523761EAEE",
    "exportFormats": [
    ],
    "includedLayerIds": [
    ],
    "layerOptions": 0,
    "shouldTrim": false
  },
  "frame": {
    "_class": "rect",
    "constrainProportions": false,
    "do_objectID": "1E97F94D-DA40-4637-A656-7B91A9CBE658",
    "height": 48,
    "width": 320,
    "x": 0,
    "y": 0
  },
  "hasClickThrough": false,
  "isFixedToViewport": false,
  "isFlippedHorizontal": false,
  "isFlippedVertical": false,
  "isLocked": false,
  "isVisible": true,
  "layerListExpandedType": 2,
  "layers": [
    {
      "class": "shapeGroup",
      "id": "DD518EE7-6BE0-4460-9B15-8A6C2BDE024E"
    },
    {
      "class": "group",
      "id": "02EE799A-5D04-4C7E-B490-2E963ABFF9ED"
    }
  ],
  "name": "mat-expensionpanel-header",
  "nameIsFixed": true,
  "resizingConstraint": 63,
  "resizingType": 0,
  "rotation": 0,
  "shouldBreakMaskChain": false,
  "style": {
    "_class": "style",
    "do_objectID": "F1CE60D8-E94E-4B44-B452-D6C9CE596AD7",
    "endMarkerType": 0,
    "miterLimit": 10,
    "startMarkerType": 0,
    "windingRule": 1
  }
}