{
  "_class": "symbolInstance",
  "booleanOperation": 0,
  "do_objectID": "533FFAEE-DCF6-43CD-97AF-F152B2A332B6",
  "exportOptions": {
    "_class": "exportOptions",
    "do_objectID": "D872198E-6AD9-4812-8BD4-2525214F9E6A",
    "exportFormats": [
    ],
    "includedLayerIds": [
    ],
    "layerOptions": 0,
    "shouldTrim": false
  },
  "frame": {
    "_class": "rect",
    "constrainProportions": false,
    "do_objectID": "9FEA7EC6-1F34-484C-B1FE-258720767720",
    "height": 72,
    "width": 72,
    "x": 0,
    "y": 95
  },
  "horizontalSpacing": 0,
  "isFixedToViewport": false,
  "isFlippedHorizontal": false,
  "isFlippedVertical": false,
  "isLocked": false,
  "isVisible": true,
  "layerListExpandedType": 0,
  "name": "product-logo-button",
  "nameIsFixed": true,
  "originalObjectID": "4DA53197-7BA7-435C-8748-21FB1B337C7E",
  "overrideValues": [
    {
      "_class": "overrideValue",
      "overrideName": "F7151B9A-EF7D-4EA9-9DAC-475DBD8F713C_symbolID",
      "value": "0A6F6C85-EC93-4D45-B53B-331FFEF780D3"
    },
    {
      "_class": "overrideValue",
      "do_objectID": "A29B7B2A-94BA-4027-B509-EDAD757A5361",
      "overrideName": "1D239C15-3CAA-4EB9-8073-23C3A9CD6F86_stringValue",
      "value": "Кабінет"
    }
  ],
  "resizingConstraint": 63,
  "resizingType": 0,
  "rotation": 0,
  "scale": 1,
  "shouldBreakMaskChain": false,
  "style": {
    "_class": "style",
    "do_objectID": "FAC2CA62-9641-4297-8E59-FF57C5C86DBA",
    "endMarkerType": 0,
    "miterLimit": 10,
    "startMarkerType": 0,
    "windingRule": 1
  },
  "symbolID": "76E385AD-0E0D-421D-8DFE-31E0276DF25D",
  "verticalSpacing": 0
}