{
  "_class": "symbolInstance",
  "booleanOperation": 0,
  "do_objectID": "C9C122A0-3457-42A9-B263-811E3319F039",
  "exportOptions": {
    "_class": "exportOptions",
    "do_objectID": "68091890-DDF0-4FB1-B8D4-364A7EA80B9B",
    "exportFormats": [
    ],
    "includedLayerIds": [
    ],
    "layerOptions": 0,
    "shouldTrim": false
  },
  "frame": {
    "_class": "rect",
    "constrainProportions": false,
    "do_objectID": "CFEF62F0-3CAB-4576-8199-D9C89C099390",
    "height": 72,
    "width": 72,
    "x": 0,
    "y": 15
  },
  "horizontalSpacing": 0,
  "isFixedToViewport": false,
  "isFlippedHorizontal": false,
  "isFlippedVertical": false,
  "isLocked": false,
  "isVisible": true,
  "layerListExpandedType": 0,
  "name": "product-logo-button",
  "nameIsFixed": true,
  "originalObjectID": "4DA53197-7BA7-435C-8748-21FB1B337C7E",
  "overrideValues": [
    {
      "_class": "overrideValue",
      "do_objectID": "96EC919B-ED1E-498B-B01F-3E64968E4889",
      "overrideName": "D3925EAB-AAA9-4E16-B0CB-8FECF4EAE741_stringValue",
      "value": "Пошук"
    }
  ],
  "resizingConstraint": 63,
  "resizingType": 0,
  "rotation": 0,
  "scale": 1,
  "shouldBreakMaskChain": false,
  "style": {
    "_class": "style",
    "do_objectID": "9E219D9D-C849-4643-8297-5525A7E1A9D3",
    "endMarkerType": 0,
    "miterLimit": 10,
    "startMarkerType": 0,
    "windingRule": 1
  },
  "symbolID": "44E89865-1068-43AB-9E5F-0A8485105CB9",
  "verticalSpacing": 0
}