{
  "_class": "shapePath",
  "booleanOperation": -1,
  "do_objectID": "591C2423-9BE4-4EFD-8D3A-9AE554998DA4",
  "edited": true,
  "exportOptions": {
    "_class": "exportOptions",
    "do_objectID": "C2EC0592-BA48-4755-A137-A0068E8C14FE",
    "exportFormats": [
    ],
    "includedLayerIds": [
    ],
    "layerOptions": 0,
    "shouldTrim": false
  },
  "frame": {
    "_class": "rect",
    "constrainProportions": false,
    "do_objectID": "D32B376C-494A-4D8F-B650-B7FF71D63C31",
    "height": 20,
    "width": 20,
    "x": 0,
    "y": 0
  },
  "isClosed": true,
  "isFixedToViewport": false,
  "isFlippedHorizontal": false,
  "isFlippedVertical": false,
  "isLocked": false,
  "isVisible": true,
  "layerListExpandedType": 0,
  "name": "Path",
  "nameIsFixed": false,
  "pointRadiusBehaviour": 0,
  "points": [
    {
      "_class": "curvePoint",
      "cornerRadius": 0,
      "curveFrom": "{0, 1}",
      "curveMode": 1,
      "curveTo": "{0, 1}",
      "hasCurveFrom": false,
      "hasCurveTo": false,
      "point": "{0, 1}"
    },
    {
      "_class": "curvePoint",
      "cornerRadius": 0,
      "curveFrom": "{0, 0.3000005}",
      "curveMode": 1,
      "curveTo": "{0, 0.3000005}",
      "hasCurveFrom": false,
      "hasCurveTo": false,
      "point": "{0, 0.3000005}"
    },
    {
      "_class": "curvePoint",
      "cornerRadius": 0,
      "curveFrom": "{0.25, 0.5}",
      "curveMode": 1,
      "curveTo": "{0.25, 0.5}",
      "hasCurveFrom": false,
      "hasCurveTo": false,
      "point": "{0.25, 0.5}"
    },
    {
      "_class": "curvePoint",
      "cornerRadius": 0,
      "curveFrom": "{0.25, 0.3000005}",
      "curveMode": 1,
      "curveTo": "{0.25, 0.3000005}",
      "hasCurveFrom": false,
      "hasCurveTo": false,
      "point": "{0.25, 0.3000005}"
    },
    {
      "_class": "curvePoint",
      "cornerRadius": 0,
      "curveFrom": "{0.5, 0.5}",
      "curveMode": 1,
      "curveTo": "{0.5, 0.5}",
      "hasCurveFrom": false,
      "hasCurveTo": false,
      "point": "{0.5, 0.5}"
    },
    {
      "_class": "curvePoint",
      "cornerRadius": 0,
      "curveFrom": "{0.5, 0.3000005}",
      "curveMode": 1,
      "curveTo": "{0.5, 0.3000005}",
      "hasCurveFrom": false,
      "hasCurveTo": false,
      "point": "{0.5, 0.3000005}"
    },
    {
      "_class": "curvePoint",
      "cornerRadius": 0,
      "curveFrom": "{0.75, 0.5}",
      "curveMode": 1,
      "curveTo": "{0.75, 0.5}",
      "hasCurveFrom": false,
      "hasCurveTo": false,
      "point": "{0.75, 0.5}"
    },
    {
      "_class": "curvePoint",
      "cornerRadius": 0,
      "curveFrom": "{0.80000000000000004, 5.0000000000327556e-07}",
      "curveMode": 1,
      "curveTo": "{0.80000000000000004, 5.0000000000327556e-07}",
      "hasCurveFrom": false,
      "hasCurveTo": false,
      "point": "{0.80000000000000004, 5.0000000000327556e-07}"
    },
    {
      "_class": "curvePoint",
      "cornerRadius": 0,
      "curveFrom": "{0.94999999999999996, 0}",
      "curveMode": 1,
      "curveTo": "{0.94999999999999996, 0}",
      "hasCurveFrom": false,
      "hasCurveTo": false,
      "point": "{0.94999999999999996, 0}"
    },
    {
      "_class": "curvePoint",
      "cornerRadius": 0,
      "curveFrom": "{1, 0.5}",
      "curveMode": 1,
      "curveTo": "{1, 0.5}",
      "hasCurveFrom": false,
      "hasCurveTo": false,
      "point": "{1, 0.5}"
    },
    {
      "_class": "curvePoint",
      "cornerRadius": 0,
      "curveFrom": "{1, 1}",
      "curveMode": 1,
      "curveTo": "{1, 1}",
      "hasCurveFrom": false,
      "hasCurveTo": false,
      "point": "{1, 1}"
    },
    {
      "_class": "curvePoint",
      "cornerRadius": 0,
      "curveFrom": "{0, 1}",
      "curveMode": 1,
      "curveTo": "{0, 1}",
      "hasCurveFrom": false,
      "hasCurveTo": false,
      "point": "{0, 1}"
    }
  ],
  "resizingConstraint": 63,
  "resizingType": 0,
  "rotation": 0,
  "shouldBreakMaskChain": false
}