{
  "_class": "shapePath",
  "booleanOperation": -1,
  "do_objectID": "32DE24D1-4DE5-45EF-A846-BF310233874A",
  "edited": true,
  "exportOptions": {
    "_class": "exportOptions",
    "exportFormats": [
    ],
    "includedLayerIds": [
    ],
    "layerOptions": 0,
    "shouldTrim": false
  },
  "frame": {
    "_class": "rect",
    "constrainProportions": false,
    "height": 18.99999886,
    "width": 20.20142178555998,
    "x": -5.551115123125785e-17,
    "y": 0
  },
  "isClosed": true,
  "isFixedToViewport": false,
  "isFlippedHorizontal": false,
  "isFlippedVertical": false,
  "isLocked": false,
  "isVisible": true,
  "layerListExpandedType": 0,
  "name": "Path",
  "nameIsFixed": false,
  "pointRadiusBehaviour": 1,
  "points": [
    {
      "_class": "curvePoint",
      "cornerRadius": 0,
      "curveFrom": "{0.43649545994369532, 9.4740000000098599e-05}",
      "curveMode": 2,
      "curveTo": "{0.56224404212506396, 5.2627368421170121e-05}",
      "hasCurveFrom": true,
      "hasCurveTo": true,
      "point": "{0.49935242799728274, 0}"
    },
    {
      "_class": "curvePoint",
      "cornerRadius": 0,
      "curveFrom": "{0.35954941954935382, 0.10526315789473688}",
      "curveMode": 4,
      "curveTo": "{0.3805019153239998, 0.042252628421052561}",
      "hasCurveFrom": false,
      "hasCurveTo": true,
      "point": "{0.35954941954935382, 0.10526315789473688}"
    },
    {
      "_class": "curvePoint",
      "cornerRadius": 0,
      "curveFrom": "{0.053839257907778507, 0.10526315789473688}",
      "curveMode": 1,
      "curveTo": "{0.053839257907778507, 0.10526315789473688}",
      "hasCurveFrom": false,
      "hasCurveTo": false,
      "point": "{0.053839257907778507, 0.10526315789473688}"
    },
    {
      "_class": "curvePoint",
      "cornerRadius": 0,
      "curveFrom": "{0.053839257907778507, 0.21052631578947376}",
      "curveMode": 1,
      "curveTo": "{0.053839257907778507, 0.21052631578947376}",
      "hasCurveFrom": false,
      "hasCurveTo": false,
      "point": "{0.053839257907778507, 0.21052631578947376}"
    },
    {
      "_class": "curvePoint",
      "cornerRadius": 0,
      "curveFrom": "{0.15013495500925211, 0.21052631578947376}",
      "curveMode": 1,
      "curveTo": "{0.15013495500925211, 0.21052631578947376}",
      "hasCurveFrom": false,
      "hasCurveTo": false,
      "point": "{0.15013495500925211, 0.21052631578947376}"
    },
    {
      "_class": "curvePoint",
      "cornerRadius": 0,
      "curveFrom": "{-0.019020953977867346, 0.68421052631578949}",
      "curveMode": 4,
      "curveTo": "{0.0043377945645002598, 0.57894736842105265}",
      "hasCurveFrom": true,
      "hasCurveTo": false,
      "point": "{0.0043377945645002598, 0.57894736842105265}"
    },
    {
      "_class": "curvePoint",
      "cornerRadius": 0,
      "curveFrom": "{0.30134657462416969, 0.73684210526315796}",
      "curveMode": 2,
      "curveTo": "{0.053839257907778507, 0.73684210526315796}",
      "hasCurveFrom": true,
      "hasCurveTo": true,
      "point": "{0.17759291626597412, 0.73684210526315796}"
    },
    {
      "_class": "curvePoint",
      "cornerRadius": 0,
      "curveFrom": "{0.35084803796744796, 0.57894736842105265}",
      "curveMode": 4,
      "curveTo": "{0.3785639211537592, 0.68421052631578949}",
      "hasCurveFrom": false,
      "hasCurveTo": true,
      "point": "{0.35084803796744796, 0.57894736842105265}"
    },
    {
      "_class": "curvePoint",
      "cornerRadius": 0,
      "curveFrom": "{0.20505087702768152, 0.21052631578947376}",
      "curveMode": 1,
      "curveTo": "{0.20505087702768152, 0.21052631578947376}",
      "hasCurveFrom": false,
      "hasCurveTo": false,
      "point": "{0.20505087702768152, 0.21052631578947376}"
    },
    {
      "_class": "curvePoint",
      "cornerRadius": 0,
      "curveFrom": "{0.37440926234532856, 0.25542106105263168}",
      "curveMode": 4,
      "curveTo": "{0.3594528788254539, 0.21052631578947376}",
      "hasCurveFrom": true,
      "hasCurveTo": false,
      "point": "{0.3594528788254539, 0.21052631578947376}"
    },
    {
      "_class": "curvePoint",
      "cornerRadius": 0,
      "curveFrom": "{0.44985096465400448, 0.30664208052631581}",
      "curveMode": 4,
      "curveTo": "{0.40762623127262709, 0.29073685052631587}",
      "hasCurveFrom": false,
      "hasCurveTo": true,
      "point": "{0.44985096465400448, 0.30664208052631581}"
    },
    {
      "_class": "curvePoint",
      "cornerRadius": 0,
      "curveFrom": "{0.44985096465400448, 0.89473684210526316}",
      "curveMode": 1,
      "curveTo": "{0.44985096465400448, 0.89473684210526316}",
      "hasCurveFrom": false,
      "hasCurveTo": false,
      "point": "{0.44985096465400448, 0.89473684210526316}"
    },
    {
      "_class": "curvePoint",
      "cornerRadius": 0,
      "curveFrom": "{0.0043377945645002598, 0.89473684210526316}",
      "curveMode": 1,
      "curveTo": "{0.0043377945645002598, 0.89473684210526316}",
      "hasCurveFrom": false,
      "hasCurveTo": false,
      "point": "{0.0043377945645002598, 0.89473684210526316}"
    },
    {
      "_class": "curvePoint",
      "cornerRadius": 0,
      "curveFrom": "{0.0043377945645002598, 1}",
      "curveMode": 1,
      "curveTo": "{0.0043377945645002598, 1}",
      "hasCurveFrom": false,
      "hasCurveTo": false,
      "point": "{0.0043377945645002598, 1}"
    },
    {
      "_class": "curvePoint",
      "cornerRadius": 0,
      "curveFrom": "{0.99436706143006504, 1}",
      "curveMode": 1,
      "curveTo": "{0.99436706143006504, 1}",
      "hasCurveFrom": false,
      "hasCurveTo": false,
      "point": "{0.99436706143006504, 1}"
    },
    {
      "_class": "curvePoint",
      "cornerRadius": 0,
      "curveFrom": "{0.99436706143006504, 0.89473684210526316}",
      "curveMode": 1,
      "curveTo": "{0.99436706143006504, 0.89473684210526316}",
      "hasCurveFrom": false,
      "hasCurveTo": false,
      "point": "{0.99436706143006504, 0.89473684210526316}"
    },
    {
      "_class": "curvePoint",
      "cornerRadius": 0,
      "curveFrom": "{0.54885389134056095, 0.89473684210526316}",
      "curveMode": 1,
      "curveTo": "{0.54885389134056095, 0.89473684210526316}",
      "hasCurveFrom": false,
      "hasCurveTo": false,
      "point": "{0.54885389134056095, 0.89473684210526316}"
    },
    {
      "_class": "curvePoint",
      "cornerRadius": 0,
      "curveFrom": "{0.59101923286621905, 0.29063159526315785}",
      "curveMode": 4,
      "curveTo": "{0.54885389134056095, 0.30653682473684218}",
      "hasCurveFrom": true,
      "hasCurveTo": false,
      "point": "{0.54885389134056095, 0.30653682473684218}"
    },
    {
      "_class": "curvePoint",
      "cornerRadius": 0,
      "curveFrom": "{0.63915444097078378, 0.21052631578947376}",
      "curveMode": 4,
      "curveTo": "{0.62419513339946942, 0.25535789263157893}",
      "hasCurveFrom": false,
      "hasCurveTo": true,
      "point": "{0.63915444097078378, 0.21052631578947376}"
    },
    {
      "_class": "curvePoint",
      "cornerRadius": 0,
      "curveFrom": "{0.79365343346075767, 0.21052631578947376}",
      "curveMode": 1,
      "curveTo": "{0.79365343346075767, 0.21052631578947376}",
      "hasCurveFrom": false,
      "hasCurveTo": false,
      "point": "{0.79365343346075767, 0.21052631578947376}"
    },
    {
      "_class": "curvePoint",
      "cornerRadius": 0,
      "curveFrom": "{0.62449707747542438, 0.68421052631578949}",
      "curveMode": 4,
      "curveTo": "{0.64785681802711736, 0.57894736842105265}",
      "hasCurveFrom": true,
      "hasCurveTo": false,
      "point": "{0.64785681802711736, 0.57894736842105265}"
    },
    {
      "_class": "curvePoint",
      "cornerRadius": 0,
      "curveFrom": "{0.94486559808678705, 0.73684210526315796}",
      "curveMode": 2,
      "curveTo": "{0.69735828137039568, 0.73684210526315796}",
      "hasCurveFrom": true,
      "hasCurveTo": true,
      "point": "{0.82111193972859131, 0.73684210526315796}"
    },
    {
      "_class": "curvePoint",
      "cornerRadius": 0,
      "curveFrom": "{0.99436706143006504, 0.57894736842105265}",
      "curveMode": 4,
      "curveTo": "{1.0220829406562593, 0.68421052631578949}",
      "hasCurveFrom": false,
      "hasCurveTo": true,
      "point": "{0.99436706143006504, 0.57894736842105265}"
    },
    {
      "_class": "curvePoint",
      "cornerRadius": 0,
      "curveFrom": "{0.84857044104627843, 0.21052631578947376}",
      "curveMode": 1,
      "curveTo": "{0.84857044104627843, 0.21052631578947376}",
      "hasCurveFrom": false,
      "hasCurveTo": false,
      "point": "{0.84857044104627843, 0.21052631578947376}"
    },
    {
      "_class": "curvePoint",
      "cornerRadius": 0,
      "curveFrom": "{0.94486559808678705, 0.21052631578947376}",
      "curveMode": 1,
      "curveTo": "{0.94486559808678705, 0.21052631578947376}",
      "hasCurveFrom": false,
      "hasCurveTo": false,
      "point": "{0.94486559808678705, 0.21052631578947376}"
    },
    {
      "_class": "curvePoint",
      "cornerRadius": 0,
      "curveFrom": "{0.94486559808678705, 0.10526315789473688}",
      "curveMode": 1,
      "curveTo": "{0.94486559808678705, 0.10526315789473688}",
      "hasCurveFrom": false,
      "hasCurveTo": false,
      "point": "{0.94486559808678705, 0.10526315789473688}"
    },
    {
      "_class": "curvePoint",
      "cornerRadius": 0,
      "curveFrom": "{0.6182896137727627, 0.042215786315789497}",
      "curveMode": 4,
      "curveTo": "{0.639253438947324, 0.10526315789473688}",
      "hasCurveFrom": true,
      "hasCurveTo": false,
      "point": "{0.639253438947324, 0.10526315789473688}"
    }
  ],
  "resizingConstraint": 63,
  "resizingType": 0,
  "rotation": 0,
  "shouldBreakMaskChain": false
}