{
  "_class": "shapePath",
  "booleanOperation": -1,
  "do_objectID": "0A2BF601-5624-4097-B47E-37F051F635EE",
  "edited": true,
  "exportOptions": {
    "_class": "exportOptions",
    "exportFormats": [
    ],
    "includedLayerIds": [
    ],
    "layerOptions": 0,
    "shouldTrim": false
  },
  "frame": {
    "_class": "rect",
    "constrainProportions": false,
    "height": 21,
    "width": 21,
    "x": 0,
    "y": 0
  },
  "isClosed": true,
  "isFixedToViewport": false,
  "isFlippedHorizontal": false,
  "isFlippedVertical": false,
  "isLocked": false,
  "isVisible": true,
  "layerListExpandedType": 0,
  "name": "Path",
  "nameIsFixed": false,
  "pointRadiusBehaviour": 0,
  "points": [
    {
      "_class": "curvePoint",
      "cornerRadius": 0,
      "curveFrom": "{0.71469411092052604, 0.62893081761006286}",
      "curveMode": 1,
      "curveTo": "{0.71469411092052604, 0.62893081761006286}",
      "hasCurveFrom": false,
      "hasCurveTo": false,
      "point": "{0.71469411092052604, 0.62893081761006286}"
    },
    {
      "_class": "curvePoint",
      "cornerRadius": 0,
      "curveFrom": "{0.66923956546598062, 0.62893081761006286}",
      "curveMode": 1,
      "curveTo": "{0.66923956546598062, 0.62893081761006286}",
      "hasCurveFrom": false,
      "hasCurveTo": false,
      "point": "{0.66923956546598062, 0.62893081761006286}"
    },
    {
      "_class": "curvePoint",
      "cornerRadius": 0,
      "curveFrom": "{0.70954831332189827, 0.54831332189822746}",
      "curveMode": 4,
      "curveTo": "{0.65351629502572905, 0.61320754716981118}",
      "hasCurveFrom": true,
      "hasCurveTo": false,
      "point": "{0.65351629502572905, 0.61320754716981118}"
    },
    {
      "_class": "curvePoint",
      "cornerRadius": 0,
      "curveFrom": "{0.74328187535734713, 0.16638078902229844}",
      "curveMode": 3,
      "curveTo": "{0.74328187535734713, 0.46397941680960547}",
      "hasCurveFrom": true,
      "hasCurveTo": true,
      "point": "{0.74328187535734713, 0.37164093767867351}"
    },
    {
      "_class": "curvePoint",
      "cornerRadius": 0,
      "curveFrom": "{0.16638078902229847, 0}",
      "curveMode": 2,
      "curveTo": "{0.57690108633504866, 0}",
      "hasCurveFrom": true,
      "hasCurveTo": true,
      "point": "{0.37164093767867357, 0}"
    },
    {
      "_class": "curvePoint",
      "cornerRadius": 0,
      "curveFrom": "{0, 0.57690108633504855}",
      "curveMode": 2,
      "curveTo": "{0, 0.16638078902229844}",
      "hasCurveFrom": true,
      "hasCurveTo": true,
      "point": "{0, 0.37164093767867351}"
    },
    {
      "_class": "curvePoint",
      "cornerRadius": 0,
      "curveFrom": "{0.46397941680960553, 0.74328187535734702}",
      "curveMode": 3,
      "curveTo": "{0.16638078902229847, 0.74328187535734702}",
      "hasCurveFrom": true,
      "hasCurveTo": true,
      "point": "{0.37164093767867357, 0.74328187535734702}"
    },
    {
      "_class": "curvePoint",
      "cornerRadius": 0,
      "curveFrom": "{0.61320754716981141, 0.6538021726700971}",
      "curveMode": 4,
      "curveTo": "{0.54831332189822757, 0.70954831332189816}",
      "hasCurveFrom": false,
      "hasCurveTo": true,
      "point": "{0.61320754716981141, 0.6538021726700971}"
    },
    {
      "_class": "curvePoint",
      "cornerRadius": 0,
      "curveFrom": "{0.62893081761006298, 0.66952544311034878}",
      "curveMode": 1,
      "curveTo": "{0.62893081761006298, 0.66952544311034878}",
      "hasCurveFrom": false,
      "hasCurveTo": false,
      "point": "{0.62893081761006298, 0.66952544311034878}"
    },
    {
      "_class": "curvePoint",
      "cornerRadius": 0,
      "curveFrom": "{0.62893081761006298, 0.71469411092052593}",
      "curveMode": 1,
      "curveTo": "{0.62893081761006298, 0.71469411092052593}",
      "hasCurveFrom": false,
      "hasCurveTo": false,
      "point": "{0.62893081761006298, 0.71469411092052593}"
    },
    {
      "_class": "curvePoint",
      "cornerRadius": 0,
      "curveFrom": "{0.91480846197827337, 1}",
      "curveMode": 1,
      "curveTo": "{0.91480846197827337, 1}",
      "hasCurveFrom": false,
      "hasCurveTo": false,
      "point": "{0.91480846197827337, 1}"
    },
    {
      "_class": "curvePoint",
      "cornerRadius": 0,
      "curveFrom": "{1, 0.91480846197827315}",
      "curveMode": 1,
      "curveTo": "{1, 0.91480846197827315}",
      "hasCurveFrom": false,
      "hasCurveTo": false,
      "point": "{1, 0.91480846197827315}"
    }
  ],
  "resizingConstraint": 63,
  "resizingType": 0,
  "rotation": 0,
  "shouldBreakMaskChain": false
}