{
  "_class": "shapePath",
  "booleanOperation": -1,
  "do_objectID": "49CBE221-AC88-49C2-813E-0311C5E11ACF",
  "edited": true,
  "exportOptions": {
    "_class": "exportOptions",
    "do_objectID": "698F57B8-4B49-4A21-9CEF-FDCEC915189F",
    "exportFormats": [
    ],
    "includedLayerIds": [
    ],
    "layerOptions": 0,
    "shouldTrim": false
  },
  "frame": {
    "_class": "rect",
    "constrainProportions": false,
    "do_objectID": "578B85DF-7A67-4EB8-A3EE-80B445E14644",
    "height": 3.7,
    "width": 6,
    "x": 0,
    "y": -8.999999999999998e-16
  },
  "isClosed": true,
  "isFixedToViewport": false,
  "isFlippedHorizontal": false,
  "isFlippedVertical": false,
  "isLocked": false,
  "isVisible": true,
  "layerListExpandedType": 0,
  "name": "Path",
  "nameIsFixed": false,
  "pointRadiusBehaviour": 0,
  "points": [
    {
      "_class": "curvePoint",
      "cornerRadius": 0,
      "curveFrom": "{0.5, 0}",
      "curveMode": 1,
      "curveTo": "{0.5, 0}",
      "hasCurveFrom": false,
      "hasCurveTo": false,
      "point": "{0.5, 0}"
    },
    {
      "_class": "curvePoint",
      "cornerRadius": 0,
      "curveFrom": "{0, 0.81081081081081074}",
      "curveMode": 1,
      "curveTo": "{0, 0.81081081081081074}",
      "hasCurveFrom": false,
      "hasCurveTo": false,
      "point": "{0, 0.81081081081081074}"
    },
    {
      "_class": "curvePoint",
      "cornerRadius": 0,
      "curveFrom": "{0.1166666666666667, 1}",
      "curveMode": 1,
      "curveTo": "{0.1166666666666667, 1}",
      "hasCurveFrom": false,
      "hasCurveTo": false,
      "point": "{0.1166666666666667, 1}"
    },
    {
      "_class": "curvePoint",
      "cornerRadius": 0,
      "curveFrom": "{0.5, 0.37837837837837845}",
      "curveMode": 1,
      "curveTo": "{0.5, 0.37837837837837845}",
      "hasCurveFrom": false,
      "hasCurveTo": false,
      "point": "{0.5, 0.37837837837837845}"
    },
    {
      "_class": "curvePoint",
      "cornerRadius": 0,
      "curveFrom": "{0.88333333333333341, 1}",
      "curveMode": 1,
      "curveTo": "{0.88333333333333341, 1}",
      "hasCurveFrom": false,
      "hasCurveTo": false,
      "point": "{0.88333333333333341, 1}"
    },
    {
      "_class": "curvePoint",
      "cornerRadius": 0,
      "curveFrom": "{1, 0.81081081081081074}",
      "curveMode": 1,
      "curveTo": "{1, 0.81081081081081074}",
      "hasCurveFrom": false,
      "hasCurveTo": false,
      "point": "{1, 0.81081081081081074}"
    }
  ],
  "resizingConstraint": 63,
  "resizingType": 0,
  "rotation": 0,
  "shouldBreakMaskChain": false
}