{
  "_class": "symbolInstance",
  "booleanOperation": 0,
  "do_objectID": "55A52FFE-3E8E-4E0E-B02F-CC566E5906B9",
  "exportOptions": {
    "_class": "exportOptions",
    "do_objectID": "7C0976D1-8EF1-415E-97F5-0C92EBB2BD8B",
    "exportFormats": [
    ],
    "includedLayerIds": [
    ],
    "layerOptions": 0,
    "shouldTrim": false
  },
  "frame": {
    "_class": "rect",
    "constrainProportions": false,
    "do_objectID": "90FCCA7B-1293-4FA1-8DBA-C9A46EC81D8F",
    "height": 159,
    "width": 474,
    "x": 248,
    "y": 358
  },
  "horizontalSpacing": 0,
  "isFixedToViewport": false,
  "isFlippedHorizontal": false,
  "isFlippedVertical": false,
  "isLocked": false,
  "isVisible": true,
  "layerListExpandedType": 0,
  "name": "25h8/chat/chat-area/chat-message-area/chat-message-link",
  "nameIsFixed": false,
  "overrideValues": [
  ],
  "resizingConstraint": 63,
  "resizingType": 0,
  "rotation": 0,
  "scale": 1,
  "shouldBreakMaskChain": false,
  "style": {
    "_class": "style",
    "do_objectID": "F6A3C2EA-471D-4423-B90E-C51DF955FEFB",
    "endMarkerType": 0,
    "miterLimit": 10,
    "startMarkerType": 0,
    "windingRule": 1
  },
  "symbolID": "E9B803AE-7FFC-4582-B002-F51BDFFC71C9",
  "verticalSpacing": 0
}