{
  "_class": "group",
  "booleanOperation": 0,
  "do_objectID": "8DD9CF58-1C12-4E8F-BAA8-9F8924F09725",
  "exportOptions": {
    "_class": "exportOptions",
    "exportFormats": [
      {
        "_class": "exportFormat",
        "absoluteSize": 0,
        "fileFormat": "png",
        "name": "",
        "namingScheme": 0,
        "scale": 1,
        "visibleScaleType": 0
      }
    ],
    "includedLayerIds": [
    ],
    "layerOptions": 0,
    "shouldTrim": false
  },
  "frame": {
    "_class": "rect",
    "constrainProportions": false,
    "height": 48,
    "width": 48,
    "x": 0,
    "y": 0
  },
  "hasClickThrough": false,
  "isFixedToViewport": false,
  "isFlippedHorizontal": false,
  "isFlippedVertical": false,
  "isLocked": false,
  "isVisible": true,
  "layerListExpandedType": 1,
  "layers": [
    {
      "class": "shapeGroup",
      "id": "EFA4C19B-CEF4-499D-8814-479DDBBD440F"
    },
    {
      "class": "shapeGroup",
      "id": "38E0F116-9685-4264-B6F6-1DA19EE1721C"
    },
    {
      "class": "shapeGroup",
      "id": "0781CAD5-FC89-479E-9E99-BF35ECF3EFCF"
    },
    {
      "class": "shapeGroup",
      "id": "04BE77F6-51E7-4AC1-B223-2E74AF6A9BFF"
    },
    {
      "class": "group",
      "id": "D3F528B8-D80F-439A-A7DB-A8094E128DE8"
    }
  ],
  "name": "25h8/chat/product-icon/global-search/global-search-default",
  "nameIsFixed": true,
  "resizingConstraint": 63,
  "resizingType": 0,
  "rotation": 0,
  "shouldBreakMaskChain": false,
  "style": {
    "_class": "style",
    "endMarkerType": 0,
    "miterLimit": 10,
    "shadows": [
      {
        "_class": "shadow",
        "blurRadius": 4,
        "color": {
          "_class": "color",
          "alpha": 0.24,
          "blue": 0,
          "green": 0,
          "red": 0
        },
        "contextSettings": {
          "_class": "graphicsContextSettings",
          "blendMode": 0,
          "opacity": 1
        },
        "isEnabled": true,
        "offsetX": 0,
        "offsetY": 2,
        "spread": 0
      }
    ],
    "startMarkerType": 0,
    "windingRule": 1
  },
  "userInfo": {
    "com.animaapp.stc-sketch-plugin": {
      "kModelPropertiesKey": {
      }
    }
  }
}