{
  "_class": "shapePath",
  "booleanOperation": -1,
  "do_objectID": "C33CEE96-D12C-44C2-A408-DE3607887DC5",
  "edited": true,
  "exportOptions": {
    "_class": "exportOptions",
    "do_objectID": "AEFD9635-C1C8-4A76-A4F4-E80193D3A3FD",
    "exportFormats": [
    ],
    "includedLayerIds": [
    ],
    "layerOptions": 0,
    "shouldTrim": false
  },
  "frame": {
    "_class": "rect",
    "constrainProportions": false,
    "do_objectID": "464C4676-FEC0-4535-9F4D-0C6C53A06F6C",
    "height": 19.9999988,
    "width": 19.9999988,
    "x": 0,
    "y": 0
  },
  "isClosed": true,
  "isFixedToViewport": false,
  "isFlippedHorizontal": false,
  "isFlippedVertical": false,
  "isLocked": false,
  "isVisible": true,
  "layerListExpandedType": 0,
  "name": "Path",
  "nameIsFixed": false,
  "pointRadiusBehaviour": 0,
  "points": [
    {
      "_class": "curvePoint",
      "cornerRadius": 0,
      "curveFrom": "{0.22400000050000005, 0}",
      "curveMode": 2,
      "curveTo": "{0.77600002000000001, 0}",
      "hasCurveFrom": true,
      "hasCurveTo": true,
      "point": "{0.5, 0}"
    },
    {
      "_class": "curvePoint",
      "cornerRadius": 0,
      "curveFrom": "{0, 0.77600002000000001}",
      "curveMode": 2,
      "curveTo": "{0, 0.22400000050000005}",
      "hasCurveFrom": true,
      "hasCurveTo": true,
      "point": "{0, 0.5}"
    },
    {
      "_class": "curvePoint",
      "cornerRadius": 0,
      "curveFrom": "{0.77600002000000001, 1}",
      "curveMode": 2,
      "curveTo": "{0.22400000050000005, 1}",
      "hasCurveFrom": true,
      "hasCurveTo": true,
      "point": "{0.5, 1}"
    },
    {
      "_class": "curvePoint",
      "cornerRadius": 0,
      "curveFrom": "{1, 0.22399997699999988}",
      "curveMode": 2,
      "curveTo": "{1, 0.77600002000000001}",
      "hasCurveFrom": true,
      "hasCurveTo": true,
      "point": "{1, 0.5}"
    }
  ],
  "resizingConstraint": 63,
  "resizingType": 0,
  "rotation": 0,
  "shouldBreakMaskChain": false
}