{
  "_class": "symbolInstance",
  "booleanOperation": 0,
  "do_objectID": "E5CE3041-2D66-4CB0-9F6F-73704973C7C1",
  "exportOptions": {
    "_class": "exportOptions",
    "do_objectID": "DF64636A-52A8-4DC0-A1A9-DCEA12761AF5",
    "exportFormats": [
    ],
    "includedLayerIds": [
    ],
    "layerOptions": 0,
    "shouldTrim": false
  },
  "frame": {
    "_class": "rect",
    "constrainProportions": true,
    "do_objectID": "534BCB8B-9A16-459A-ADC2-E1AD49CB06AB",
    "height": 12,
    "width": 12,
    "x": 304,
    "y": 4
  },
  "horizontalSpacing": 0,
  "isFixedToViewport": false,
  "isFlippedHorizontal": false,
  "isFlippedVertical": false,
  "isLocked": false,
  "isVisible": true,
  "layerListExpandedType": 0,
  "name": "Black/icon-active-unfocused",
  "nameIsFixed": false,
  "overrideValues": [
  ],
  "resizingConstraint": 12,
  "resizingType": 0,
  "rotation": 0,
  "scale": 1,
  "shouldBreakMaskChain": false,
  "style": {
    "_class": "style",
    "do_objectID": "51DE57D4-C055-4361-9149-2802529BDA91",
    "endMarkerType": 0,
    "miterLimit": 10,
    "startMarkerType": 0,
    "windingRule": 1
  },
  "symbolID": "39FA8BF2-9336-4B2B-AE56-6B5E13045A31",
  "verticalSpacing": 0
}