{
  "_class": "group",
  "booleanOperation": 0,
  "do_objectID": "C0FF3530-E031-48F0-960B-A5BC3D17D2C5",
  "exportOptions": {
    "_class": "exportOptions",
    "do_objectID": "24783ED9-3218-44E0-920B-60DD09877ADC",
    "exportFormats": [
    ],
    "includedLayerIds": [
    ],
    "layerOptions": 0,
    "shouldTrim": false
  },
  "frame": {
    "_class": "rect",
    "constrainProportions": false,
    "do_objectID": "AF263E3F-EDBA-4BC9-818B-2715456279FD",
    "height": 14,
    "width": 22,
    "x": 0,
    "y": 0
  },
  "hasClickThrough": false,
  "isFixedToViewport": false,
  "isFlippedHorizontal": false,
  "isFlippedVertical": false,
  "isLocked": false,
  "isVisible": true,
  "layerListExpandedType": 0,
  "layers": [
    {
      "class": "shapeGroup",
      "id": "D0217077-D32E-432E-9278-5B6696995B2F"
    },
    {
      "class": "text",
      "id": "E280572D-58B6-49FE-A222-2F0470214246"
    }
  ],
  "name": "25h8/chat/notification-bubble-3-digit-normal",
  "nameIsFixed": true,
  "originalObjectID": "53740116-0211-4C29-8125-03A62800E110",
  "resizingConstraint": 14,
  "resizingType": 0,
  "rotation": 0,
  "shouldBreakMaskChain": false,
  "style": {
    "_class": "style",
    "do_objectID": "F0A78E1D-F727-437B-9FCD-99F613AEDAE3",
    "endMarkerType": 0,
    "miterLimit": 10,
    "startMarkerType": 0,
    "windingRule": 1
  }
}