{
  "_class": "symbolMaster",
  "backgroundColor": {
    "_class": "color",
    "alpha": 1,
    "blue": 1,
    "do_objectID": "E5C0B0ED-E20D-4DDB-BAD3-BFC4421FEAA7",
    "green": 1,
    "red": 1
  },
  "booleanOperation": 0,
  "changeIdentifier": 748,
  "do_objectID": "5DC3A85E-ECD6-4D20-947E-4024FDC58382",
  "exportOptions": {
    "_class": "exportOptions",
    "do_objectID": "443904D3-0FD2-4916-ACF7-739D10BDA99F",
    "exportFormats": [
      {
        "_class": "exportFormat",
        "absoluteSize": 0,
        "fileFormat": "svg",
        "name": "",
        "namingScheme": 0,
        "scale": 1,
        "visibleScaleType": 0
      }
    ],
    "includedLayerIds": [
    ],
    "layerOptions": 0,
    "shouldTrim": false
  },
  "frame": {
    "_class": "rect",
    "constrainProportions": false,
    "do_objectID": "77AB3E13-98BB-4FB2-AB74-A4C07C7FB823",
    "height": 40,
    "width": 40,
    "x": 400,
    "y": 139
  },
  "hasBackgroundColor": false,
  "hasClickThrough": true,
  "horizontalRulerData": {
    "_class": "rulerData",
    "base": 0,
    "do_objectID": "197D2220-FC09-4BC2-BCCD-44CF822AD392",
    "guides": [
    ]
  },
  "includeBackgroundColorInExport": true,
  "includeBackgroundColorInInstance": false,
  "includeInCloudUpload": true,
  "isFixedToViewport": false,
  "isFlippedHorizontal": false,
  "isFlippedVertical": false,
  "isFlowHome": false,
  "isLocked": false,
  "isVisible": true,
  "layerListExpandedType": 2,
  "layers": [
    {
      "class": "shapeGroup",
      "id": "CD9E6272-4503-4224-A960-8343C975C4AD"
    },
    {
      "class": "shapeGroup",
      "id": "229DF2C6-48B1-4231-B6ED-2991CC168985"
    }
  ],
  "name": "25h8/chat/mat-icon-button/subject/subject-press",
  "nameIsFixed": true,
  "resizesContent": false,
  "resizingConstraint": 63,
  "resizingType": 0,
  "rotation": 0,
  "shouldBreakMaskChain": true,
  "style": {
    "_class": "style",
    "do_objectID": "C16675C3-A610-4406-B63A-9F5CBE12F852",
    "endMarkerType": 0,
    "miterLimit": 10,
    "startMarkerType": 0,
    "windingRule": 1
  },
  "symbolID": "6DF8CED9-FCFA-457A-8254-890EDBC6A3D9",
  "verticalRulerData": {
    "_class": "rulerData",
    "base": 0,
    "do_objectID": "467F7DB1-F8DC-4468-890D-3A2CEA5B8AAB",
    "guides": [
    ]
  }
}