{
  "_class": "symbolInstance",
  "booleanOperation": 0,
  "do_objectID": "16A9DC3D-25C4-4E45-909F-F86ED7CE2437",
  "exportOptions": {
    "_class": "exportOptions",
    "do_objectID": "8253C16D-B132-4873-9E73-928DCEB23E7A",
    "exportFormats": [
    ],
    "includedLayerIds": [
    ],
    "layerOptions": 0,
    "shouldTrim": false
  },
  "frame": {
    "_class": "rect",
    "constrainProportions": false,
    "do_objectID": "F25A4941-0B12-4B0E-B597-E448122C5357",
    "height": 24,
    "width": 24,
    "x": 0,
    "y": 0
  },
  "horizontalSpacing": 0,
  "isFixedToViewport": false,
  "isFlippedHorizontal": false,
  "isFlippedVertical": false,
  "isLocked": false,
  "isVisible": true,
  "layerListExpandedType": 0,
  "name": "25h8/chat/mat-icon-button/add/add-default",
  "nameIsFixed": false,
  "overrideValues": [
  ],
  "resizingConstraint": 63,
  "resizingType": 0,
  "rotation": 0,
  "scale": 1,
  "shouldBreakMaskChain": false,
  "style": {
    "_class": "style",
    "do_objectID": "A5CCFDB9-5CE2-4925-9EBC-5A1C369994B9",
    "endMarkerType": 0,
    "miterLimit": 10,
    "startMarkerType": 0,
    "windingRule": 1
  },
  "symbolID": "19DF29CB-A52A-4767-9DA1-0C63CE231F31",
  "verticalSpacing": 0
}