{
  "_class": "symbolInstance",
  "booleanOperation": 0,
  "do_objectID": "F17DC059-5CD3-4383-B68B-7F68BCBEF07D",
  "exportOptions": {
    "_class": "exportOptions",
    "do_objectID": "6A3E208A-784D-47FA-A194-F1365BD954A7",
    "exportFormats": [
    ],
    "includedLayerIds": [
    ],
    "layerOptions": 0,
    "shouldTrim": false
  },
  "frame": {
    "_class": "rect",
    "constrainProportions": false,
    "do_objectID": "3B10FE26-2BC8-490F-B996-DFA5197FB3F2",
    "height": 48,
    "width": 48,
    "x": 4,
    "y": 16
  },
  "horizontalSpacing": 0,
  "isFixedToViewport": false,
  "isFlippedHorizontal": false,
  "isFlippedVertical": false,
  "isLocked": false,
  "isVisible": true,
  "layerListExpandedType": 0,
  "name": "4x-avatar",
  "nameIsFixed": false,
  "overrideValues": [
    {
      "_class": "overrideValue",
      "do_objectID": "AD9153B7-9386-4D79-B4C1-4C2D83A31FBF",
      "overrideName": "28AFCE8D-4B83-4096-8CC3-47DA42222DF1/4522100A-7F02-42DB-BA14-B584EE612BEE_image",
      "value": {
        "_class": "MSJSONFileReference",
        "_ref": "images/4bbc62c6d23f19c17bb70cfeab4993cf64a6fc71.png",
        "_ref_class": "MSImageData"
      }
    },
    {
      "_class": "overrideValue",
      "do_objectID": "53557CBB-851D-4548-BF3B-9DF3F3CE7A7B",
      "overrideName": "FB0A6F27-927E-4D7E-B0A6-B62F8133C5B7/4522100A-7F02-42DB-BA14-B584EE612BEE_image",
      "value": {
        "_class": "MSJSONFileReference",
        "_ref": "images/f3aa6704d312d600a12a70c6b7b27cfcea26c839.png",
        "_ref_class": "MSImageData"
      }
    },
    {
      "_class": "overrideValue",
      "do_objectID": "D0AB8792-A539-41C7-9A6A-6990F731D407",
      "overrideName": "7DF345AE-CCBB-4267-B4A7-098F34D8B9B3/4522100A-7F02-42DB-BA14-B584EE612BEE_image",
      "value": {
        "_class": "MSJSONFileReference",
        "_ref": "images/7b2578d81486bc68e3655c91f26d4d0437b8a12e.png",
        "_ref_class": "MSImageData"
      }
    }
  ],
  "resizingConstraint": 63,
  "resizingType": 0,
  "rotation": 0,
  "scale": 1,
  "shouldBreakMaskChain": false,
  "style": {
    "_class": "style",
    "do_objectID": "D50AAFEC-05B5-4707-84A6-9EE0F1575393",
    "endMarkerType": 0,
    "miterLimit": 10,
    "startMarkerType": 0,
    "windingRule": 1
  },
  "symbolID": "B625601D-F0DD-499D-BDA9-D993BA4470C2",
  "verticalSpacing": 0
}