{
  "_class": "shapePath",
  "booleanOperation": -1,
  "do_objectID": "B5F1B906-8122-414C-9ABB-C821A1D602E8",
  "edited": true,
  "exportOptions": {
    "_class": "exportOptions",
    "do_objectID": "2E10FB7B-E30F-4394-8E10-F05EA083FDC9",
    "exportFormats": [
    ],
    "includedLayerIds": [
    ],
    "layerOptions": 0,
    "shouldTrim": false
  },
  "frame": {
    "_class": "rect",
    "constrainProportions": false,
    "do_objectID": "A700B5BD-A15A-404E-BDCB-06607850292B",
    "height": 16.12757142857143,
    "width": 18.344,
    "x": 0,
    "y": 0
  },
  "isClosed": true,
  "isFixedToViewport": false,
  "isFlippedHorizontal": false,
  "isFlippedVertical": false,
  "isLocked": false,
  "isVisible": true,
  "layerListExpandedType": 0,
  "name": "Path",
  "nameIsFixed": false,
  "pointRadiusBehaviour": 1,
  "points": [
    {
      "_class": "curvePoint",
      "cornerRadius": 0,
      "curveFrom": "{0.87160924552987362, 0}",
      "curveMode": 1,
      "curveTo": "{0.87160924552987362, 0}",
      "hasCurveFrom": false,
      "hasCurveTo": false,
      "point": "{0.87160924552987362, 0}"
    },
    {
      "_class": "curvePoint",
      "cornerRadius": 0,
      "curveFrom": "{1, 0}",
      "curveMode": 1,
      "curveTo": "{1, 0}",
      "hasCurveFrom": false,
      "hasCurveTo": false,
      "point": "{1, 0}"
    },
    {
      "_class": "curvePoint",
      "cornerRadius": 0,
      "curveFrom": "{0.12847797645006542, 1}",
      "curveMode": 1,
      "curveTo": "{0.12847797645006542, 1}",
      "hasCurveFrom": false,
      "hasCurveTo": false,
      "point": "{0.12847797645006542, 1}"
    },
    {
      "_class": "curvePoint",
      "cornerRadius": 0,
      "curveFrom": "{0, 1}",
      "curveMode": 1,
      "curveTo": "{0, 1}",
      "hasCurveFrom": false,
      "hasCurveTo": false,
      "point": "{0, 1}"
    }
  ],
  "resizingConstraint": 63,
  "resizingType": 0,
  "rotation": 0,
  "shouldBreakMaskChain": false
}