{
  "_class": "symbolInstance",
  "booleanOperation": 0,
  "do_objectID": "4473F065-9F16-4B67-880D-2C93B829A106",
  "exportOptions": {
    "_class": "exportOptions",
    "do_objectID": "7C7BD9B1-3D33-4A53-BB7D-90C80E470DBC",
    "exportFormats": [
    ],
    "includedLayerIds": [
    ],
    "layerOptions": 0,
    "shouldTrim": false
  },
  "frame": {
    "_class": "rect",
    "constrainProportions": false,
    "do_objectID": "AE59A142-F541-4FE9-9F4D-26E7D577418E",
    "height": 26,
    "width": 150,
    "x": 72,
    "y": 19
  },
  "horizontalSpacing": 0,
  "isFixedToViewport": false,
  "isFlippedHorizontal": false,
  "isFlippedVertical": false,
  "isLocked": false,
  "isVisible": true,
  "layerListExpandedType": 0,
  "name": "25h8-logo",
  "nameIsFixed": false,
  "overrideValues": [
  ],
  "resizingConstraint": 63,
  "resizingType": 0,
  "rotation": 0,
  "scale": 1,
  "shouldBreakMaskChain": false,
  "style": {
    "_class": "style",
    "do_objectID": "E4805235-1086-4B61-9A0B-573905A07A33",
    "endMarkerType": 0,
    "miterLimit": 10,
    "startMarkerType": 0,
    "windingRule": 1
  },
  "symbolID": "95EF3B46-4118-4642-A91E-8A9B48CCB894",
  "verticalSpacing": 0
}