{
  "_class": "symbolInstance",
  "booleanOperation": -1,
  "do_objectID": "2520C97D-2C00-4876-A059-0EE675E51D68",
  "exportOptions": {
    "_class": "exportOptions",
    "do_objectID": "337F0AC9-12BB-4B31-965B-D0C8744EF58B",
    "exportFormats": [
    ],
    "includedLayerIds": [
    ],
    "layerOptions": 0,
    "shouldTrim": false
  },
  "frame": {
    "_class": "rect",
    "constrainProportions": false,
    "do_objectID": "3BCE0AB0-86BD-4236-A1DC-16B51BC3E585",
    "height": 48,
    "width": 48,
    "x": 4,
    "y": 16
  },
  "horizontalSpacing": 0,
  "isFixedToViewport": false,
  "isFlippedHorizontal": false,
  "isFlippedVertical": false,
  "isLocked": false,
  "isVisible": true,
  "layerListExpandedType": 0,
  "name": "Supporting visual/Avatar",
  "nameIsFixed": false,
  "overrideValues": [
  ],
  "resizingConstraint": 9,
  "resizingType": 0,
  "rotation": 0,
  "scale": 1,
  "shouldBreakMaskChain": false,
  "style": {
    "_class": "style",
    "do_objectID": "3B338B42-76DD-4505-92FB-01897216866D",
    "endMarkerType": 0,
    "miterLimit": 10,
    "startMarkerType": 0,
    "windingRule": 1
  },
  "symbolID": "AC8333FE-D665-4417-84B6-711CE9B12AC9",
  "verticalSpacing": 0
}