{
  "_class": "symbolInstance",
  "booleanOperation": 0,
  "do_objectID": "C0C19525-A929-46A5-B932-110588290421",
  "exportOptions": {
    "_class": "exportOptions",
    "do_objectID": "CADAFDD8-0523-4ACB-ACDA-EBB7A973F6E7",
    "exportFormats": [
    ],
    "includedLayerIds": [
    ],
    "layerOptions": 0,
    "shouldTrim": false
  },
  "frame": {
    "_class": "rect",
    "constrainProportions": false,
    "do_objectID": "7437D07F-9F04-4BF9-8CFB-EB9BF1EB3FB2",
    "height": 40,
    "width": 72,
    "x": 853,
    "y": 12
  },
  "horizontalSpacing": 0,
  "isFixedToViewport": false,
  "isFlippedHorizontal": false,
  "isFlippedVertical": false,
  "isLocked": false,
  "isVisible": true,
  "layerListExpandedType": 0,
  "name": "mat-menu",
  "nameIsFixed": false,
  "overrideValues": [
  ],
  "resizingConstraint": 63,
  "resizingType": 0,
  "rotation": 0,
  "scale": 1,
  "shouldBreakMaskChain": false,
  "style": {
    "_class": "style",
    "do_objectID": "9DE02F95-C85E-4506-9EC9-94FDEDDBDE48",
    "endMarkerType": 0,
    "miterLimit": 10,
    "startMarkerType": 0,
    "windingRule": 1
  },
  "symbolID": "7334CA78-065E-49CD-9342-BAE3C93FF5D2",
  "verticalSpacing": 0
}