{
  "_class": "sharedStyle",
  "do_objectID": "BCB8E502-DF7E-4410-8634-F6A94ACD8367",
  "name": "Light/Brand Headline 6/Secondary/Right",
  "value": {
    "_class": "style",
    "contextSettings": {
      "_class": "graphicsContextSettings",
      "blendMode": 0,
      "opacity": 0.87
    },
    "endMarkerType": 0,
    "miterLimit": 10,
    "sharedObjectID": "BCB8E502-DF7E-4410-8634-F6A94ACD8367",
    "startMarkerType": 0,
    "textStyle": {
      "_class": "textStyle",
      "encodedAttributes": {
        "MSAttributedStringColorAttribute": {
          "_class": "color",
          "alpha": 1,
          "blue": 0.1490196078431373,
          "green": 0.6549019607843137,
          "red": 1
        },
        "MSAttributedStringFontAttribute": {
          "_class": "fontDescriptor",
          "attributes": {
            "name": "25h8combold300",
            "size": 20
          }
        },
        "kerning": 0.15,
        "ligature": 0,
        "paragraphStyle": {
          "_class": "paragraphStyle",
          "alignment": 1,
          "allowsDefaultTighteningForTruncation": 0
        }
      },
      "verticalAlignment": 0
    },
    "windingRule": 1
  }
}