{
  "_class": "sharedStyle",
  "do_objectID": "E63923D2-515F-4D76-A7B9-C461A191F2F1",
  "name": "Light/Headline 4/Medium-emphasis/Centre",
  "value": {
    "_class": "style",
    "contextSettings": {
      "_class": "graphicsContextSettings",
      "blendMode": 0,
      "opacity": 0.87
    },
    "endMarkerType": 0,
    "miterLimit": 10,
    "sharedObjectID": "E63923D2-515F-4D76-A7B9-C461A191F2F1",
    "startMarkerType": 0,
    "textStyle": {
      "_class": "textStyle",
      "encodedAttributes": {
        "MSAttributedStringColorAttribute": {
          "_class": "color",
          "alpha": 0.6,
          "blue": 0,
          "green": 0,
          "red": 0
        },
        "MSAttributedStringFontAttribute": {
          "_class": "fontDescriptor",
          "attributes": {
            "name": "Roboto-Regular",
            "size": 34
          }
        },
        "kerning": 0.25,
        "ligature": 0,
        "paragraphStyle": {
          "_class": "paragraphStyle",
          "alignment": 2,
          "allowsDefaultTighteningForTruncation": 0
        }
      },
      "verticalAlignment": 0
    },
    "windingRule": 1
  }
}