{
  "_class": "symbolInstance",
  "booleanOperation": 0,
  "do_objectID": "C51ECF53-6560-40DB-B734-1F19505B3174",
  "exportOptions": {
    "_class": "exportOptions",
    "do_objectID": "E4F29530-BB37-4DBB-8C57-FE7E05C8F68B",
    "exportFormats": [
    ],
    "includedLayerIds": [
    ],
    "layerOptions": 0,
    "shouldTrim": false
  },
  "frame": {
    "_class": "rect",
    "constrainProportions": true,
    "do_objectID": "5E7E8605-D4A4-4C29-A7C5-4F13FCAB8CAB",
    "height": 12,
    "width": 12,
    "x": 288,
    "y": 4
  },
  "horizontalSpacing": 0,
  "isFixedToViewport": false,
  "isFlippedHorizontal": false,
  "isFlippedVertical": false,
  "isLocked": false,
  "isVisible": true,
  "layerListExpandedType": 0,
  "name": "Black/icon-inactive",
  "nameIsFixed": false,
  "overrideValues": [
  ],
  "resizingConstraint": 12,
  "resizingType": 0,
  "rotation": 0,
  "scale": 1,
  "shouldBreakMaskChain": false,
  "style": {
    "_class": "style",
    "do_objectID": "A5F90993-5583-405E-8E62-AA1BEDC661FC",
    "endMarkerType": 0,
    "miterLimit": 10,
    "startMarkerType": 0,
    "windingRule": 1
  },
  "symbolID": "23518F14-394B-4E06-85C6-4DA360118D62",
  "verticalSpacing": 0
}