{
  "_class": "symbolInstance",
  "booleanOperation": -1,
  "do_objectID": "C8117938-44BE-48DF-866A-1499789721F4",
  "exportOptions": {
    "_class": "exportOptions",
    "do_objectID": "8F0D4B3D-5631-4AF2-9159-99615EBC0F9D",
    "exportFormats": [
    ],
    "includedLayerIds": [
    ],
    "layerOptions": 0,
    "shouldTrim": false
  },
  "frame": {
    "_class": "rect",
    "constrainProportions": false,
    "do_objectID": "8D278CCE-7482-44BE-9486-4E624C4394EA",
    "height": 48,
    "width": 48,
    "x": 4,
    "y": 16
  },
  "horizontalSpacing": 0,
  "isFixedToViewport": false,
  "isFlippedHorizontal": false,
  "isFlippedVertical": false,
  "isLocked": false,
  "isVisible": true,
  "layerListExpandedType": 0,
  "name": "Supporting visual/Avatar",
  "nameIsFixed": false,
  "overrideValues": [
  ],
  "resizingConstraint": 9,
  "resizingType": 0,
  "rotation": 0,
  "scale": 1,
  "shouldBreakMaskChain": false,
  "style": {
    "_class": "style",
    "do_objectID": "19563DBB-AEF9-409E-A4B9-A725885ADF2F",
    "endMarkerType": 0,
    "miterLimit": 10,
    "startMarkerType": 0,
    "windingRule": 1
  },
  "symbolID": "AC8333FE-D665-4417-84B6-711CE9B12AC9",
  "verticalSpacing": 0
}