{
  "_class": "symbolInstance",
  "booleanOperation": -1,
  "do_objectID": "84A90F54-CB5E-472D-A9EF-87FE9C674C12",
  "exportOptions": {
    "_class": "exportOptions",
    "do_objectID": "42B5B26F-5B3E-45D3-95F1-E62FB63148D7",
    "exportFormats": [
    ],
    "includedLayerIds": [
    ],
    "layerOptions": 0,
    "shouldTrim": false
  },
  "frame": {
    "_class": "rect",
    "constrainProportions": false,
    "do_objectID": "19440AA6-57F7-4D2F-8819-75B36F77B30F",
    "height": 48,
    "width": 48,
    "x": 4,
    "y": 16
  },
  "horizontalSpacing": 0,
  "isFixedToViewport": false,
  "isFlippedHorizontal": false,
  "isFlippedVertical": false,
  "isLocked": false,
  "isVisible": true,
  "layerListExpandedType": 0,
  "name": "Supporting visual/Avatar",
  "nameIsFixed": false,
  "overrideValues": [
  ],
  "resizingConstraint": 9,
  "resizingType": 0,
  "rotation": 0,
  "scale": 1,
  "shouldBreakMaskChain": false,
  "style": {
    "_class": "style",
    "do_objectID": "B10E339E-F4EC-4411-A516-3B9363569505",
    "endMarkerType": 0,
    "miterLimit": 10,
    "startMarkerType": 0,
    "windingRule": 1
  },
  "symbolID": "AC8333FE-D665-4417-84B6-711CE9B12AC9",
  "verticalSpacing": 0
}