{
  "_class": "symbolMaster",
  "backgroundColor": {
    "_class": "color",
    "alpha": 1,
    "blue": 1,
    "do_objectID": "5E7BD404-516E-4C07-BDF1-AD6FC8A4E031",
    "green": 1,
    "red": 1
  },
  "booleanOperation": 0,
  "changeIdentifier": 3973,
  "do_objectID": "C120D6AA-BE05-4356-AEC1-0D1A55F4B2C7",
  "exportOptions": {
    "_class": "exportOptions",
    "do_objectID": "DC93F7EA-686A-430D-9794-75355A640E94",
    "exportFormats": [
    ],
    "includedLayerIds": [
    ],
    "layerOptions": 0,
    "shouldTrim": false
  },
  "frame": {
    "_class": "rect",
    "constrainProportions": false,
    "do_objectID": "3F02AF77-0EA4-4FD9-A0E6-B0EB389189FE",
    "height": 960,
    "width": 768,
    "x": -4654,
    "y": 115
  },
  "hasBackgroundColor": false,
  "hasClickThrough": true,
  "horizontalRulerData": {
    "_class": "rulerData",
    "base": 0,
    "do_objectID": "01B9D1AC-1248-4A12-B90D-6686AB9E8DB4",
    "guides": [
    ]
  },
  "includeBackgroundColorInExport": true,
  "includeBackgroundColorInInstance": false,
  "includeInCloudUpload": true,
  "isFixedToViewport": false,
  "isFlippedHorizontal": false,
  "isFlippedVertical": false,
  "isFlowHome": false,
  "isLocked": false,
  "isVisible": true,
  "layerListExpandedType": 2,
  "layers": [
    {
      "class": "group",
      "id": "62721352-68EC-4193-8B53-7D2CAD191EB1"
    },
    {
      "class": "shapeGroup",
      "id": "29994DF7-15A9-4AAB-AB96-8130B54B438F"
    },
    {
      "class": "text",
      "id": "3C11DA3F-BEA4-410D-811A-563D474D0CEB"
    },
    {
      "class": "text",
      "id": "A61FB9F8-F410-4B16-BE3D-AA342109A190"
    }
  ],
  "name": "25h8/chat/mat-sidenav-content/mat-sidenav-chat-tablet",
  "nameIsFixed": true,
  "resizesContent": false,
  "resizingConstraint": 63,
  "resizingType": 0,
  "rotation": 0,
  "shouldBreakMaskChain": true,
  "style": {
    "_class": "style",
    "do_objectID": "11E514A5-5D42-47D8-A9A8-ED5E5CAEF26E",
    "endMarkerType": 0,
    "miterLimit": 10,
    "startMarkerType": 0,
    "windingRule": 1
  },
  "symbolID": "15740C87-1648-426A-8AAB-BA2C1D5EC2E8",
  "verticalRulerData": {
    "_class": "rulerData",
    "base": 0,
    "do_objectID": "CDD3DCF0-3C44-4541-9720-7A2361A71A6B",
    "guides": [
    ]
  }
}