{
  "_class": "symbolInstance",
  "booleanOperation": 0,
  "do_objectID": "9D65FB66-2C2C-462F-AAF6-16B3371FEA33",
  "exportOptions": {
    "_class": "exportOptions",
    "do_objectID": "9FE029FC-800E-4F4F-A6FC-E0E6F7DBECC4",
    "exportFormats": [
    ],
    "includedLayerIds": [
    ],
    "layerOptions": 0,
    "shouldTrim": false
  },
  "frame": {
    "_class": "rect",
    "constrainProportions": true,
    "do_objectID": "3432ED9A-9A51-4E0B-AF0B-DF7D906F741F",
    "height": 12,
    "width": 12,
    "x": 288,
    "y": 4
  },
  "horizontalSpacing": 0,
  "isFixedToViewport": false,
  "isFlippedHorizontal": false,
  "isFlippedVertical": false,
  "isLocked": false,
  "isVisible": true,
  "layerListExpandedType": 0,
  "name": "Black/icon-inactive",
  "nameIsFixed": false,
  "overrideValues": [
  ],
  "resizingConstraint": 12,
  "resizingType": 0,
  "rotation": 0,
  "scale": 1,
  "shouldBreakMaskChain": false,
  "style": {
    "_class": "style",
    "do_objectID": "9E56056B-EE14-4523-9658-4DF4CE9B1C03",
    "endMarkerType": 0,
    "miterLimit": 10,
    "startMarkerType": 0,
    "windingRule": 1
  },
  "symbolID": "23518F14-394B-4E06-85C6-4DA360118D62",
  "verticalSpacing": 0
}