{
  "_class": "shapePath",
  "booleanOperation": -1,
  "do_objectID": "0099BE39-656B-4938-9A77-E39AAE6B9E29",
  "edited": true,
  "exportOptions": {
    "_class": "exportOptions",
    "do_objectID": "798F0000-8F11-4655-8A79-30E9B069A17E",
    "exportFormats": [
    ],
    "includedLayerIds": [
    ],
    "layerOptions": 0,
    "shouldTrim": false
  },
  "frame": {
    "_class": "rect",
    "constrainProportions": false,
    "do_objectID": "2CAE47C2-BEEE-46E5-9AEB-56E84F06AC02",
    "height": 16,
    "width": 16,
    "x": 2,
    "y": 2
  },
  "isClosed": true,
  "isFixedToViewport": false,
  "isFlippedHorizontal": false,
  "isFlippedVertical": false,
  "isLocked": false,
  "isVisible": true,
  "layerListExpandedType": 0,
  "name": "Path",
  "nameIsFixed": false,
  "pointRadiusBehaviour": 1,
  "points": [
    {
      "_class": "curvePoint",
      "cornerRadius": 0,
      "curveFrom": "{0.22375, 1}",
      "curveMode": 2,
      "curveTo": "{0.77625000000000011, 1}",
      "hasCurveFrom": true,
      "hasCurveTo": true,
      "point": "{0.5, 1}"
    },
    {
      "_class": "curvePoint",
      "cornerRadius": 0,
      "curveFrom": "{0, 0.22374999999999989}",
      "curveMode": 2,
      "curveTo": "{0, 0.77625000000000011}",
      "hasCurveFrom": true,
      "hasCurveTo": true,
      "point": "{0, 0.5}"
    },
    {
      "_class": "curvePoint",
      "cornerRadius": 0,
      "curveFrom": "{0.77625000000000011, 0}",
      "curveMode": 2,
      "curveTo": "{0.22375, 0}",
      "hasCurveFrom": true,
      "hasCurveTo": true,
      "point": "{0.5, 0}"
    },
    {
      "_class": "curvePoint",
      "cornerRadius": 0,
      "curveFrom": "{1, 0.77625000000000011}",
      "curveMode": 2,
      "curveTo": "{1, 0.22375}",
      "hasCurveFrom": true,
      "hasCurveTo": true,
      "point": "{1, 0.5}"
    }
  ],
  "resizingConstraint": 63,
  "resizingType": 0,
  "rotation": 0,
  "shouldBreakMaskChain": false
}