{
  "_class": "symbolInstance",
  "booleanOperation": 0,
  "do_objectID": "2C0E23F1-4266-4610-914D-CFF5A908B774",
  "exportOptions": {
    "_class": "exportOptions",
    "do_objectID": "272F9510-DAFD-4E5B-8EEE-9E6156978AEF",
    "exportFormats": [
    ],
    "includedLayerIds": [
    ],
    "layerOptions": 0,
    "shouldTrim": false
  },
  "frame": {
    "_class": "rect",
    "constrainProportions": false,
    "do_objectID": "A5C8D2B8-F5E5-4CEE-87D9-E476E6D3DDD8",
    "height": 80,
    "width": 767.9999999999998,
    "x": 0,
    "y": 240
  },
  "horizontalSpacing": 0,
  "isFixedToViewport": false,
  "isFlippedHorizontal": false,
  "isFlippedVertical": false,
  "isLocked": false,
  "isVisible": true,
  "layerListExpandedType": 0,
  "name": "chat",
  "nameIsFixed": false,
  "overrideValues": [
  ],
  "resizingConstraint": 63,
  "resizingType": 0,
  "rotation": 0,
  "scale": 1,
  "shouldBreakMaskChain": false,
  "style": {
    "_class": "style",
    "do_objectID": "9BA83D60-A3F4-4869-9C17-56C9539C1242",
    "endMarkerType": 0,
    "miterLimit": 10,
    "startMarkerType": 0,
    "windingRule": 1
  },
  "symbolID": "3C5A1D0D-4593-49D3-BED5-2DBE2A6566B0",
  "verticalSpacing": 0
}