{
  "_class": "symbolInstance",
  "booleanOperation": 0,
  "do_objectID": "6DC5B567-72A3-453E-8B60-2F8478EDCB75",
  "exportOptions": {
    "_class": "exportOptions",
    "do_objectID": "47B50DC9-6E8C-4848-AEC0-93B55A8928B1",
    "exportFormats": [
    ],
    "includedLayerIds": [
    ],
    "layerOptions": 0,
    "shouldTrim": false
  },
  "frame": {
    "_class": "rect",
    "constrainProportions": false,
    "do_objectID": "654A5E65-291E-454E-9BB4-046CD93C608B",
    "height": 80,
    "width": 767.9999999999998,
    "x": 0,
    "y": 0
  },
  "horizontalSpacing": 0,
  "isFixedToViewport": false,
  "isFlippedHorizontal": false,
  "isFlippedVertical": false,
  "isLocked": false,
  "isVisible": true,
  "layerListExpandedType": 0,
  "name": "chat",
  "nameIsFixed": false,
  "overrideValues": [
  ],
  "resizingConstraint": 63,
  "resizingType": 0,
  "rotation": 0,
  "scale": 1,
  "shouldBreakMaskChain": false,
  "style": {
    "_class": "style",
    "do_objectID": "A08A8D69-A7AD-42C2-B3BE-F459B2B02330",
    "endMarkerType": 0,
    "miterLimit": 10,
    "startMarkerType": 0,
    "windingRule": 1
  },
  "symbolID": "354FBB6F-1C1B-4750-B4DF-980131E24683",
  "verticalSpacing": 0
}