{
  "_class": "group",
  "booleanOperation": 0,
  "do_objectID": "9F6B1CEB-47B1-4996-8D8F-287886229D2E",
  "exportOptions": {
    "_class": "exportOptions",
    "do_objectID": "DC6B3AD4-CB14-4C86-8A70-9B761F69AD56",
    "exportFormats": [
    ],
    "includedLayerIds": [
    ],
    "layerOptions": 0,
    "shouldTrim": false
  },
  "frame": {
    "_class": "rect",
    "constrainProportions": false,
    "do_objectID": "2E7E9D11-7CE7-4612-9D63-58785162B3BE",
    "height": 400,
    "width": 768,
    "x": 0,
    "y": 120
  },
  "hasClickThrough": false,
  "isFixedToViewport": false,
  "isFlippedHorizontal": false,
  "isFlippedVertical": false,
  "isLocked": false,
  "isVisible": true,
  "layerListExpandedType": 0,
  "layers": [
    {
      "class": "symbolInstance",
      "id": "C433ED73-49F5-45DD-BEED-C56494397468"
    },
    {
      "class": "symbolInstance",
      "id": "2C0E23F1-4266-4610-914D-CFF5A908B774"
    },
    {
      "class": "symbolInstance",
      "id": "6F8F7520-9511-401C-B2D8-5C46AC44350F"
    },
    {
      "class": "symbolInstance",
      "id": "6DC5B567-72A3-453E-8B60-2F8478EDCB75"
    },
    {
      "class": "symbolInstance",
      "id": "FB850AC1-2B8C-4A6D-A305-261DAFFEC6B9"
    }
  ],
  "name": "mat-expansion-panel",
  "nameIsFixed": true,
  "resizingConstraint": 63,
  "resizingType": 0,
  "rotation": 0,
  "shouldBreakMaskChain": false,
  "style": {
    "_class": "style",
    "do_objectID": "D69A0089-F217-441B-AE47-0EB1EE4CD67C",
    "endMarkerType": 0,
    "miterLimit": 10,
    "startMarkerType": 0,
    "windingRule": 1
  },
  "userInfo": {
    "com.animaapp.stc-sketch-plugin": {
      "kModelPropertiesKey": {
      }
    }
  }
}