{
  "_class": "symbolInstance",
  "booleanOperation": 0,
  "do_objectID": "2EA47639-E43D-4569-A80C-A139B2ED2E1E",
  "exportOptions": {
    "_class": "exportOptions",
    "do_objectID": "B288A419-2A40-4881-ABFC-C02C85A0CE1F",
    "exportFormats": [
    ],
    "includedLayerIds": [
    ],
    "layerOptions": 0,
    "shouldTrim": false
  },
  "frame": {
    "_class": "rect",
    "constrainProportions": true,
    "do_objectID": "40F18364-869C-4AC1-9A8F-C89A35912CC2",
    "height": 16,
    "width": 16,
    "x": 117,
    "y": 19
  },
  "horizontalSpacing": 0,
  "isFixedToViewport": false,
  "isFlippedHorizontal": false,
  "isFlippedVertical": false,
  "isLocked": false,
  "isVisible": true,
  "layerListExpandedType": 0,
  "name": "Black/icon-inactive",
  "nameIsFixed": false,
  "overrideValues": [
  ],
  "resizingConstraint": 12,
  "resizingType": 0,
  "rotation": 0,
  "scale": 1,
  "shouldBreakMaskChain": false,
  "style": {
    "_class": "style",
    "do_objectID": "ABCEFB07-B1A0-426F-8121-BDE6236685E8",
    "endMarkerType": 0,
    "miterLimit": 10,
    "startMarkerType": 0,
    "windingRule": 1
  },
  "symbolID": "23518F14-394B-4E06-85C6-4DA360118D62",
  "verticalSpacing": 0
}