{
  "_class": "symbolInstance",
  "booleanOperation": 0,
  "do_objectID": "5F78BBBE-9950-4D9E-97F3-7DAE0047BB02",
  "exportOptions": {
    "_class": "exportOptions",
    "do_objectID": "AD7F5002-6965-48F4-A8E7-049E095EA883",
    "exportFormats": [
    ],
    "includedLayerIds": [
    ],
    "layerOptions": 0,
    "shouldTrim": false
  },
  "frame": {
    "_class": "rect",
    "constrainProportions": true,
    "do_objectID": "6C416A82-5187-4EC7-8DC9-645538C332AE",
    "height": 12,
    "width": 12,
    "x": 304,
    "y": 4
  },
  "horizontalSpacing": 0,
  "isFixedToViewport": false,
  "isFlippedHorizontal": false,
  "isFlippedVertical": false,
  "isLocked": false,
  "isVisible": true,
  "layerListExpandedType": 0,
  "name": "Black/icon-active-unfocused",
  "nameIsFixed": false,
  "overrideValues": [
  ],
  "resizingConstraint": 12,
  "resizingType": 0,
  "rotation": 0,
  "scale": 1,
  "shouldBreakMaskChain": false,
  "style": {
    "_class": "style",
    "do_objectID": "0E361B21-5F64-40F7-97DA-2C1322F48272",
    "endMarkerType": 0,
    "miterLimit": 10,
    "startMarkerType": 0,
    "windingRule": 1
  },
  "symbolID": "39FA8BF2-9336-4B2B-AE56-6B5E13045A31",
  "verticalSpacing": 0
}