{
  "_class": "symbolInstance",
  "booleanOperation": -1,
  "do_objectID": "F51B26D0-527C-4F5C-8300-4E0F8E290EA3",
  "exportOptions": {
    "_class": "exportOptions",
    "do_objectID": "E7E1C8A0-2296-4A52-99B2-3B271A3D6753",
    "exportFormats": [
    ],
    "includedLayerIds": [
    ],
    "layerOptions": 0,
    "shouldTrim": false
  },
  "frame": {
    "_class": "rect",
    "constrainProportions": false,
    "do_objectID": "67EEF4B5-7BD6-404E-B640-70631C4F5FD7",
    "height": 14,
    "width": 22,
    "x": 294,
    "y": 39
  },
  "horizontalSpacing": 0,
  "isFixedToViewport": false,
  "isFlippedHorizontal": false,
  "isFlippedVertical": false,
  "isLocked": false,
  "isVisible": true,
  "layerListExpandedType": 0,
  "name": "25h8/chat/notification-bubble-3-digit-normal",
  "nameIsFixed": false,
  "overrideValues": [
  ],
  "resizingConstraint": 12,
  "resizingType": 0,
  "rotation": 0,
  "scale": 1,
  "shouldBreakMaskChain": false,
  "style": {
    "_class": "style",
    "do_objectID": "595F61C8-E33F-4F54-B393-1B699299EDCE",
    "endMarkerType": 0,
    "miterLimit": 10,
    "startMarkerType": 0,
    "windingRule": 1
  },
  "symbolID": "3F668D78-AD18-407A-A5B8-94E350E6E6D3",
  "verticalSpacing": 0
}