{
  "_class": "group",
  "booleanOperation": 0,
  "do_objectID": "B5C1E1B9-2B9B-4C6E-9141-928A364FBBFE",
  "exportOptions": {
    "_class": "exportOptions",
    "exportFormats": [
    ],
    "includedLayerIds": [
    ],
    "layerOptions": 0,
    "shouldTrim": false
  },
  "frame": {
    "_class": "rect",
    "constrainProportions": true,
    "height": 24,
    "width": 24,
    "x": 0,
    "y": 0
  },
  "hasClickThrough": false,
  "isFixedToViewport": false,
  "isFlippedHorizontal": false,
  "isFlippedVertical": false,
  "isLocked": false,
  "isVisible": true,
  "layerListExpandedType": 2,
  "layers": [
    {
      "class": "shapeGroup",
      "id": "B2CE94A4-BA60-4D30-B66B-23036FC6A9C0"
    },
    {
      "class": "shapeGroup",
      "id": "389879D4-782F-4B0B-82B4-EC4B6AC5C438"
    }
  ],
  "name": "25h8/chat/icon/black/settings-active-unfocused",
  "nameIsFixed": true,
  "resizingConstraint": 63,
  "resizingType": 0,
  "rotation": 0,
  "shouldBreakMaskChain": false,
  "style": {
    "_class": "style",
    "endMarkerType": 0,
    "miterLimit": 10,
    "startMarkerType": 0,
    "windingRule": 1
  }
}