{
  "_class": "symbolMaster",
  "backgroundColor": {
    "_class": "color",
    "alpha": 1,
    "blue": 1,
    "do_objectID": "E9AAA314-AC9B-49A8-BBFA-2C980C03342C",
    "green": 1,
    "red": 1
  },
  "booleanOperation": 0,
  "changeIdentifier": 546,
  "do_objectID": "ED01B7BD-E32C-4D66-8DE7-FC4131AB3683",
  "exportOptions": {
    "_class": "exportOptions",
    "do_objectID": "1F1B90F9-C462-410C-9ACE-226534C1AE79",
    "exportFormats": [
    ],
    "includedLayerIds": [
    ],
    "layerOptions": 0,
    "shouldTrim": false
  },
  "frame": {
    "_class": "rect",
    "constrainProportions": false,
    "do_objectID": "FE6FAD9E-5753-4628-B066-8A13D00035D7",
    "height": 40,
    "width": 40,
    "x": 1840,
    "y": 139
  },
  "hasBackgroundColor": false,
  "hasClickThrough": true,
  "horizontalRulerData": {
    "_class": "rulerData",
    "base": 0,
    "do_objectID": "D469C8AF-3357-4FCE-A9CE-6C8A8B7C3056",
    "guides": [
    ]
  },
  "includeBackgroundColorInExport": true,
  "includeBackgroundColorInInstance": false,
  "includeInCloudUpload": true,
  "isFixedToViewport": false,
  "isFlippedHorizontal": false,
  "isFlippedVertical": false,
  "isFlowHome": false,
  "isLocked": false,
  "isVisible": true,
  "layerListExpandedType": 2,
  "layers": [
    {
      "class": "shapeGroup",
      "id": "48B5C2CE-0FE8-4002-8391-B5D3E68E5B5E"
    },
    {
      "class": "shapeGroup",
      "id": "15185AF9-A10C-406A-B8A8-9B2833E059D2"
    }
  ],
  "name": "25h8/chat/mat-icon-button/subchat/subchat-press",
  "nameIsFixed": true,
  "resizesContent": false,
  "resizingConstraint": 63,
  "resizingType": 0,
  "rotation": 0,
  "shouldBreakMaskChain": true,
  "style": {
    "_class": "style",
    "do_objectID": "2D4B3E10-7AEE-4EA1-AD22-FEB0962DBEFC",
    "endMarkerType": 0,
    "miterLimit": 10,
    "startMarkerType": 0,
    "windingRule": 1
  },
  "symbolID": "5E286C26-7A7D-4906-A2E1-73A1DCF84BDD",
  "verticalRulerData": {
    "_class": "rulerData",
    "base": 0,
    "do_objectID": "00985BC5-503D-440F-B495-575D571A05F1",
    "guides": [
    ]
  }
}