{
  "_class": "group",
  "booleanOperation": 0,
  "do_objectID": "41588DA4-9716-4DFA-BF43-756BF7C4842B",
  "exportOptions": {
    "_class": "exportOptions",
    "do_objectID": "64EAA394-32C8-4E32-A825-C190E415C481",
    "exportFormats": [
    ],
    "includedLayerIds": [
    ],
    "layerOptions": 0,
    "shouldTrim": false
  },
  "frame": {
    "_class": "rect",
    "constrainProportions": false,
    "do_objectID": "F792ABC6-BE0C-4A50-824D-966450EDDE49",
    "height": 36,
    "width": 276,
    "x": 0,
    "y": 158
  },
  "hasClickThrough": false,
  "isFixedToViewport": false,
  "isFlippedHorizontal": false,
  "isFlippedVertical": false,
  "isLocked": false,
  "isVisible": true,
  "layerListExpandedType": 2,
  "layers": [
    {
      "class": "shapeGroup",
      "id": "12AB202D-0941-464F-A332-55649CAF0162"
    },
    {
      "class": "text",
      "id": "05D879D4-2B84-4CD4-B51A-C83BE7C425C1"
    }
  ],
  "name": "Dense two-line list with double avatar/normal",
  "nameIsFixed": true,
  "resizingConstraint": 63,
  "resizingType": 0,
  "rotation": 0,
  "shouldBreakMaskChain": false,
  "style": {
    "_class": "style",
    "do_objectID": "304A0F58-9D10-4FEB-AC58-D3A45DC62CC1",
    "endMarkerType": 0,
    "miterLimit": 10,
    "startMarkerType": 0,
    "windingRule": 1
  },
  "userInfo": {
    "com.animaapp.stc-sketch-plugin": {
      "kModelPropertiesKey": {
      }
    }
  }
}